547001
12003
Sách có giá thành rẻ. Bù lại chất lượng giấy không được tốt. Trong sách cũng có vài lỗi sai chính tả, đáp án cũng có 2, 3 câu sai. Tuy nhiên có thể tham khảo được (=^.^=)
3
1123991
2017-03-18 20:59:02
--------------------------
