574109
1447
Cuốn sách mở ra 1 cuộc sống không chỉ về elon mà cả từ cội nguồn để biết rõ elon đam mê hàng không vũ trụ từ đâu
4
833715
2017-04-15 15:59:52
--------------------------
561385
1447
Sách tiếng Anh của Tiki có chung đặc điểm là không có thông tin rõ ràng (paperback,hardcover, ISBN) để khách hàng biết gì cả. Mua về mới té ngửa, giá rẻ là do sách bỏ túi, giấy rởm!!! Thất vọng!!
1
4630
2017-04-01 15:53:16
--------------------------
