533941
1720
Sách hay, giúp mình cải thiện được vốn tiếng anh...................................................................................................................................
4
369451
2017-03-02 12:27:55
--------------------------
