561381
1891
Bìa mềm, giấy paperback - loại rẻ tiền, dùng đọc vài lần chứ không đẹp như giấy sách VN hay loại bìa cứng. Nhìn hình sách của bạn trên, tưởng bìa cứng, nên mới mua, ai ngờ thất vọng! Tiki dạo này kinh dị thật, muốn bán hàng đến nỗi vậy à!
1
4630
2017-04-01 15:50:41
--------------------------
507301
1891
Rất hay, nó giúp chúng ta hiểu bản chất của những quyết định mang tính cảm tính.
5
468013
2017-01-08 11:32:43
--------------------------
