575357
1934
Kích cỡ sách nhỏ gọn, giấy recycle nên sách rất nhẹ và thuận tiện cho việc đem sách theo đọc mọi lúc mọi nơi.
Đây là sách non fiction nên đối tượng đọc sách này cũng kén chọn hơn.
Nói chung, chủ đề này hay. Đọc để mở mang kiến thức.
5
1072705
2017-04-17 10:51:08
--------------------------
495826
1934
Sách: size nhỏ, giấy in sách rất xấu, mùi hôi
Never pay  money for those kinds of book again.

1
152989
2016-12-14 15:18:57
--------------------------
