455533
3477
Cuốn sách vừa học vừa chơi mang chủ đề là các hành tinh phép thuật . 
 Giúp các bé đồng thời học được nhiều kỹ năng như  tô màu .  
Rèn luyện khả năng tiếng anh .  
Nâng cao năng lực tư duy .  
Rèn luyện trí óc .... 
Và còn nhiều kỹ năng khác nữa đang chờ các mẹ khám phá . 
Mẹ nào có ý định mua thì hãy nhanh tay mua đừng chần chờ kẻo hết sách thì lại tiếc đấy nhé . 
Cảm ơn tiki nhiều vì đã đóng gói và bao bò cẩn thận cuốn sách này .
5
593209
2016-06-22 16:45:21
--------------------------
