519457
3750

Các bài văn mẫu trong tập sách đa dạng về nội dung (văn, thơ, tục ngữ...) và thể loại (cảm nhận, bình luận, phân tích, giải thích, ...). Một đề văn có thể có nhiều bài làm văn.Ngoài ra tập sách còn có thêm nhiều bài đọc thêm giúp học sinh mở rộng vốn kiến thức về văn học.
4
1302544
2017-02-05 20:18:01
--------------------------
