500081
3770
Qua chapter 2, có một số bài kêu reading nhưng chỉ thấy câu hỏi, không thấy có đoạn văn để đọc. Hình như cuốn sách này đã edit thiếu một số bài. Mong có sự khắc phục và kiểm tra trước khi tái bản. Trân trọng. 
3
382257
2016-12-26 09:55:39
--------------------------
