265166
4137
bài nâng cao :D
giấy tốt, nhìn mê lắm ^_^ 
hỗ trợ rất tốt cho việc học tiếng anh, nhờ nó mà vốn từ được nâng lên đáng kể, nên các bài luận trong trường và ở câu lạc bộ của mình đều được đánh giá khá cao. Mình rất thích cuốn sách này và đặc biệt recommend nó cho những ai muốn nâng cao từ vựng của mình :)
4
547720
2015-08-13 19:52:43
--------------------------
