476388
4683
Bộ sách này có 10 quyển, hai con tôi học cấp I rất thích, bìa đẹp, chữ in sắc nét, màu sắc tranh ảnh minh họa sinh động, hai bé nhà tôi đọc mê mẩn rồi còn mang ra trao thảo luận với nhau, tôi mua còn thiếu 2 quyển "Bí ẩn xác chết vô danh" & "Thung lũng những bộ xương khổng lồ", Tiki không có hai quyển đó, Tiki có thể kiếm hàng để cung cấp không? Tôi có kiếm thử bên nhà sách Kim Đồng và Phương Nam có bán nhưng do thích mua ở Tiki vì có sử dụng book care nên sách sẽ đẹp hơn và dùng bền hơn. 
5
839151
2016-07-20 10:49:52
--------------------------
