576045
5009
Giao hàng cực nhanh, mình mới đặt mua tối 11h hôm qua , mà lúc 4h đã có hàng r, sách đẹp nhưng ngay bìa có một phần bị dư ra và bị gấp lại, nhưng nhìn chung thì rất hài lòng
4
1638998
2017-04-17 22:37:00
--------------------------
568349
5009
Truyện cực hay, bookmark đẹp. Rất hài lòng về nội dung lẫn cả nhân vật. Đáng tìm để đọc
5
36103
2017-04-09 15:55:35
--------------------------
553129
5009
Thích cuốn này lắm, tui đọc trong hai ngày sau khi hàng tới, hấp dẫn lắm ấy
5
1924769
2017-03-24 17:45:28
--------------------------
552013
5009
Không có bọc,ko có bookmart của nhà xuất bản,sách nhìn mới
4
2069836
2017-03-23 19:28:23
--------------------------
548285
5009
Tiki giao sách cũ cho mình sách không được gói kỹ càng nhăn nhúm, bị bẩn sách nữa chứ!!
2
602725
2017-03-20 12:28:27
--------------------------
543585
5009
Không uổng công mua đọc càng ngày càng hấp dẫn muốn đọc hoài luôn
5
2210801
2017-03-15 16:50:21
--------------------------
538713
5009
Truyện khiến cho mình cảm thấy muốn có BỒ :))) ghen với bot trong chuyện quá :((( có vài chi tiết cảm động và khiến mình lung lay trái tim. Kết thúc ấm áp và hình như 1 chút........ hehe =))) truyện hay lắm cảm ơn tác giả và Tiki nhé

5
634573
2017-03-10 10:01:30
--------------------------
531029
5009
Đã đọc qua rất nhiều truyện đam mỹ, nhưng "Anh chỉ cần em" lại là cuốn truyện để lại ấn tượng nhiều nhất trong lòng mình. Truyện có ngược, có nhu, có lúc ngọt ngào có lúc lại đau đớn ko thôi. Nhưng dù thế nào bạn thụ bướng bỉnh cũng chịu ở bên anh công, còn hét lớn tên anh trên biển mà nói yêu anh nữa. Đoạn đó là đoạn mình chắc chả bao giờ quên nổi, tác giả miêu tả quá hay. Các bạn mê đam mỹ nên đọc thử 1 lần!
5
2126235
2017-02-24 13:21:26
--------------------------
527057
5009
Truyện nhẹ nhàng và rất lôi cuống. Mình rất ấn tượng nhân vật của truyện anh thụ rất bướng bỉnh nhưng cũng rất đáng yêu còn anh công thì rất ôn nhu. Nói chung là truyện rất hay
5
2082184
2017-02-17 21:01:29
--------------------------
513829
5009
Truyện này mình canh tái bản tận 2 lần :v vừa có hàng trên Tiki là hốt ngay ^_^ mãi đến hôm nay mới rãnh thời gian đọc và mình đã đọc 1 mạch hết cuốn luôn :)) bìa sau khi tái bản cực đẹp nha <3 đây là một câu chuyện để lại ấn tượng sâu sắc với mình bởi chi tiết " đối tác ( yêu nhau ) trong 1 tháng - hết 1 tháng đường ai nấy đi - có gặp lại cũng như người dưng - dứt khoát tuyệt tình " ở đầu truyện . Sau đấy bạn công " mặt dày ? - ôn nhu " theo đuổi thụ . Còn bạn thụ lại bướng bĩnh chuẩn kiểu " kiều ngạo thụ " . Cao trào của truyện lại nằm gần cuối " mẹ của Ký Minh bộc lộ rõ quan điểm cổ hủ về đồng tính - 2 người đàn ông ôm ấp nhau là kinh tởm " khiến mình vừa đọc vừa day dứt đồng thời câu chuyện còn phản ánh hiện thực xã hội ngày này , cái nhìn của bậc cha mẹ về đề đồng tính, sự phản đối từ gia đình và những khó khăn họ phải trải qua để được ở bên nhau. Dù trải qua bao thăng trầm nhưng Duy Tín - Ký Minh vẫn luôn bên nhau và yêu nhau sâu đậm . Đây là một câu chuyện mình nghĩ các bạn nên đọc 1 lần :)) 
5
432486
2017-01-20 20:50:01
--------------------------
506773
5009
Mình thì khá là thoải mái trong việc đọc sách,  ok thấy hợp thì mình đọc, k phù hợp thì mình sẵn sàng bỏ qua 1 bên... Đây là cuốn sách đầu tiên đưa mình đến với đam mỹ, mình cũng k quá khắt khe trong việc đọc sách nên nói chung thì đây là 1 quỷên sách hay mà m.n nên đọc thử.
5
770059
2017-01-07 10:45:23
--------------------------
503545
5009
Nhẹ nhàng .-. cơ mà không thích cái kiểu truyện theo motip lắm
4
1961593
2017-01-01 13:06:55
--------------------------
502389
5009
Thật sự lúc đầu mình đọc qua văn án thì cũng không thấy thích cho lắm. Nhưng mà do bạn bè giới thiệu nên mình mới mua. Lúc đọc xong mới biết truyện này rất hay, bìa cũng đẹp. Mà tiếc là không có bookmark
5
2016114
2016-12-30 08:00:59
--------------------------
494940
5009
Nội dung hay cực ( H nhiều nhưng không dày ^^)Bé thụ lạnh lùng lí trí nhưng cuối cùng cũng bị công hốt zìa. Thích nhất ngoại truyện cuối cùng^^
5
1889984
2016-12-09 19:58:14
--------------------------
465147
5009
Thực ra thì so vs rất rất nhiều những cuốn đam mỹ hay thì mình ko đánh giá cao cuốn này lắm. Chi tiết mà mình cho là quan trọng nhất trong truyện đó là 1 tháng đầu 2 người ở cùng nhau, đó là qua trình từng bước phát sinh tình cảm thì tác giả lại chỉ nói qua rất vắn tắt, sau đấy qua vài trang thì 2 anh đã yêu nhau rồi @@ Thật sự là quá mức nhanh rồi. Ngoại trừ phần đầu ko ưng ý ra thì đoạn sau viết cũng khá ổn nhưng nói chung vẫn không để lại ấn tượng nhiều.
2
666736
2016-06-30 21:20:12
--------------------------
461968
5009
Đây là quyển đam mỹ đầu tiên mình đọc và mình thích đam mỹ từ quyển này. Một câu chuyện nhẹ nhàng, lãng mạn nhưng không kém phần dễ thương. Anh công thì vô cùng hoàn hảo, anh thụ ôn nhu đáng yêu. Truyện mang lại tiếng cười nhưng cũng mang lại những cảm xúc cảm động. Điểm cộng lớn nhất của truyện là bìa sách rất đẹp, mang cảm giác buồn buồn. Bookmark rất đẹp, nhỏ nhỏ xinh xinh tuy nhiên điểu trừ là giấy in rất là mỏng. Trang này bị lem sang trang kia nhìn rất khó chịu. Mong nxb khắc phục trong lần tái bản tiếp theo.
5
278052
2016-06-28 09:51:58
--------------------------
450497
5009
Đây là lần đấul tiên tôi cầm một quyển tiểu thuyết đam mĩ. Tôi suy nghĩ nhiều lắm vì không biết mình có ngấm nổi không nhưng không tôi hoánl toàn bị nó cuốn hút.
Truyện kể về tình yêu đầy ngang trái nhưng cũng đáng yêu của hai nam chính.
Anh công thì vô cùng hoàn hảo khỏi bàn rồi. Anh thụ thì dể  thương rất nhiều luôn. Tình yêu của hai anh ấy thật đẹp nhưng đôi lúc họ cãi nhau lại làm trái tim mình thắt lại vì tinh yêu của nam nam thì thật là khó khăn.
Bìa truyện thiết kế đậm chất buồn buồn nhưng tuyệt đẹp.
4
368535
2016-06-18 21:34:07
--------------------------
444795
5009
Có lẽ mình là độc giả khó tình nên không thích nội dung cuốn Anh chỉ cần em này lắm mặc dù Ôn nhu công, lạnh lùng thụ là gout của mình :'>

Tình tiết diễn biến tâm lý tác giả miêu tả cũng khá là tinh tế thế nhưng mình vẫn cảm thấy thiếu thiếu gì đó so với những tác phẩm khác =)) Điểm cộng là đầu mỗi chương đều trích dẫn vài lời bài hát, đây là điểm mình thích nhất ở cuốn này.

Chất lượng giấy cũng tạm ổn, trình bày cũng không cần phải nhận xét gì thêm. 
4
748324
2016-06-08 23:10:07
--------------------------
443737
5009
Truyện phản ánh rõ ràng việc kì thị đồng tính thời nay , là bộ đam mỹ chân thực nhất mà mình đọc qua . Lúc đầu mình không thích lão công , lúc ổng bị bỏ mình cười hả hê . Nhưng lúc hai người yêu nhau rồi , một lòng một dạ chỉ mình em , chỉ yêu thương chăm sóc em , mình thấy dễ thương lắm . Càng về sau càng ngọt hết sức luôn . Lúc bị gia đình phản đối , mình mới hiểu tại sao tựa sách lại là " anh chỉ cần em " . Vốn dĩ , chỉ hai người thôi là đủ , không cần thêm gì cả . Bìa sách đẹp , bookmark dày , giấy tốt và mực in đều .
5
441472
2016-06-07 11:36:39
--------------------------
442312
5009
Có thể nói đây là 1 trong những bộ đam mỹ chân thực hiếm hoi mà tôi được đọc. Tuy tình cảm của Liêu Duy Tín mãnh liệt hơn so với khả năng tôi cảm thấy con người thời nay có thể có được, nhưng cách nó diễn biến lại vô cùng tự nhiên! Đặc biệt là cách cảm nhận tiêu cực của gia đình Bạch Ký Minh (tiêu biểu là người mẹ)khi biết cậu là đồng tính, đó là một thực tế xã hội, không hề đơn giản và dễ dàng như một số các bộ truyện đam mỹ khác thể hiện. Và đó là 1 phần lý do tôi yêu thích tác phẩm này, nó có lãng mạn, có mơ mộng, cũng có thực tế, có đấu tranh, dù sự đấu tranh đó có phần ngốc nghếch, tiêu cực hay sáng suốt, tích cực đi nữa, đó cũng là một thực tế khác. bởi vì dù là bất kỳ ai, đều có thể 1 lần như Bạch Ký Minh, đến một bước ngoặt không biết tương lai ra sao, chỉ có thể liều mạng mà vượt qua!
Cuối truyện kết cục khá đơn giản, nhưng rất đơn thuần, nhẹ nhàng và thấm thía! Tác giả sử dụng lời bài hát để diễn tả cốt truyện chính cho từng chương là 1 sự lựa chọn tuyệt vời! Tôi cực kỳ cực kỳ thích bài "Người anh yêu nhất chính là em - Sao em lại nỡ làm anh đau lòng" - "Khác xa thực tế - 60 điểm vẫn hơn 100". Tuy tôi mua bản in bị hở mấy trang cuối, có chút sợ sẽ bị sứt trang....
Hy vọng tác phẩm của Thẩm Dạ Diễm sẽ được xuất bản nữa. Tôi rất ưng văn phong của tác giả này! 
5
998926
2016-06-04 20:44:14
--------------------------
437364
5009
Mình lúc đầu không định mua quyển này vì mình ghét ngược công, nhưng sau đó lên mạng đọc thử sơ sơ, lúc đầu có hơi ghét Bạch Kí Minh thiệt, vì em ấy hành người khác quá, chưa kể mình ghét luôn thằng học trò của ẻm, nhây nhây lầy lầy không ưa nổi, ghét tiểu tam.
Nhưng quyết định mua vì từ những chương mà Kí Minh chấp nhận tình yêu của Liêu Duy Tín, thì em ấy nhất định một lòng một dạ theo người ta, cả những khúc diễn tả tâm trạng của em ấy mới hiểu em ấy yêu Duy Tín thế nào, về sau ngoại trừ vấp sự phản đối của gia đình nhưng tình cảm của hai người vẫn ngọt lắm, chịu không nổi luôn.
5
936775
2016-05-28 02:44:44
--------------------------
420825
5009
Truyện nhẹ nhàng, nhân vật được xây dựng rất thật, đọc cảm thấy rất ấm áp và bình dị. Nhân vật thụ làm mình rất thích, tính cách rất đặc biệt, không dựa dẫm mà hơi ngang bướng. Lúc đầu không có thiện cảm với anh công, lúc ảnh bị bỏ mình vui như điên vậy! Truyện hay, không phải thể loại đam mỹ giải trí như truyện của Qifu A, truyện cho ta bài học về yêu thương và không kì thị người đồng tính, đó là lý do mình mua cuốn này.
Bìa sách và kẹp sách đẹp nhưng dịch còn sai chính tả, khoảng cách giữa các đoạn không được đều lắm.
5
1323183
2016-04-23 21:56:29
--------------------------
420191
5009
Khi bạn bè mới vừa gặp cuốn sách này của tôi cứ tưởng là Ngôn tình, biết sao được nó giống quá mà.
Còn về nội dung câu chuyện, không có gì để bàn cãi, dành cho những người thích Đam mỹ nhưng bận rộn với công việc của mình, câu chuyện không có quá nhiều sự miêu tả chi tiết phụ, ví dụ như người đi ngoài đường hay cái bàn cái ghế chẳng hạn, nhưng bạn đừng nghĩ rằng nó quá nhanh thì sẽ không để lại ấn tượng nhiều, đây là điều tôi thích nhất ở tác giả, suốt một câu chuyện nó chỉ như một cơn biển có sóng đùa giỡn, chỉ nhẹ nhàng không tạo quá nhiều áp lực cho người đọc nhưng khi kết thúc thì lại có vài sự hối tiếc và hạnh phúc trong đó...
Đồng thời, truyện cũng nêu lên vấn đề hiện tại và quá khứ : đa số mọi người tại sao lại xem thường người yêu đồng tính quá nhỉ? Và một số khác chỉ ủng hộ bởi vì để thỏa mãn dục vọng của mình?
5
1113877
2016-04-22 20:37:48
--------------------------
411195
5009
Câu chuyện bắt đầu khi Liêu Duy Tín được người bạn thân Đỗ Tín Thành của mình giới thiệu một “đối tác” với lời mời gọi: hàng tốt, 1 tháng, sau đó không dây dưa! Anh đã từng nghĩ đây chỉ là một chiêu trò "lạc mềm buộc chặt". Ấy vậy mà một tháng ân ái ấy, anh lại không thể kìm nổi cảm xúc dành cho chàng trai kia và ngây ngốc nhận ra tình cảm của mình. Liền sau đó là chuỗi ngày theo đuổi tình yêu cuồng nhiệt say mê của 2 chàng trai vượt qua mọi định kiến khó khắn của gia đình xã hội. Chuyện có ít sạn là tác giả có cho một số nhân vật hơi thừa không cần thiết. Nhưng không sao cả. Truyện hay hài hước và cũng rất lãng mạn nữa!!!
4
910770
2016-04-05 18:06:46
--------------------------
405224
5009
Anh chỉ cần em như một quyển nhật kí thu nhỏ cả xã hội hiện đại ngày nay, khi mà tình yêu đồng tính vẫn chưa thật sự được chấp nhận bởi cái bậc trưởng bối, các định kiến lâu đời, cuốn sách đã tái hiện rất thực, rất khách quan về câu chuyện tình cảm của hai nam chính và những khó khăn họ đã vượt qua để đến bên nhau. Về tính cách nhân vật mình đặc biệt thích Bạch Ký Minh, cậu ấy rất được. Đó là hình mẫu thụ hợp với gu của mình. Mình cũng thích cả cách Liêu Duy Tín kiên trì theo đuổi tình yêu của cuộc đời ann ta như thế nữa
5
927718
2016-03-26 11:53:06
--------------------------
403539
5009
Khi đọc những chương đầu, mình có thể thấy rõ một hiện thực trong xã hội khi những người đồng tính có thể hòa nhập vào xã hội, nhưng họ luôn bế tắc bởi những quan niệm định kiến khiến bản thân không thể sống đúng với con người mình.
Bạch Ký Minh trong đây cũng vậy, cậu và Liêu Duy Tín đã gặp gỡ, sống chung rồi chia cách, cũng bởi cậu không dám vượt qua những rào cản tâm lý, không dám đối mặt khi xã hội vẫn còn kì thị.
Nhưng Liêu Duy Tín đã nhận ra tình cảm của mình và không chấp nhận hạnh phúc đã đến lại vuột qua, vì thế khi gặp lại Ký Minh, anh đã trực tiếp theo đuổi lại cậu, khiến cậu chấp nhận tình cảm của mình, cùng anh vượt qua những sóng gió để đến bên nhau.
Đây là bản tái bản thứ hai của bộ này rồi, bởi vì BV có nói có bổ sung thêm một chút ít nên mình đã mua thêm, bookmark cũng rất đẹp :) Vì giá tiền của "Anh chỉ cần em" cũng không đắt lắm nên bạn nào muốn có thêm một cuốn truyện hay để bổ sung vào tủ sách đam mỹ của mình thì không nên bỏ qua nha ^^
4
1240082
2016-03-23 22:17:04
--------------------------
395794
5009
Mình rất thích hình tượng nhân vật Liêu Duy Tín nha ~ ôn nhu,bá đạo,trung khuyển công ^^ bạn công là một người đàn ông thành đạt,tài giỏi cộng thêm hình ảnh là một người đẹp trai,cuốn hút thì đúng là tài sắc vẹn toàn.Hình tượng của bạn thụ thì khá thú vị,một thầy giáo nghiêm túc lãnh đạm trên giảng đường,một người tình dịu dàng đầy quyến rũ khi ở bên Liêu Duy Tín.Con người của Bạch Ký Minh quả thật rất đặc biệt ah ~ tình cảm của hai người thật sâu nặng,dù vướng phải rào cản gia đình cũng không hề buông tay.Đây là một câu chuyện rất hay.À mà phần ngoại truyện thì... chị tác giả làm cụt hứng nha 
4
602474
2016-03-12 14:54:43
--------------------------
394295
5009
Hầu hết các truyện Đam mỹ kết thúc vui vẻ là cặp đôi chính thức yêu nhau, nhưng quyển này một chút thực tế hơn. " Anh chỉ cần em" tiếp tục viết phần sau đó nữa, là phần khó khăn nhất, dám dũng cảm thú nhận và ra mắt với cha mẹ hai bên, " vỗ ngực xưng tên" rằng ba mẹ ơi, con đây chỉ thích nam, không thích nữ, và đây là chàng trai mà con yêu. Họ biết lựa chọn con đường này là rất khó khăn, không có đường lui nhưng họ vẫn muốn nắm chặt tay nhau. Như Liêu Duy Tín từng nói rằng, anh muốn cùng người yêu ra nước ngoài kết hôn, muốn cùng nhận nuôi một đứa trẻ, muốn Bạch Ký Minh hãy tin tưởng anh, họ nhất định sẽ cùng nhau đi đến cuối con đường. Chúc các cặp đôi ngoài đời thực được gia đình và xã hội chấp nhận,  và cũng chúc họ hạnh phúc đến đầu bạc răng long.
5
1191543
2016-03-10 09:33:48
--------------------------
389090
5009
Truyện này đã mua lâu rồi nhưng lâu lâu đọc lại vẫn thấy rất gần gũi và dễ kết nối với nó. Tình tiết nhẹ nhàng, không cẩu huyết. Mặc dù Liêu Duy Tín cũng là giám đốc đó nhưng không phải kiểu giám đốc gì mà "lãnh khốc vô tình" hay dạng "ai ai cũng phải nể" như mấy truyện khác (loại đó đọc riết vô vị luôn) nên thấy nó chân thật hơn rất nhiều. Có lẽ đây là 1 trong số hiếm những anh công mà mình "đánh giá cao" đây :)). Cái kiểu lí trí của Bạch Ký Minh thì làm mình vừa yêu vừa giận, sống như Ký Minh nhất định là rất mệt mỏi, may mà vẫn còn có Duy Tín. Nói chung là rất hay.
5
1163137
2016-03-01 11:53:07
--------------------------
387987
5009
Tình cờ thấy truyện, mình lại tính mê truyện đam nên đặt mua bưng ngay em về nhà. 
Ưu điểm:
- Cốt truyện hay, thu hút người đọc.
- Bìa đẹp, cứng, giấy dày.
Nhược:
- Cảnh H khá ít ( chắc là bị cắt lúc xuất bản T.T bản thân là sắc nữ).
P/s: Buồn nhất là cái nhìn sai lệch về quan niệm đồng tính của bố mẹ Bạch Ký Minh, làm anh suýt tự kỉ (cơ mà hình như ảnh từng bị tự kỉ nhẹ). Kết thúc HE (nhiều cảnh ngược nhau ghê) ^^ Thích nhất là các chương ngoại truyện... suýt "hãm hiếp" luôn cuốn truyện...
5
1062375
2016-02-27 22:40:46
--------------------------
381888
5009
Nhẹ nhàng trôi, diễn biến không quá cao trào. Kết thúc không có gì là mới mẻ quá, nhưng diễn đạt và ngôn từ ổn, làm cho người đọc thấy dễ chịu. Một lãnh đạm công và bướng bỉnh thụ, hòa hợp, tạo ra màu sắc mới. Sách rất thích hợp cho những ai yêu thích tiểu thuyết đam mỹ nhẹ nhàng và ổn định, không quá cao trào, gấp rút hay hối hả, xô bồ. Bìa sách trang trí ổn nhưng có một số chỗ mắc lỗi in.... Ba sao là một mức đánh giá khuyến khích, hy vọng sẽ có dịp thử và nhìn nhận những chiều hướng khác !
3
286362
2016-02-18 11:30:55
--------------------------
380877
5009
Trong nhiều tác phẩm đam mỹ được xuất bản tại Việt Nam, "Anh chỉ cần em" là một trong những tác phẩm mình yêu thích nhất. Có lẽ bởi vì đúng gu mình thích nên có hơi thiên vị một chút :))

Về hình thức thì sau nhiều lần tái bản đổi bìa, thì bìa mới này mình thấy khá ổn. Chất lượng giấy tốt.

Về nội dung truyện, câu chuyện tình yêu của hai anh làm mình quắn quéo cực kỳ, vừa thực tế lại vừa lãng mạn. Đọc mà thấy thương hai anh rất nhiều, may là HE ;;-;;




4
180125
2016-02-16 00:37:59
--------------------------
380027
5009
Mình đã mua cuốn này từ đợt xuất bản đầu, nhưng khi BV thông báo tái bản lại bổ sung thêm một chút thì mình lại mua thêm một cuốn nữa :)
Đây là cuốn sách không hẳn là quá xuất sắc, nhưng lại rất thật. Khi mà một người không dám sống với đúng con người của mình, lại theo thỏa thuận sống chung cùng một người khác, khi hết thời hạn thì tự động rời đi không chút lưu luyến, tuy nhìn vào thì có thể thấy người đó vô tâm, nhưng đối với cậu lại là tâm đã động, chỉ là không dám đối mặt, rời đi dứt khoát để không lưu luyến mà thôi. Còn anh, khi đã nhận ra tình cảm của mình và gặp lại cậu, đã không chút do dự dùng tình yêu và lòng kiên nhẫn của mình, từng chút từng chút cảm hóa cậu, khiến cậu kiên định và dũng cảm hơn đối mặt với tình cảm của cả hai, bỏ qua ánh mắt thế tục mà tiến đến hạnh phúc.
Từ lúc mua về mình chưa đọc lại do thích giữ sách nên không rõ lắm đoạn tái bản có bổ sung thêm gì, nhưng bookmark của bản này đẹp lắm luôn ^^ Mình cũng thích cả cái bìa nữa, cảm thấy ngọt ngào lãng mạn cực kì 
4
11533
2016-02-13 16:14:33
--------------------------
373582
5009
Đây là cuốn Đam mỹ thứ 2 mình mua về :))) Mình toàn đọc Đam mỹ ở trên wed, cuốn thứ nhất mình mua là Đại minh tinh và thợ săn ảnh. Phải nói "Anh chỉ cần em" rất hay, không mang cảm giác nhàm chán. 
Tình yêu giữa Bạch Kí Minh và Liêu Duy Tín rất đáng yêu, cũng giống như câu nói đang nổi của các hủ nữ hủ nam "Tình yêu giữa 2 người đàn ông mới là đích thực" =]]]]
Về hình thức thì rất đẹp, thêm bookcare  của tiki nên càng lộng lẫy.Cầm lên rất sướng tay, Nói chung mình rất hài lòng về cuốn sách này :))))
5
257278
2016-01-24 08:29:06
--------------------------
371332
5009
Đây là cuốn đam mỹ mà mình thích nhất và để lại trong lòng mình nhiều ấn tượng nhất! Truyện nói về tình cảm giữa Bạch Kí Minh và Liêu Duy Tín, dù khởi đầu là câu chuyện tình không suôn sẻ nhưng bất ngờ lại có kết thúc HE trải qua bao thăng trầm vẫn luôn bên nhau và yêu nhau. Truyện phản ánh đúng hiện thực về xã hội, cái nhìn của bậc cha mẹ về vấn đề đồng tính, sự phản đối từ gia đình và những khó khăn họ phải trải qua để được ở bên nhau.
4
904090
2016-01-19 12:48:18
--------------------------
369614
5009
Mình vừa đọc xong bộ này là mò lên để nhận xét liền và ngay. Nội dung câu truyện hay, có hạnh phúc - có ngược luyến. Rất ích nhất vật Công, trong truyện tình cảm anh là một người tâm lý dịu dàng, lý trí vững chắc, mặc cho thụ bướng bỉnh, không nghe lời, anh vẫn dổ dành yêu thương cho người mình yêu,... Phần ngoại truyện cuối cảnh XXX làm mình muốn sặc máu nhưng câu truyện ít phải chi tác giả viết nhiều thật nhiều để đọc cho sướng mắt.

Bìa tái bản lần này đẹp hơn 2 bìa củ. Giấy tốt nhưng bookmark quá mỏng manh rất dễ cong, bung đầu,...

Mong NXB cho ra mắt thật nhiều những sản phẩm của Diễm tỷ !
5
877424
2016-01-16 05:55:17
--------------------------
368083
5009
Anh chỉ cần em được viết theo lối văn ấm áp, hơi ngược 1 chút khiến cho độc giả khi đọc có nhiều cảm xúc. Anh công là 1 người chỉ thích vui vẻ không ràng buộc, bạn thụ là 1 người có tư tưởng thực tế, vẻ ngoài lạnh lùng, mạnh mẽ che đậy cái yếu đuối và con người thật bên trong. Hai người gặp nhau qua sự giới thiệu của bạn với 1 hợp đồng ngắn hạn sống chung. Trong thời gian sống chung công rất vui vẻ, cảm thấy ấm áp và tràn đầy không khí gia đình nhưng rồi khi thời hạn hợp đồng đã hết, thụ bỏ đi như điều kiện đặt ra lúc đầu làm công rất buồn. Số phận đẩy đưa họ gặp nhau lần nữa và anh công nhận ra tình cảm của mình quyết định theo đuổi thụ mặc dù luôn bị thụ lạnh nhạt. 
Một câu truyện mang hơi hướng thực tế. Sự lo sợ của bạn thụ không dám thừa nhận giới tính thật của mình do áp lực xã hội đè nén và sợ ba mẹ phiền lòng là tâm lý chung của tất cả những người thuộc giới tính thứ 3.
Truyện rất hay và thực sự đáng đọc. Chất lượng giấy tốt, phông chữ và màu đen của chữ khá rõ ràng cơ mà vẫn còn sai chính tả nhưng không nhiều.
5
929633
2016-01-13 12:23:41
--------------------------
366143
5009
Các nhân vật sắc sảo, mình rất thích
Nhân vật Bạch Ký Minh làm mình ấn tượng vô cùng, cách ăn nói đúng chuẩn thầy giáo, mặc dù đôi lúc rất trẻ con,luôn cố gắng ko để lộ tâm trạng đau khổ của chính mình
Nhân vật Liêu Duy Tín mình cũng ấn tượng ko kém, cách hành xử của anh vô cùng chững chạc,người lớn, làm gì cũng suy nghĩ thấu đáo,mặc dù bị Bạch Ký Minh cự tuyệt buông những lời cay nghiệt để đuổi anh đi nhưng anh vẫn kiên trì theo đuổi đến cùng
Kết thúc viên mãn...
Ngoại tuyện hay cực kì!!!!
Ai là fan của đam mỹ thì mình nghĩ nên mua quyển này!!!
5
768166
2016-01-09 12:36:50
--------------------------
359671
5009
Mình thật sự rất là thích 2 nhân vật chính nha. đã đọc cuốn này trên mạng nhưng thấy trên Tiki cũng hào hứng nhặt ẻm về liền !!! hiha anh công "tú ông" thì vô cùng bá đạo còn anh thụ thì bướng khỏi nói... truyện là một đoạn thống khổ xen lẫn với ngọt ngào... thật sự là rất phê ... có H nhưng tả không  kĩ đâu nên bạn nào theo xu hướng thanh thủy văn thì vẫn có thể đọc được... Khuyên các bạn nên đọc đoạn ngoại chuyện... cực phê hai anh Liêu Duy Tín - Bạch Kí Minh
5
411969
2015-12-27 19:02:29
--------------------------
345216
5009
-Nói chung là truyện rất hay ,bìa đẹp . Lối viết của TDD rất nhẹ nhàng mà ngược vô cùng luôn .
-Bạn thụ lúc đầu rất lạnh lùng ,cố chấp  lúc sau thì siêu ấm áp,ngoan hiền luôn ,bạn công thì chững chạc ,giàu nè ,bla bla... ,siêu lầy đeo đuổi tới cùng cho đến khi bạn thụ chấp nhận đến thôi ,gia đình bạn công thì tuyệt khỏi nói luôn .
-May là chuyện ko có tiểu tam chen vô :))
-Mình thấy truyện có cái kết hơi mở nếu hai đứa kết hôn thì mình càng thích hơn 
Đây là một số lời nx của cá nhân mình ,cảm ơn các bạn đã đọc ,thân !!!
5
872661
2015-11-30 06:51:54
--------------------------
339785
5009
Truyện khá nhẹ nhàng về truyện tình của Bạch Ký Minh và Liêu Duy Tín. Mình đã đọc quyển này trên mạng mạng rồi nhưng vẫn muốn mua với mục đích là đem tặng.  Truyện rất hay theo cảm nhận của bạn mình. Tuy nhiên mình thấy Liêu Duy Tín hơi hững hờ với mối quan hệ này( cảm nhận lúc đầu). Vì mình rất thích đọc ngược nên đánh giá truyện ở mức độ 4 sao. Nếu truyện ngược sâu thêm chút nữa thì quá hay luôn. Đây là theo cảm nhận của mình nhưng với con bạn mình thì truyện này rất hay luôn!
Nếu ai đã đọc hàng không bán thì mình so sánh là truyện này hay hơn. Mong giúp được các bạn trong việc chọn mua sách!
4
768112
2015-11-18 19:00:42
--------------------------
339609
5009
Cuốn đam này lúc đầu nhìn tên có hơi sến và cứ nghĩ chắc cũng thường thường, nhàn nhạt thôi nhưng không ngờ lại cuốn hút như vậy. Ít ra với riêng tôi thì tôi cảm thấy như vậy. Tình yêu đối tác trong một tháng ngọt ngào, say đắm sau đó Bạch Ký Minh biến mất không dấu vết. Đó là một bước ngoặt lớn, vừa để cho cả hai khẳng định tình cảm của mình cũng như có đủ thời gian để chuẩn bị sẵn sàng. Càng về sau thì càng cuốn hút, tình tiết cứ thế dồn đến làm cho người đọc không cảm thấy chán. Có điều hai nhân vật là Lạc Nhất Tân và Hứa Gia Nguyên xuất hiện khá nhanh biến mất cũng nhanh, lúc khi đọc đến tên của hai người này tôi nghĩ có phải là sẽ tranh giành một chút nhưng thực tế họ không ảnh hưởng gì đến Liêu Duy Tín và Bạch Ký Minh.
Tuy vậy nó cũng không làm hụt hẫng người đọc lắm, bù vào tình tiết tôi nghĩ còn thiếu đó thì tình tiết về chuyện ra mắt gia đình trong các đam mỹ là không thể thiếu. Đây có lẽ là phần đặc sắc không kém gì phần Liêu Duy Tín theo đuổi Tiểu Bạch đâu. Qua đây mới thấy được tình cảm của cả hai sâu nặng đến mức nào.
Cuối cùng, tuy truyện tôi không thấy câu nói hay câu văn nào đặc sắc nhưng nó lại mang lại màu sắc hài hòa của cuộc sống giữa cái yên bình, vui vẻ và cái đau khổ, chia lìa. Rất đáng đọc. 
"Làm sao anh có thể cho phép tình yêu của chúng ta trở thành bi kịch được? 
Anh mãi yêu em, yêu em giống như những cặp vợ chồng bình dị nhất, như mỗi cặp vợ chồng hạnh phúc nhất, cùng em già đi."
5
417453
2015-11-18 13:32:37
--------------------------
337271
5009
Câu chuyện xoay quanh một giám đốc quyết đoán, mạnh mẽ nhưng lại dễ dàng rơi vào sự thuần khiết, giản dị của một chàng trai bí ẩn qua một tháng sống thử với nhau mà không cần biết rõ lai lịch của đối phương. Một cốt truyện nghe có vẻ khá bình thường nhưng hai nhân vật của chúng ta lại chẳng bình thường xíu nào hết!  Nhân vật Bạch Ký Minh là nhân vật có diễn biến nội tâm khá phức tạp. Ở phần đầu truyện tác giả chỉ tập trung nói về Liêu Duy Tín nên phần quá khứ và tính cách của Ký Minh khá mờ nhạt trong mắt bạn đọc. Dẫn dắt với mối quan hệ mờ ám, tác giả Thẫm Dạ Diễm đã vẽ nên một sợi dây liên kết chặt chẽ giữa hai người họ từ lúc nào không hay. Tình tiết truyện luôn làm ta phải chăm chú vào từng câu chữ. Truyện có nhiều nút thắt và có nhiều đoạn cao trào có thể làm tôi khóc vì cảm thông quá sâu sắc với nhân vật trong truyện. Tuy có hơi " ngược" ở mấy đoạn giữa và gần đoạn kết nhưng tôi vẫn rất yêu cuốn sách này. Thật sự là một cuốn sách đam mỹ hay và xứng đáng được đặt trên giá sách của tất cả các bạn gái có sở thích đọc tiểu thuyết đam mỹ.
 Mong là tác giả Thẫm Dạ Diễm sẽ tiếp tục ra nhiều cuốn sách đam mỹ hấp dẫn nữa ^^
5
945384
2015-11-13 21:01:15
--------------------------
337160
5009
Đúng chất của đam mỹ có lúc sâu lắng có lúc cao trào. Rất ấn tượng với Bạch Ký Minh dành dụm tiền để học nấu ăn và sống thật với bản thân của mình với Liêu Duy Tín sau đó dứt khoác như chưa có chuyện gì xảy ra ^_^. Củng ước gì có người chăm sóc như Liêu Duy Tín mỗi buổi sáng đều đem đồ ă đến cho Bạch Ký Minh chăm sóc quan tâm lặng lẽ , rồi đến lúc cao trào Bạch Ký Minh nhận ra mình YÊU Duy Tín rồi. Đọc khúc cuối cảm thấy Bạch Ký Minh rất mạnh mẽ dám nói sự thật cho bame biết . Nói chung truyện rất hay kết thúc HE
5
868537
2015-11-13 18:48:22
--------------------------
328998
5009
Được nhỏ bạn tặng nhân ngày sinh nhật cảm thấy hạnh phúc biết bao đọc mà cảm nhận được cả hai người đều đủ can đảm để vượt qua ải gia đình. Lúc đầu thì Bạch Ký Minh lại nhẫn tâm chê người ta cự tuyệt người ta một cách không thương tiếc, Liêu Duy Tín thì lại cố chấp đi theo đuổi con người ấy dù cho người ta có chê bai mình có mắng chửi mình có cự tuyệt mình nhưng vẫn một lòng một dạ đi theo người ấy
Đọc đến độ không muốn dừng lại cứ muốn nó cứ diễn biến tiếp như vậy có phải con độc giả này tham lam quá rồi không? :v
5
913201
2015-10-30 21:38:35
--------------------------
324971
5009
Đầu tiên là về Liêu Duy Tin - một người đàn ông thành công với sự nghiệp của mình, anh ta là người khá hoàn hảo, chỉ là tôi không thích khoản anh ta đi tìm "đối tác" thôi, nhưng cũng nhờ đó mà anh Liêu đã gặp được cậu Bạch :v 

Ấn tượng nhất về Bạch Ký Minh. Tính cách của nhân vật này mang đến cho tôi cảm giác cậu ta rất thú vị. Tôi thích nhất cách BKM dũng cảm đưa ra quyết định của cậu ta về việc "phóng túng một lần, sau đó quay về cuộc sống bình thường". Một con người cầu toàn,  hiền lành vô hại, làm chủ được mình, luôn sống trong khuôn khổ mà bản thân tự đặt ra nhưng lại phát hiện bản thân có hứng thú với người đồng giới, sau đó muốn một lần có thể sống tự do thoải mái, có thể hết mình vì một điều điên rồ nào đó (tôi cảm thấy vậy :v). BKM thẳng thắn nhưng có đôi khi hơi bảo thủ, trưởng thành nhưng đôi lúc hơi ngốc nghếch và trẻ con. BKM... theo tôi nghĩ thì cậu ta đáng yêu và dễ thương giống một chú mèo con ấy!

Bìa sách tái bản và bookmark đều đẹp nhưng bookmark hơi mỏng.
5
615465
2015-10-22 14:37:56
--------------------------
324488
5009
Mình mới đặt cuốn này , vì thích từ lâu rồi mà nhà sách hết sách. Đã đọc online nhưng vì thích nên vẫn mua để làm của riêng cho tủ sách. Nội dung truyện thì khỏi bàn cãi, Mọi người hay nói đam mỹ là sách xấu, nhưng theo mình nghĩ nếu đọc xong cuốn này mọi người sẽ thay đổi suy nghĩ . Tình yêu không xấu, những con người dùng cả tấm chân tình để yêu thương thì không bao giờ xấu. Cái gì cũng có mặt hạn chế,đừng vì những cá thể nhỏ phản cảm mà áp đặt lên tất cả. Mình chỉ muốn mọi người hãy cảm nhận bằng tâm hồn bạn, đừng nghe theo lời đồn đại. Nội dung cuốn sách rất hay, bìa in nhã nhặn nhưng phần gáy sách đóng thì chưa chắc chắc, dễ bị bong gáy dù mới mở có mấy trang, chất lượng giấy cũng bình thường . Mong nhà xuất bản chú ý hơn . 
4
872582
2015-10-21 11:34:39
--------------------------
323304
5009
Cuốn hút mình từ tên tác phẩm đến bìa sách... Bìa tái bản lại rất đẹp, đúng kiểu các nhân vật trong truyện luôn. Liêu Duy Tín thành đạt, tuấn lãng, thường có hứng với những chuyện "tình một đêm" hơn là yêu nhau lâu dài. Bạch Kí Minh là giáo viên mẫu mực, vốn chỉ muốn buông thả để yêu một lần nên mới gặp được Liêu Duy Tín. Ban đầu vốn không định dây dưa, nhưng chính Liêu Duy Tín hết lần này đến lần khác níu kéo. "Nếu trên đời này chỉ có một người có thể đem lại hạnh phúc cho cậu ấy, thì người đó nhất định phải là tôi - Liêu Duy Tín" Tính cách vừa bá đạo vừa ôn nhu :) 
4
512077
2015-10-18 12:49:59
--------------------------
319918
5009
Bìa đẹp, truyện hay, tên tác giả cũng hay nốt:))
Mình thích tất cả các tình tiết trong truyện, từ cách 2 người gặp nhau, đến với nhau, rời xa nhau, day dưa với nhau, quay lại với nhau và yêu nhau, rồi thì đấu tranh vì tình yêu. Đặc biệt là đoạn đấu tranh vì tình yêu, rất thật, rất cảm xúc. Cảm thấy cuộc sống này đôi lúc khiến con người ta đau khổ tột cùng, nhưng phải có đấu tranh thì mới đổi lại được hạnh phúc. Truyện viết vậy nhưng cuộc sống cũng đâu có khác gì.
4
449488
2015-10-09 22:37:21
--------------------------
318986
5009
Cảm giác đầu tiên khi mình đọc quyển này đó là câu chuyện rất thật, cho thấy cuộc sống thực tế của những con người thuộc giới tính thứ 3, tình yêu của họ luôn gặp khó khăn hơn những người bình thường, từ việc phải che giấu những người xung quanh cho đến sự phản đối của cha mẹ, rất may cuối cùng sau bao nhiêu sóng gió cả 2 nhân vật chính đã có 1 kết thúc hạnh phúc, ngoài ra điểm khiến mình ấn tượng với cuốn này có lẽ là những đoạn trích lời bài hát trong các chương, thậm chí mình đã lên mạng tìm kiếm những bài đó để nghe :))
Về hình thức thì có lẽ lần tái bản này là lần khiến mình ưng ý nhất, bìa không còn đậm chất ngôn tình như lần 1 hay font chữ uốn lượn như lần 2, nó là kết hợp những điểm tốt của 2 lần tái trước, chất giấy cũng rất tốt, dày dặn và trắng ngà, tốt cho mắt.
Nói chung mình thấy không tiếc khi đã mua cuốn đam mỹ này, mong chờ những tác phẩm tiếp theo của Thẩm Dạ Diễm :3
5
70111
2015-10-07 15:07:39
--------------------------
318938
5009
Vừa nhìn là mình đã thích luôn quyển sách này rồi. Bìa sách đẹp, bookmark dễ thượng. Chất lượng sách khá tốt. Nội dung rất hay. Trong truyện ta thấy được sự ngọt ngào, dễ thương của cặp đôi Liêu Duy Tín và Bạch Ký Minh. Một Liêu Duy Tín kiên cường, nhiệt tình theo đuổi tình yêu, một Bạch Ký Minh ít nói, lạnh lùng nhưng cố chấp đối với tình yêu. Mình vô cùng ấn tượng với câu nói của Liêu Duy Tín " Nếu trên đời này chỉ có 1 người có thể đem lại hạnh phúc cho cậu ấy thì người đó nhất định phải là tôi ". Qua truyện, ta cũng thấy được sự yêu thương, thấu hiểu của những bậc làm cha, làm mẹ. Mo g rằng các bạn cũng hãy thử đọc nó 1 lần, chắc chắn nó sẽ không làm bạn thất vọng đâu.
5
823967
2015-10-07 13:01:41
--------------------------
318733
5009
Đọc quyển này thật làm cho mình có nhiều cảm xúc lắm a! Một chút ngược làm cho câu chuyện càng thêm phần ý nghĩa, lắng đọng mà đem đến cho mình một cảm giác tò mò đọc lại càng muốn đọc tiếp. Có những tình tiết hài hước đáng yêu đan xen với nhưng lúc thăng trằm làm mình mém khóc nhưng rồi cũng có một cái kết thúc hạnh phúc ngọt ngào. Đọc xong quyển này rồi nhưng nó vẫn có gì đó đặc biệt làm mình cứ nhớ hoài, nhất là khúc kết! Bạn nào thích đọc thể loại đam mỹ chắc chắn không thể bỏ qua quyển này a.
5
540461
2015-10-06 21:24:43
--------------------------
317834
5009
Anh chỉ cần em là một tác phẩm hay nhất mà mình từng đọc, truyện quá lôi cuốn và hấp dẫn. Chất lượng sách thì tuyệt vời, postcard quá đẹp. Mới đọc những trang đầu tiên ta đã thấy câu chuyện rất thú vị, càng đọc càng bất ngờ, những tình huống xảy ra nhẹ nhàng mà lôi cuốn người đọc. Một Bạch Ký Minh cứng đầu lì lợm lại còn vô cùng bảo thủ,một Liêu Duy Tín kiên cường, tốt bụng, quyết theo đuổi Ký Minh cho đến cùng. Hai nguòi họ sinh ra vốn là để dành cho nhau. Đây là một cuốn đam mỹ tuyệt vời, lần đầu đọc tác phẩm của Thẩm Dạ Diễm mà mình đã có một ấn tượng vô cùng tốt, mong là sẽ có nhiều tác phẩm xuất sắc như Anh chỉ cần em
5
411744
2015-10-04 14:00:53
--------------------------
305597
5009
Là một câu chuyện khá nhẹ nhàng nhưng không kém phần lắng đọng,nhẹ nhàng làm cho người đọc thấy thoải mái về câu chuyện tình đẹp trải qua biết bao thăng trầm , xã hội phản đối ,cha mẹ cấm cản nhưng họ cũng vượt qua mọi trở ngại để được yêu.
Câu chuyện không chỉ cho chúng ta thấy về một câu chuyện tình yêu mà còn phán ánh các suy nghĩ lệch lạc về thế giới thứ 3.Yêu người cùng giới thì không có gì là xấu cả,nó là tình yêu đẹp như truyện cổ tích ,tình yêu phải vượt qua mọi trở ngại để được bên nhau .Tác phẩm này đã khắc họa lên tình yêu cao cả đẹp như mơ đó
5
563698
2015-09-17 00:32:04
--------------------------
304787
5009
Nhìn chung, sách được thiết kế rất trang nhã, hình minh họa cho bìa tuy đơn giản nhưng sâu lắng, bookmark nhỏ gọn, rất đẹp mắt. Nội dung câu chuyện rất nhẹ nhàng, chân thực, phản ánh đúng về thực trạng xã hội hiện nay cũng như cách suy nghĩ của các bậc cha, mẹ. Đan xen vào nội dung là những lời trích từ trong bài hát ( bài thơ?), tạo thêm vẻ cuốn hút cho người đọc qua mỗi chương truyện. Thêm vào đó là hình ảnh của hai nhân vật chính được tác giả Thẩm Dạ Diễm khắc họa vô cùng đặc sắc và ấn tượng.
5
402048
2015-09-16 17:19:48
--------------------------
304186
5009
Là một án văn nhẹ nhàng. Một tình yêu đẹp giữa Liêu Duy Tín và Bạch Kí Minh. Tuy lúc đầu có một vài biến cố nhỏ nhưng điều đó đã làm cho câu chuyện càng thêm sức hấp dẫn. Nhưng dần vế sau câu chuyện dầb trở nên kịch tính . Tuy việc ba mẹ Bạch Kí Minh không đồng ý việc cậu thích con trai nhưng cuối cùng câu chuyện lại kết thúc trong ngọt ngào. Cách hành văn của Thẩm Dạ Liễm theo phong cách ngọt ngào và hài hước. Bìa thì rất đẹp chất loeeju giấy cũng rất tốt.
5
562860
2015-09-16 11:19:31
--------------------------
296013
5009
Câu chuyện rất nhẹ nhàng, lôi cuốn nhưng cũng không kém phần hấp dẫn.Hai nhân vật chính được tác giả Thẩm Dạ Diễm khắc họa rất rõ nét - là những con người trưởng thành, có cuộc sống của riêng mình. Những tình tiết truyện phản ánh khá rõ về quan niệm của xã hội hiện nay về thế giới thứ 3, cho ta thấy tình yêu không chỉ là màu hồng. Nhưng nói chung đây sẽ là một tác phẩm rất phù hợp cho những người bước chân vào con đường làm hủ. :)
Về hình thức cuốn sách,bìa giấy dày, màu lên đẹp.Chất lượng giấy nói chung khá ổn. 
4
585850
2015-09-10 20:32:55
--------------------------
291524
5009
Là một câu chuyện bình thường không quá đặc biệt nhưng khác biệt ở chỗ nó phản ánh đúng hiện thực về xã hội, cái nhìn của bậc cha mẹ về vấn đề đồng tính, sự phản đối từ gia đình và những khó khăn họ phải trải qua để được ở bên nhau. Nhẹ nhàng, trầm bổng là những thứ mà câu chuyện mang lại cho người đọc. Về cái cách mà bạn công theo đuổi bạn thụ, cách mà bạn thụ phải vượt qua những cấm đoán, dũng cảm đứng lên đấu tranh cho chính tình yêu của họ. Theo mình thì đây là một câu chuyện rất đáng đọc.
4
280972
2015-09-06 12:57:46
--------------------------
288806
5009
Mình đã mua cuốn này và ôm gần cả tháng luôn. Phải nói Nhĩ Nhã viết văn cực ổn. Hai con người khác nhau, lối sống tư tưởng, nghề nghiệp cũng khá khác nhau nhưng yêu nhau. Ngoài ra tạo hình và tính cách của nhân vật cũng rất ấn tượng. Bạn thụ có cá tính khá mạnh, còn bạn công thì rất trân trọng tình cảm của cả hai. Tuy nhiên lại có một phong ba nhỏ, giống như quan điểm sống của hầu hết mọi người trong xả hội này, đó là quan điểm sai lệch về đồng tính,nhưng hai bạn nhỏ vẫn bên nhau. Phải nói cuốn sách này không những thú vị mà còn rất có ý nghĩa. Tuyệt khỏi chê.
5
522293
2015-09-03 21:51:35
--------------------------
268478
5009
Mình rất ấn tượng với tác phẩm này nó rất hay và chân thực, phản ánh được phần nào nỗi khổ tâm mà những người đồng tính phải hứng chịu. Tình yêu của Bạch Ký Minh dành cho Liêu Duy Tín rất chân thành và vững chắc, Ký Minh luôn quan tâm chăm sóc người tình của mình bằng tình cảm ấy ấy khiến Duy Tín phải dần dần đối mặt với bản thân, gia đình và những định kiến của xã hội. Tuy cốt truyện không mới nhưng bằng lối viết tinh tế của mình mà tác giả Thẩm Dạ Diễm đã cho ra đời một tác phẩm rất hay và ý nghĩa, đây là một truyện đam mỹ rất đáng đọc đấy.
5
536908
2015-08-16 15:09:43
--------------------------
255258
5009
Đây là cuốn đam mỹ mà mình thích nhất. Không chỉ chất lượng về hình thức (giấy, bìa) mà phần nội dung phải nói là rất rất rất rất hay luôn a ~~~ Truyện nói về tình cảm giữa Bạch Kí Minh và Liêu Duy Tín, dù trải qua bao thăng trầm vẫn luôn bên nhau và yêu nhau. Cảm ơn tác giả, nhà xuất bản và Tiki đã mang quyển đam mỹ " Anh Chỉ Cần Em " này đến với độc giả và hủ nam, hủ nữ chúng em a ~~~ Love and ♥ ♥ ♥ ♥ ♥ ~~~
5
546353
2015-08-05 21:26:38
--------------------------
246340
5009
Đây là một trong những cuốn đam mỹ mà hầu như ngày nào mình cũng lôi ra ngắm nghía rồi đọc đi đọc lại mãi. Truyện phản ánh thực tế về cuộc sống của người đồng tính, cách diễn đạt lôi cuốn, có những tình huống tự nhiên đáng yêu, cách xây dựng nhân vật cũng rất ấn tượng. Theo ý kiến cá nhân thì quyển đam này vừa ngọt vừa ấm áp (dù cũng có chút xíu ngược) lại vô cùng dễ thương nên mình cực kì thích tác phẩm này cũng như tác giả Thẩm Dạ Diễm <3 Về hình thức thì bìa đẹp, giấy khá tốt, font chữ ổn, nhưng bookmark hơi mỏng (nhưng mà đẹp nên thôi cũng bỏ qua) <3 Tóm lại, đây là một quyển đam cực kì đáng đọc <3
5
28606
2015-07-29 17:55:40
--------------------------
242575
5009
Đây là cuốn đam mỹ tôi vô cùng ấn tượng. Tuy tôi đã đọc hết trong một lần mượn của bạn nhưng vì nó quá hay nên tôi quyết định mua về. Hai nhân vật có nội tâm sâu sắc, khiến cho câu truyện xảy ra những tình huống rất bất ngờ và xúc động. Vượt qua tất cả, những nỗi đau, cái tôi lớn để rồi tình yêu chiến thắng. Họ đã đến với nhau và tạo nên một kết thúc rất đẹp và ý nghĩa. Đây là cuốn đam mỹ đầu tiên mình xem và yêu thích nhất.
5
181284
2015-07-26 19:56:56
--------------------------
237807
5009
Cuốn này quả thực gây ấn tượng với mình và khiến mình đọc một lèo không ngắt quãng. Bạch Ký Minh là một diễn viên giỏi, anh kiềm chế cảm xúc quá tuyệt vời đến độ làm tôi nghĩ anh chẳng có cảm xúc gì với Liêu Duy Tín cả. Còn Liêu Duy Tín, một người có tất cả mọi thứ, nhưng anh lại vô cùng quý trọng tình cảm thực của mình và không từ bỏ nó dù người anh thương có vô tình đến đâu. Nhiều lúc vì tội nghiệp cho anh quá mà bức bối tại sao Bạch Ký Minh lại không chịu thừa nhận tình cảm của mình đi chứ...
Truyện rất hay, đáng đọc, và để lại một cảm nhận sâu sắc về nỗi khổ của những người ở thế giới thứ 3.
5
570214
2015-07-22 19:40:37
--------------------------
234437
5009
Về hình thức: Mình rất ấn tượng cái bìa của cuốn sách này, nhìn nó lãng mạn thế nào ấy. Dịch mượt, font chữ dễ nhìn,... nói chung là rất tốt. Chỉ hơi tiếc cho cái bookmark mỏng, có khi mình phải lật đi lật lại mấy lần mới tìm được.
Về nội dung: Một câu chuyện rất hay, coi mà mình đủ loại cảm xúc. Đây là một câu chuyện khá thực tế, chứ không quá nhiều hồng phấn. Lối hành văn trôi chảy, dễ gây thu hút với người đọc. Tâm lý nhân vật được miêu tả khá tốt. Tình huống trong truyện khá dễ đoán nhưng nhìn chung vẫn rất hay.
Dù gì thì đây cũng là một câu chuyện đáng đọc 
5
520556
2015-07-20 13:04:22
--------------------------
230738
5009
Ai nói đam mỹ điền văn là không hay, là nhàm chán chứ. Quyển sách này kì thực rất hay, không nhàm chán tí nào. Trong những quyển đam mỹ ấm áp văn, điền văn, thì quyển này làm mình thích nhất. Phản ánh chân thực cuộc sống của người đồng tính khiến độc giả phải suy ngẫm. Thích nhất tính cách của Bạch Ký Minh, có trách nhiệm, giữ lời, cao ngạo, thông minh, sâu sắc, diu dàng. Thích cả tính cách cố chấp và bá đạo của Liêu Duy Tín, nhờ cố chấp và bá đạo thế anh mới đến được với Bạch Ký Minh chứ. Cha mẹ Bạch Ký Minh phản đối, khúc Bạch Ký Minh nôn ra máu, cha cậu ấy gọi điện cho Liêu Duy Tín, anh nghe xong tức tốc chạy xuống nhà, không nhờ cha anh khuyên thì đã lên tàu đi mất rồi. Nghe tin người yêu mình nhập viện, ai có thể bình tĩnh nữa, tâm trạng đó mình hiểu. Ký Minh cũng quá ngốc, tự tìm đường chết cho mình. Cuối cùng cả hai vẫn ở mãi bên nhau, thật tốt. 
5
373051
2015-07-17 18:11:48
--------------------------
225335
5009
Đây là lần đầu tiên mình đọc đam mỹ của Thẩm Dạ Diễm , và mình cảm thấy khá thích văn phong của tác giả . 
Truyện của Thẩm Dạ Diễm rất sát với thực tế , không phải cứ yêu là lập tức bên nhau đến răng long đầu bạc . Nhiều khi đọc những cuốn sách mà cứ yêu là từ bỏ được gia đình để bên nhau mình thấy rất thiếu chân thực . Rất thích tình yêu của Bạch Ký Minh và Liêu Duy Tín . Việc đồng tính không phải ai cũng chấp nhận ngay được , và Tiểu Minh chính là người như thế . 
Định kiến xã hội , thái độ gia đình , tất cả đều là rào cản khiến tình yêu của hai người bị ngưng lại . Nhưng dù sao cuối cùng đều được giải quyết ổn thỏa . 
 
5
335856
2015-07-10 10:58:00
--------------------------
219925
5009
Đây là một cuốn sách Đam mỹ chân thực nhất mà mình từng đọc vì hầu hết các cuốn đam mỹ khác đều có nội dung xa vời thực tế. Mình thích nhất chính là nội dung của cuốn sách, và tính cách hai nhân vật là Bạch Ký Minh và Liêu Duy Tín. Một anh thụ ngang bướng và một anh công chân thành luôn mong mỏi có được tình yêu. Truyện khắc họa đầy đủ những góc cạnh của chủ đề này như từ việc chấp nhận con người thật của mình của Bạch Ký Minh rồi mới có được tình yêu và sau cùng là sự chấp nhận của gia đình. Truyện khá hay nhưng vẫn có điều mình chưa hài long về cuốn sách này là có một vài nhân vật phụ được nhắc đến và cũng khá hay nhưng bỗng đưng biến mất và không được đề cập tới, phần bookmark hơi mỏng nhưng bú lại phần ngoại truyện làm mình rất thích.
5
436182
2015-07-02 08:29:59
--------------------------
207529
5009
Điều mình sợ nhất khi đọc các đam mỹ chính là việc nó phản ánh chân thực cái định kiến của xã hội đối với cộng đồng người đồng tính. Mình không bày xít, không có nghĩa mọi người cũng chấp nhận. Chính vì thế, mỗi khi đọc các tác phẩm mà gút mắc nằm ở việc xã hội kỳ thị cộng đồng người đồng tính, mình đều hết sức đau lòng, vì chẳng thể giải quyết được gì.
Câu chuyện kể về thầy giáo trẻ Bạch Ký Minh, cậu phát hiện bản thân thuộc cộng đồng người đồng tính, cậu tìm hiểu và có kiến thức về cộng đồng này, và cậu đủ lý trí để biết xã hội khó mà chấp nhận mình. Thế là cậu chọn cách sống âm thầm, che giấu bản thân. Nhưng sâu thẳm trong tâm hồn vẫn luôn khao khát sống thật sự, và cậu chọn 1 kỳ nghỉ để thông qua 1 người bạn giới thiệu, vào sống cùng một người đàn ông khác, với quy ước đôi bên sẽ không can dự vào đời sống xã hội của nhau. Người đàn ông đó là Liêu Duy Tín, một ông chủ trẻ và không ít lần hò hẹn với nhiều người trước kia. Anh ta thoải mái thừa nhận giới tính của mình hơn cậu. Kết thúc kỳ nghỉ, như quy ước, Ký Minh biến mất không dấu vết, khiến Duy Tín vừa tức giận lại vừa nhớ thương. Số trời định họ gặp nhau vì công việc, thế là Duy Tín lại theo đuổi Ký Minh, trong khi cậu giáo trẻ không muốn gặp lại người cũ, không muốn công khai bí mật của mình. Cậu yêu Duy Tín, nhưng tình yêu đó sẽ khiến cậu phải đánh đổi nhiều thứ, và cậu cảm thấy bản thân quá nhỏ bé để hứng chịu con mắt dèm pha của xã hội, sự đau lòng của ba mẹ. Nhưng tình yêu Duy Tín đã mang đến tự tin, can đảm cho Ký Minh, hai người họ chính thức sống cùng nhau.
Rồi chuyện gì đến cũng đến, hai người họ phải vượt qua rào cản ba mẹ, chính lúc ấy sự điềm tĩnh, chân thành của Duy Tín đã thuyết phục thành công 2 vị trưởng bối. Hai người họ rốt cục cũng nhận được lời chúc phúc từ song thân hai bên, cùng nhau trải qua những ngày tháng êm đềm hạnh phúc.
Nhưng đã nói ở trên, cái mình sợ nhất, nhưng cũng thích nhất ở truyện này chính là sự chân thực. Mình hoàn toàn thấu hiểu nỗi đau của ba mẹ Ký Minh khi biết đứa con trai ngoan ngoãn mà họ kỳ vọng lại là người thuộc cộng đồng người đồng tính. Cha mẹ nào cũng thương con cả, cái họ sợ không phải là giới tính của con mình, mà là ánh mắt, sự phán xét của xã hội đối với con họ, họ sợ con mình sẽ đau khổ, sẽ chịu ức hiếp. Chính vì thế, sự chân thành của Duy Tín khiến họ an tâm, rằng nếu xã hội có quay lưng lại với Ký Minh của họ, thì vẫn luôn có một Duy Tín chững chạc, hết lòng yêu thương, chăm lo cho con trai họ, sẽ cùng với con trai họ kiên cường mạnh mẽ sống những ngày an nhàn hạnh phúc.
4
401462
2015-06-12 15:48:49
--------------------------
207301
5009
Mình rất thích mấy kiểu truyện mà mở đầu bình lặng rôi sóng gió nổi lên dần dần như thế này.
Tự hỏi tại sao anh Liêu lại có thể soái được như thế? =))) 
Mình không muốn nói về quá trình yêu nhau của LDT và BKM nhưng khi gia đình Ký Minh phản đối một cách quyết liệt và thậm chí còn nhốt em ý không cho tiếp xúc với ai, đấy mới là điểm nhấn của câu chuyện. Và cũng nhờ sóng gió ấy ta mới biết được tình yêu của Liêu Duy Tín dành cho Ký Minh sâu sắc đến nhường nào.
Cá nhân mình thích bìa cũ của truyện hơn vì nó khá giản dị và bình lặng (như câu chuyện này) và màu cũng đẹp nữa :"< nhưng truyện hay lắm, rất đáng đọc!
5
64861
2015-06-11 23:05:14
--------------------------
206758
5009
Về nội dung: Truyện có mô típ riêng không gây nhàm chán nhưng không để lại ấn tượng mạnh sau khi đọc, khá khó khi nhớ lại tình tiết một cách rõ ràng. Bên cạnh, tuy hệ thống nhân vật có sự đầu tư nhưng cách lồng ghép nhân vật một cách vô thưởng vô phạt làm người đọc hơi khó hiểu, những nhân vật phụ ấy thoắt ẩn thoắt hiện, rồi biến mất ngỡ ngàng.
Về hình thức: giấy tốt, không dễ bẩn, khá trắng; bookmark dày vừa, hơi nhỏ; những trang đầu mực in còn lem, những trang từ 155 về sau có đôi chỗ cách dòng không đều; bìa và bookmark thiết kế đồng bộ khá vừa mắt.
4
489570
2015-06-10 16:07:33
--------------------------
205379
5009
Anh chỉ cần em là cuốn tiểu thuyết nói về tình yêu của người đồng tính đầu tiên mà tôi đọc. Nội dung không quá đơn điệu, cũng không quá dài,có lãng mạn, có hiện thực, tình tiết tạm được. Nội dung chuyện cũng không khó đoán, kể về quá trình gặp gỡ, theo đuổi và sống chung của hai nam nhân vật chính nhưng diễn biến khá thú vị, bất ngờ. Tác giả đã xây dựng nên một Bạch Kì Minh- nhân vật “ cong “ khá là nam tính, chính chắn,khá điềm đạm, không hề ủy mỵ. Đây là sự khác biệt vì đa số nhân vật nam chính “cong”  thường được xây dựng khá giống nữ ( nhu nhược, yếu đuối như Lộ Tiểu Phàm trong Lấy Chồng Nhà Giàu hay trẻ con, ngây ngô, rất tình cảm, dễ khóc như Mạch Đinh trong Tựa Như Tình Yêu-  Like Love). Nhân vật Liêu Duy Tín khá ổn, giàu có ( tiền tự kiếm ), khá đứng đắn không mấy bá đạo, ngang ngược như trong nhiều tiểu thuyết thuờng gặp. Tiểu thuyết thuộc thể loại này không ít gặp nhưng cách khai thác thì không mấy giống. Anh Chỉ Cần Em khai thác khá hay các góc khuất, nỗi niềm, suy nghĩ của những nhân vật đồng tính( không tính hai nhân vật nam chính). Trong truyện, chuyện tình cảm của hai nhân vật không gặp phải nhiều khó khăn gì, cũng chẳng có người thứ ba trừ sự phản đối quyết liệt từ gia đình. Bìa sách đơn giản, đẹp, sách cũng không dày mấy.
3
64972
2015-06-06 16:17:26
--------------------------
203552
5009
Một câu chuyện có đầy đủ những cảm xúc của thứ gọi là tình yêu, ngọt có, đắng có, chua chát có.
Gặp nhau vô tình hay duyên phận đã cố tình sắp đặt cho cuộc gặp gỡ của họ, ban cho họ hạnh phúc rồi rắc thêm chút gia vị tình yêu cho nó tròn vị. Và Duy Tín, Ký Minh họ dám đấu tranh cho tình yêu của họ, giành lấy hạnh phúc của chính mình.
Lối kể chuyện nhẹ nhàng, dẫn dắt vào câu chuyện một cách tự nhiên đưa người đọc đến những cảm xúc của tình yêu.
Sách hay!
5
621744
2015-06-01 17:23:13
--------------------------
194342
5009
đây là một câu chuyên không quá ngọt cũng không có quá nhiều sóng gió.Họ là những con người xa lạ nếu không phải vì có cùng khuynh hướng giới tính hoặc cũng có thể nhờ duyên phận nên họ đã gặp đươc nhau. Họ cùng nhau sống một tháng vui vẻ hạnh phúc để rồi cái hạnh phúc ấy kết thúc chỉ sau đúng một tháng. Liêu Duy Tín và Bách Ký Minh  họ dám vì hạnh phúc của mình đấu tranh với cả gia đình. Vậy nên chỉ cần tình yêu là chúng ta có  thể vượt qua tất cả mọi khó khăn như tình yêu của họ
5
615183
2015-05-10 10:39:05
--------------------------
194282
5009
Truyện khá hay, nhẹ nhàng và cách xử lí tâm trạng của nhân vật cũng làm người đọc hài lòng.
Liêu Duy Tín chỉ coi tình cảm như trò đùa và vì có điều kiện vật chất nên anh sống rất thoáng.
Bạch Ký Minh là một giảng viên, khiêm tốn, hiền lành và luôn cố gắng kiểm soát tốt cuộc sống cũng suy nghĩ của mình.
Thông qua sự giới thiệu của một người bạn hai người gặp nhau, yêu nhau nồng nhiệt với thời gian 1 tháng. 
Thế rồi Liêu Duy Tín lúc biết mình đã vướng vào tình cảm cũng là lúc hiệp ước kết thúc. Bạch Ký Minh ra đi và biệt tích.
Thế nhưng người có duyên thì sẽ gặp lại, sự phát triển tình cảm của họ đã khiến mình không thể rời mắt khỏi truyện. Cảm ơn Thẩm Dạ Diễm vì tác phẩm này. Rất hay
5
628391
2015-05-10 00:08:41
--------------------------
193712
5009
Về chất lượng sách: bìa cứng, hình đẹp, giấy màu vàng nhạt không gây chói mắt. Nhưng mà có nhiều lỗi in quá, rất nhiều chữ bị nhòe mực, đôi chỗ thì lại bị nhạt mất chữ khiến mình rất khó chịu.
Nội dung truyện ổn, Liêu Duy Tín là một người khá lông bông, đến với Bạch Ký Minh cũng chỉ vì nhu cầu, nhưng anh lại là người "đổ" trước; có lẽ vì trong lòng anh vẫn có mong muốn về một tình cảm ấm áp thật sự. Mình rất thích tính cách của Duy Tín, khi anh biết mình yêu, anh liền quyết tâm theo đuổi, rất thẳng thắn.
Bạch Ký Minh thì quá nhút nhát, tuy điều này có thể lý giải được, bởi vì ngay cả mẹ cậu vốn cũng không chấp nhận "đồng tính" mà. Dù vậy mình cũng chẳng thể chấp nhận cái suy nghĩ "yêu 1 lần cho đã" rồi quay lại lập gia đình như bình thường của Ký Minh, như vậy không phải là hại con gái người ta còn hại cả bản thân sao.
3
448411
2015-05-08 15:40:52
--------------------------
193221
5009
Truyện xét về nội dung thì tàm tạm, cũng hay nhưng mà vẫn không thể hiểu nổi lí do anh công thích bạn thụ, độp một phát vào màn theo đuổi lâm li bi đát, chẳng hiểu ra sao. Mà bạn thụ trong này bị đa nhân cách hay sao ấy T^T Lúc thì thế này lúc thì thế nọ, lắm lúc muốn đập hai bạn ấy một chận, bạn thụ đáng ghét nhất trong các truyện mình đã đọc lun, Chỉ thấy thương bạn công quá trời T^T. Book mark đẹp, bìa truyện đều miễn chê, nhìn đẹp hơn quyển tái bản 2014. Giấy có độ trắng cao, nhìn thích mắt, chất lượng cao. Nói chung là mua sẽ không tiếc tiền. Xét ra thì cũng hay!
5
514492
2015-05-06 21:06:29
--------------------------
192992
5009
ban đầu đọc vài chương, mình thấy không hề hứng thú với truyện, nhưng đọc đến chương 10, mình bị cuốn theo nó lúc nào không hay, phải nói rất hay, nhân vật Duy Tín hoàn hảo, biết suy nghĩ cho tương lại, lại hết lòng vì Ký Minh... xúc động nhất là đoạn ở Ký Minh uống rượu và khóc trước biển :( mình đã khóc ngay cảnh ấy :'(. hơn hết mình muốn biết kết cục Hứa Gia Nguyên cậu ấy sẽ ra sao? lúc ngoài truyện nói đến Gia Nguyên và Ký Minh thân nhau là có gì xảy ra mình rất tò mò
5
605536
2015-05-06 11:13:48
--------------------------
188662
5009
đầu tiên phải kế đến thiết kế bìa sách rất ý nghĩa;1 cành hoa và 1 dòng chữ I do, như vậy là đủ.1 lời tỏ tình thầm kín, không phô trương nhưng đầy thâm tình.Với xã hội ngày nay, đồng tính không còn là 1 điếu bí mật, nhưng với 1 số người, họ vẫn chưa chấp nhận được vấn đề này.Như mẹ của Bạch Ký Minh, bà rất yêu con trai, đặt bao sự kỳ vọng vào đứa con trai duy nhất của mình.Vì vậy cũng dễ hiểu khi bà có thái độ gay gắt với Bạch Ký Minh khi biết con mình là đồng tính.Nhưng trên hết vẫn là tình mẫu tử thiêng thiêng, bà đã chấp nhận cho con mình được đến bên cạnh tình yêu và hạnh phúc của đời mình.Tình yêu của Liêu Duy Tín dành cho Bạch Ký Minh khiến mình ghen tị có, ao ước có, ngưỡng mộ có.Tuy nhan đề truyện là "Anh chỉ cần em" nhưng Liêu Duy Tín vẫn cần tình yêu của gia đình Ký Minh, và anh đã làm được.Dù tình yêu của chuyện của 2 người, nhưng đằng sau đó vẫn còn có tình yêu gia đình-thứ tình cảm thiêng liêng và vững chắc nhất trên đời.
-bìa sách đêp, giấy cứng và rất chắc tay.chữ in rõ ràng, dễ đọc.Tuy nhiên bookmark hơi nhỏ nhưng dễ thương.Tóm lại là rất thích
5
285269
2015-04-25 20:42:40
--------------------------
186169
5009
Chỉ có thể dùng hai từ để diễn tả cuốn sách Anh Chỉ Cần Em, nó rất " hoàn hảo " . Cách xây dựng hình tượng nhân vật có vài chỗ mình không thích. Nếu như Bạch Ký Minh biết suy nghĩ thấu đáo thêm một tí thì có lẽ chuyện sẽ hay hơn. Nhưng bù lại, Liêu Duy Tín vẫn có thể khá là bình tĩnh lại ôn nhu trước một Ký Minh lạnh lùng, hai người bù đấp cho nhau tạo thành một cặp đôi rất đáng yêu. Mình phì cười với cách mà Duy Tín  mắng yêu Ký Minh, cảm thấy nhẹ nhàng và quan tâm hơn là nặng nề.
4
612327
2015-04-20 19:32:20
--------------------------
186110
5009
Truyện rất khá, phải nói là như vậy, vì nó bao hàm rất nhiều ý nghĩa đời thực của con người, và giữa tình yêu của 2 chàng trai "Anh chỉ cần em" Đúng thật! Nó thể hiện trong các hành động của nam nhân vật Duy Tín hay những biểu hiện nhẹ nhàng của bạn thụ Ký Minh, những cử chỉ tưởng chừng như thờ ơ lạnh lùng ấy lại làm cho anh công của chúng ta khá... vụng về :">
Bìa truyện xuất bản lần này khá được, tôi không có ý kiến quá nhiều, vì cốt truyện mới là chủ yếu. Tôi chỉ hơi tiếc là nhìn bìa truyện lại không biểu đạt được ý nghĩa thiết thực của truyện này cho lắm. Thế thôi, đó là ý kiến riêng tôi.
4
567912
2015-04-20 17:26:04
--------------------------
183269
5009
Đây tuy không phải quyển đam mỹ đầu tiên đọc mà là quyển đam mỹ đầu tiên mua lúc đọc văn án chỉ là tò mò muốn biết nội dung nó sẽ như thế nào nhưng quả thật nó rất hay sâu sắc nhẹ nhàng và đặc biệt không biết vì sao lại có vài cảnh làm tôi cười ra nước mắt nhất là lúc anh công Liêu Duy Tín không biết phảii đối phó thế nào với anh thụ lạnh lùng Bạch Ký Minh. Tình yêu của hai người họ rất ư là tình cảm lại có chỗ khôi hài. Anh chỉ cần em đã đem đến cho tôi một tình yêu rất ư là nhiều màu sắc rất ư ngọt ngào có lúc lại rất kích thích nhiều cảm xúc lẫn lộn. hehe
5
453471
2015-04-15 20:32:28
--------------------------
182676
5009
Lúc đầu mình đọc cuốn này : thật chán...giữa giữa....oh my god! Hay quá trời ơi ,may mà chưa bỏ dở và khúc cuối cuối....đáng đọc quá...hay quá hay quá!!!!
Bạn Ký Minh thật là khó cua ,mãi lâu lâu bạn Duy Tính mới cua đc ẻm =〉mà sau khi 2 ổng quen nhao rồi ,ta nói nó ngọt hơn đường luôn :3 cảnh H thì.....không kĩ nhưng mà nhiều lắm ,cài "mìn" một đống trong truyện luôn ,đọc mà cười rồi hú ,thằng bạn ngồi kế bên tưởng mình biến thái luôn TT~TT  . Có lúc ,tình yêu này cũng bị ngăn cấm ,nhưng chỉ cần có sự tin tưởng ,tình yêu từ tận cùng của trái tim thì sẽ vượt lên đc nó ,tình yêu của 2 ng này rất mạnh mẽ ,vượt qua nhiều điều mới hạnh phúc ,rất thực tế ,không "ảo" như vài truyện đam mỹ khác . Tình yêu ngoại trừ con tim ,còn cần có cả sự dũng cảm để đối mặt với nó . Bìa truyện rất đẹp ,mình thích nhất bìa truyện này nhưng bookmark thì mỏng dính ,mình đặt vào mà vẫn cứ phải lật lướt qua để tìm (như cuốn Đồng Đồng và Kỳ Kỳ ý ,mỏng kinh khủng) .
5
538448
2015-04-14 19:06:10
--------------------------
178150
5009
Đây là quyển Đam mỹ đầu tiên mình đọc. Và nó cũng là thứ dẫn dắt mình đắm chìm vào con đường đọc Đam mỹ. Trước đây mình chỉ đọc tiểu thuyết nam x nam của Việt Nam trên mạng thôi, và mình nghĩ mình sẽ ko bao giờ thích được những thể loại tiểu thuyết nước ngoài đại loại như Đam mỹ. Thế nhưng rồi 1 ngày có một người bạn của mình mua quyển Anh chỉ cần em này và bán rẻ lại cho mình. Lúc đó, mình ko có ý định sẽ mua, nhưng nó năn nỉ quá nên mình mới mua lại. Mình chỉ nghĩ thôi kệ dù sao cũng mua được cuốn sách Đam mỹ, thử đọc xem sao. Và ngay từ những trang đầu tiên mình đã bị cuốn hút bởi tình huống truyện độc đáo: Liêu Duy Tín đi tìm "đối tác" để sống thử trong vòng 1 tháng, sau đó những câu chuyện xoay quanh 2 nhân vật bắt đầu. Mình ngấu nghiến quyển truyện những lúc ở nhà, giờ ra chơi ở trường, thậm chí những giờ học môn phụ mình cũng lén mang ra đọc, quyển sách luôn ở bên mình bất cứ lúc nào. Mình thích những lúc Liêu Duy Tín theo đuổi Bạch Ký Minh, những lúc  2 người đau khổ, những lúc đùa giỡn châm chọc, chửi nhau "mẹ kiếp" rất đáng yêu, đọc mà cứ sợ sẽ hết truyện, lúc ấy mình chỉ muốn tác giả viết truyện dài thật dài thôi. Liêu Duy Tín chững chạc, làm gì cũng suy nghĩ kỹ lưỡng, một mẫu đàn ông mà ai cũng muốn được người đó yêu. Một Liêu Duy Tín yêu Bạch Ký Minh hết lòng, luôn dịu dàng, ân cần, lo lắng cùng Bạch Ký Minh vượt qua tất cả mọi áp lực ngoài xã hội. Một Bạch Ký sống lý trí, bướng bỉnh luôn làm mọi việc mà không chừa cho mình đường lui. Một câu chuyện nhẹ nhàng nhưng để lại trong mình nhiều ấn tượng sâu sắc. Đọc một lần thì muốn đọc lại lần thứ 2, thứ 3. Thật may mắn khi được đọc Anh chỉ cần em, nếu quyển Đam Mỹ đầu tiên mình đọc không phải là câu chuyện này, có lẽ mình sẽ không bao giờ biết đến nó
5
602453
2015-04-04 12:58:14
--------------------------
177980
5009
"Anh chỉ cần em", chỉ cần thế này đã đủ để mình quyết định mua sách :)
Nhiều lúc như vậy đó, mình chỉ cần đọc tựa sách là muốn mua, đây là 1 trong những quyển được chọn mua chỉ vì tựa sách. 
Sau khi mua về chậm rãi nhâm nhi nó 1 lượt thì muốn tự khen mình vì đã mua đúng sách ghê :D
Câu chuyện tình không mấy đặc sắc, tình tiết không chứa quá nhiều kịch tính, cũng không chứa tầng tầng lớp lớp triết lý nhân sinh. Chỉ là kể lại hành trình từ bắt gặp, đeo đuổi, đến kết thúc viên mãn hạnh phúc của người đàn ông Liêu Duy Tín. Điểm khác biệt nhất chỉ là ở đối tượng chinh phục của anh, Bạch Ký Minh, một người đàn ông khác!
Một con người trong lòng luôn chất chứa quá nhiều tâm tư, cách giải quyết vấn đề không chừa cho mình đường lui, cả sự dịu dàng chu đáo hay đôi khi lại khó chiều,... mình yêu con người của Bạch Ký Minh, yêu cả sự không toàn vẹn của người này. Và dĩ nhiên, yêu cả sự dịu dàng của Liêu Duy Tín dành cho Ký Minh. Con người như Ký Minh, quá mạnh mẽ lý trí, cuộc sống với quá nhiều nguyên tắc và thành kiến khiến cho mặt yếu đuối, cần sự yêu thương và quan tâm của anh không có nơi nương náu. Cho đến ngày liêu Duy Tín xuất hiện. Phải mạnh mẽ như thế, chân thành và nhẫn nại như thế mới có thể lay động Bạch Ký Minh... Bắt đầu khá lạ lùng, khó khăn xuất hiện, từng bước vượt qua để đi đến kết thúc viên mãn. Ấm lòng...
4
55902
2015-04-03 23:10:50
--------------------------
174957
5009
tôi thật sự rất thích cuốn truyện này nó rất cảm đọng và còn sâu sắc nữa. thành đam mỹ nó mang cho độc giả như tôi có nhiều cảm xúc căm phẫn vui vẻ buồn ... trải qua bao nhiu sóng gió cuối cùng họ mới có thể ở bên nhau chịu áp lực từ mọi thứ. và cách liêu duy tín theo đuổi bạch ký minh rất dễ thương thông minh ép buột người đó thích mình một cách tự nguyện. ngoại truyện là điều mà tôi thích nhất tác giả rất hiểu ý các bạn hủ nữ mà thêm ngoại truyện cuối KHÁ hấp dẫn koi tới kkhucs đó tôi đã cười rất nhiều =))))
5
540880
2015-03-29 09:37:00
--------------------------
172465
5009
Mình đọc truyện này cũng lâu lâu rồi, thấy khá hấp dẫn. Đọc truyện này thấy các nhân vật có tính cách rất thú vị, thích tính của cả bạn công lẫn bạn thụ, một người thì kiên trì bá đạo, một người cứng đầu đáng yêu =)). Thích cái cách Duy Tín theo đuổi Kỷ Minh nữa. Trong truyện này, tâm lý nhân vật được miêu tả hết sức đặc sắc, nỗi buồn của Duy Tín khi Ký Minh không chấp nhận anh, rồi nỗi giằng xé của Ký Minh khi không dám mở lòng vì đây là tình yêu đồng tính… Thật may vì cuối cùng vẫn là HE, ấm lòng luôn ý.
5
393748
2015-03-24 00:16:48
--------------------------
171443
5009
có thể nói đây là cuốn đam mỹ đầu tiên mà tôi đọc. Thú thật, lúc đầu khi tìm hiểu thể loại này, tôi thấy hơi khó chịu và nghĩ rằng nó trái với quy luật tự nhiên, tại sao lại có thể loại namxnam được chứ? Và tôi thấy những cuốn sách thuộc thể loại này thật nhảm nhí. Nhưng rồi tôi đã đọc "Anh chỉ cần em", và tôi đã đọc lại những hai lần, không bỏ sót một chữ. Tôi đã tự hỏi rằng liệu có tình yêu nào giống như Liêu Duy Tín và Bạch Ký Minh không? Một tình yêu thật đẹp và đầy chông gai khi phải đối mặt với những định kiến của xã hội, những lời trách móc của bố mẹ. Nhưng trên hết hai người họ đã đến với nhau bằng sự chân thành và bằng tình yêu sâu sắc. Chính cuốn sách này đã làm thay đổi suy nghĩ của tôi, tôi không còn dị nghị về tình yêu đồng tính nữa, và tôi tin là bạn cũng thế khi đọc cuốn sách này.
5
458331
2015-03-21 22:12:09
--------------------------
169938
5009
Đây là quyển truyện Đam mà mình đọc một mạch từ đầu đến cuối....chỉ vì nội dung truyện quá đi sâu vào lòng người một cách chân thực. Nội dung truyện như soi rõ vào một góc khuất của những người đồng tính: Không dám thể hiện bản thân mình, không dám đối diện với chính mình...sợ dư luận xã hội và sợ sự thất vọng của chính người thân. Có mấy ai có đủ tự tin như Liêu Duy Tín và cũng có không ít người như Bạch Ký Minh muốn làm một người bình thường cưới vợ, sinh con để lấp đi khoảng trống cô đơn đó. Nhưng tình yêu thì làm sao mà có thể dùng mặt nạ để che dấu để rồi khi nhận ra thì tình cảm đó đã quá sâu sắc rồi, ko thể dứt ra được.
5
408235
2015-03-19 08:32:55
--------------------------
169641
5009
Chuyện rất hay, tình tiết, diễn biến tâm trạng của các nhân vật đều được tác giả truyền tải một cách chân thật, sâu sắc. Tâm lý nhân vật được miêu tả hết sức sinh động, càng về sau càng mãnh liệt, bùng cháy. Tình cảm của hai người đã trải qua rất nhiều thử thách: về cuộc sống riêng của mỗi người, công việc, bị chi phối bởi đồng nghiệp và gia đình... Nhưng vì sức mạnh của hai trái tim đầy yêu thương, hy sinh, họ đã vượt qua tất cả để có được 1 kết thúc viên mãn.
5
567316
2015-03-18 18:14:39
--------------------------
164682
5009
_Về hình thức, trong những cuốn đam mình đọc của Bách Việt, có lẽ đây là cuốn có hình thức và chất lượng giấy tốt nhất, bìa đẹp, quá hợp với nội dung, chỉ có bookmark quá nhỏ và mỏng ==' hình như đam mỹ BV cuốn nào cũng vậy.
_Về phần dịch, truyện tái bản dịch tên là Bạch Ký Minh, nghe ko thuận tai lắm, để Kỳ Minh thì hay hơn. 
_Về ND, mình thực sự rất, rất, rất thích quyển sách này, đọc hết trang này lại muốn sang trang khác, đọc hết 1 lần vẫn muốn tiếp lần 2. Một chút ngọt ngào, chút đáng yêu, chút ấm áp, chút biệt ly, chút đau lòng, chút dũng khí, chút nhớ thương, chút bao dung, che chở, tất cả cùng tạo nên một cực phẩm!! Hơn hết  tất cả điều đó, đây là 1 câu chuyện rất chân thực đời thường, nói về hoàn cảnh và tâm trạng những con người đồng tính trong nỗi lo sợ nơm nớp bị xã hội, gia đình, bạn bè kì thị. Liêu Duy Tín và Bách Ký Minh, 2 con người quen biết nhau với quan hệ "đối tác" trên giường, một tháng quen biết, một đời dây dưa...
"Làm sao anh có thể cho phép tình yêu của chúng ta trở thành bi kịch được? Anh sẽ mãi yêu em, yêu em..."
"Liêu Duy Tín - em yêu anh! Em yêu anh! Em yêu anh!..."
5
443025
2015-03-08 14:54:31
--------------------------
164147
5009
Về nội dung của tác phẩm, hay, khá ấn tượng, tôi rất thích nhân vật Liêu Duy Tín, anh là người dám yêu, dám chịu, đối với anh những thử thách chông gai phía trước chỉ là "truyện cười để kể sau khi đã đi qua mà thôi", Bạch Ký Minh thật may mắn khi được anh yêu, được anh quan tâm, bảo vệ hết mình. Truyện tuy không cao trào nhưng cũng đủ khiến người đọc phải day dứt khôn nguôi. Nếu bạn có đủ dũng khí, bỏ mặc mọi thị phi để yêu thì tình yêu sẽ không bao giờ bỏ rơi bạn. Một điều nữa khiến tôi thích tác phẩm này là mở đầu mỗi chương điều có trích dẫn lời bài hát rất hợp với nội dung của chương đó. 
Về hình thức, bookmark hơi mỏng :( giấy tốt, đẹp, tôi khá hài lòng về tác phẩm này.
5
434144
2015-03-06 22:15:51
--------------------------
162908
5009
Đọc truyện này cũng lâu rồi mà đến giờ vẫn mê. Nó đã vượt qua rất nhiều rào cản, nhiều định kiến trong xã hội, khắc họa nên một mối tình rất đẹp dù là giữa hai người con trai. Tình yêu đồng tính thì sao? Người đồng tính chẳng lẽ không phải người? Chẳng lẽ không có quyền hưởng hạnh phúc? Liêu Duy Tín, Bạch Kí Minh, họ đã đến bên nhau bất chấp cái nhìn dè bỉu của người đời, bởi họ yêu nhau. Dù Kí Minh từng xa lánh Duy Tín, không dám chấp nhận tình ảm của anh nhưng đến cuối cùng, tình yêu vẫn chiến thắng. Truyện rất hay, motip độc – lạ - hấp dẫn, lối viết nhẹ nhàng, tình tiết đáng yêu, miêu tả tâm lý tinh tế, sâu sắc.
5
449880
2015-03-03 16:41:02
--------------------------
161976
5009
Đầu tiên phải  nói là chất lượng sách khá tốt, cầm đã tay mà bìa cũng đẹp nữa. Tuy nhiên bookmark có vẻ hơi yếu ớt và mỏng, sách đọc cũng còn đôi chỗ sai chính tả, in chương nhầm trang và mục lục in thiếu ngoại truyện 4 dù trong sách vẫn có..   có lẽ bộ phận kiểm tra in ấn cần phải làm việc nghiêm túc và kĩ càng hơn nữa...
Về nội dung đọc khá là cuốn hút. Cảm thấy vô cùng ấn tượng với tính cách nhân vật thụ, cứng đầu cứng cổ lạnh băng chịu đựng quyết liệt làm theo ý mình nhưng tận sâu trong lòng là vì không dám công nhận tình cảm của mình với bạn Duy Tín. Thế nhưng đến cuối cùng thì lại có cách tặng quà sinh nhật cho người ta ắn tượng tới bá đạo. Có nhiều tình tiết tự nhiên và hợp logic nên đọc khá thoải mái. Nói chung thích bạn Minh lắm lắm.. Đây là quyển sách xứng đáng nên có trên tủ sách đam nhà bạn!!!
0
252073
2015-03-01 11:39:26
--------------------------
160710
5009
Thật sự thì câu chuyện này không để lại cho tôi nhiều ấn tượng. Nhưng tôi rất thích văn phong của Thẫm tỷ, và đọc rồi thì chẳng dứt được. Câu chuyện tuy không quá ngọt ngào, nhưng bao trùm câu chuyện lại là một màu hồng. Duy Tính phong lưu đào hoa, cuối cùng lại phải lòng Kì Minh, lại còn bị đá không thương tiếc. Thoạt đầu cam thấy tình cảm của Kì Minh rất nhạt, nhưng đến đoạn kết, tôi mới thấy được sự sâu đậm mà hai người dành cho nhau. Bỏ qua mọi sự chống đối, hai con người mới đến được với nhau, mới có thể có được hạnh phúc trọn vẹn. 
Bìa sách đẹp, giấy tốt. Khá hài lòng về quyển này.
4
449762
2015-02-25 11:43:36
--------------------------
160432
5009
Câu chuyện đem lại cho mình một ấn tượng mạnh mẽ, một cảm xúc khó diễn tả. Lúc đọc hết truyện, mình bỗng nghĩ rằng :Bạch Kì Minh gặp được và được ở bên Liêu Duy Tín là một điều may mắn. Bạch Kì Minh có thể nói là người vô cùng, vô cùng lí tri, lí trí đến khiến người ta phải sợ hãi. Cõ lẽ cuộc đời Kì Minh sẽ trôi qua bình dị, yên ắng nhưng chắc chắc cậu sẽ không bao giờ có đươc sự hạnh phúc. Nhưng cậu đã gặp anh, một người ôn nhu, cẩn thận và yêu hết mình. Liêu Duuy Tín yêu Kì Minh bằng cả trái tim, Kì Minh cững vậy và họ sẽ rất hạnh púuc khi ở bên nhau. Bìa truyện đẹp, giấy không nhòe, truyện rất hay, không nên bỏ qua
5
525123
2015-02-24 12:11:32
--------------------------
160077
5009
Hai chương đầu, tác phẩm gây ấn tượng khá mạnh với tôi. Tôi thích cái chất hiện thực trong truyện, về sức ép của xã hội và gia đình, một số bộ phận mang tiếng ủng hộ nhưng thực chất chỉ là thỏa mãn sở thích của bản thân.
Càng về sau, tính cách nhân vật càng biến chất, tôi dường như đã không nhận ra thầy giáo Bạch Ký Minh của ban đầu nữa rồi, nhất là cảnh cậu đưa vé tàu cho Liêu Duy Tín và lúc cậu thuyết phục bố mẹ chấp nhận tính hướng của bản thân. Một thầy giáo quyết oán, độc lập, sâu sắc ban đầu đâu rồi? Bạch Ký Minh bây giờ in hệt như một đứa trẻ còn đang độ tuổi trưởng thành. Tính cách nhân vật không nhất quán.
Truyện nêu ra nhưng chỉ giải quyết được một nửa, tức là chỉ yên về bên gia đình, xã hội hoàn toàn chưa đả động đến. Đó lại là vấn đề khiến tôi quan tâm ngay từ đầu, vậy cho nên có cảm giác hơi lấp lửng.
3
38432
2015-02-21 20:01:26
--------------------------
157938
5009
Có thể nói Anh chỉ cần em là quyển Đam Mỹ đầu tiên mình mua, khi cầm quyển sách trong tay thật sự là mình đã nhảy cẫng lên vì hạnh phúc. Mình đã đọc một vài chương trước trên mạng, thật sự rất ấn tượng với Liêu Duy Tín và Bạch Ký Minh.
Chuyện tình của họ cũng như bao chuyện tình khác, có trắc trở, có vui buồn, có xa cách, có biệt ly nhưng cuối cùng họ vẫn luôn hạnh phúc bên nhau, vẫn luôn tìm thấy nhau sau bao lần xa cách. Một Liêu Duy Tín chính chắn nhưng đôi lúc lại rất trẻ con, một Bạch Ký Minh bề ngoài trông có vẻ ngoan ngoãn, hiền lành nhưng thật ra cứng đầu, ngang ngạnh không ai bằng. Chính những cá tính đó đã giúp họ tìm thấy nhau, là gia vị cho cuộc sống của họ. 
Ngoài ra trong Anh chỉ cần em còn có nhiều lời hát rất hay, chị Diễm diễn tả nhân vật rất tốt. Nói thật đọc bộ này mà mình lại khóc đấy! :)
Đây là bộ truyện rất ý nghĩa, các bạn không nên bỏ qua nhé!
5
122285
2015-02-10 19:58:13
--------------------------
157267
5009
Ban đầu bạn sẽ cảm thấy đây là một câu chuyện bình thường. Bởi vì đây thật sự là một câu chuyện bình thường. Hai nhân vật một người rất giàu, còn một người rất đẹp, tính cách thú vị, nấu ăn ngon...
Nhưng chị Diễm đã làm câu chuyện bình thường ấy trở thành một câu chuyện hay và sâu lắng đến độ, tôi chỉ vô tình chọn mua cuốn này thôi, mà nó gần như lại là cuốn khiến tôi ưng ý nhất.
Cuốn truyện này là cuốn sách càng đọc càng làm người ta đắm chìm vào nó, như cách mà hai nhân vật đắm chìm vào tình yêu của nhau. 
À, ban đầu tôi cứ nghĩ bạn Minh phải leo hẳn lên nữ vương thụ cơ, nhưng với sự khôn ngoan mà không kém cưng chiều bao bọc của anh Tín thì chắc bạn ấy chỉ dừng lại ở mức ngạo kiều thôi.
4
336902
2015-02-08 09:00:23
--------------------------
156955
5009
So với những câu chuyện đam mỹ trước đây mình từng đọc thì Anh Chỉ Cần Em không hài hước bằng, không đáng yêu bằng NHƯNG lại là câu chuyện để lại trong lòng mình nhiều ấn tượng nhất!
Là câu chuyện tình không suôn sẻ, Duy Tín yêu Ký Minh và cố gắng thể hiện tình cảm của mình cho Ký Minh nhưng lại luôn bị anh khước từ vì không chấp nhận mình là người đồng tính. Những cảm xúc khi bị từ chối thẳng thừng của Duy Tín làm mình thấy buồn thay cho cả nhân vật, những nỗi buồn trong tâm tư khó nói nên lời ấy thật sự đau đớn khôn cùng. Rồi Ký Minh dần nhận ra minhg, nhận ra tình yêu mà Duy Tín dành cho mình. Anh nhẹ nhàng mở lòng đón chờ hạnh phúc ấy. Nhưng cả 2 lại phải đối mặt với dư luận, với xã hội và với gia đình của mình :)
Thật may một kết thúc HE diễn ra :) Yêu thích thành quả của tình yêu 2 người :)
Anh Chỉ Cần Em là câu chuyện đẹp, có nội dung và nhiều điểm nhấn. Tâm lý nhân vật được thể hiện tốt, có chiều sâu và đầy tinh tế!
4
303773
2015-02-06 22:56:57
--------------------------
155856
5009
Một cuốn đam mỹ không quá cao trào nhưng khá lôi cuốn, hấp dẫn và còn có phần đáng yêu. Khi Liêu Duy Tín cố gắng lấy lòng Bạch Ký Minh sau 1 tháng ký hợp đồng làm đối tác, anh đã đưa cậu (cùng mấy cô gái bạn bè khác để tránh tai mắt) đi làm rồi chở về, mua đồ ăn sáng - trưa cho cậu, thỉnh thoảng còn mỉm cười hỏi han quan tâm, nhưng Ký Minh lúc này còn muốn trốn tránh, không muốn chấp nhận sự thật rằng mình là người đồng tính nên tỏ ra khó chịu, không hài lòng với sự chăm sóc anh. 

   Vào 1 lần, Duy Tín đem đồ ăn trưa đến tận nhà Ký Minh thì bị cậu đuổi về, bảo đừng làm phiền nữa, trong cuộc đời cậu quen biết anh thật là 1 điều sai lầm. Duy Tính sầm mặt quay đầu đi về. Một dịp không lâu sau đó, Ký Minh - là thầy giáo - có cuộc đối thoại tâm tình với 1 cậu học sinh đồng tính sắp phải chuyển trường vì đánh lộn, cuối cùng thì cũng dần chấp nhận giới tính của mình. Chấp nhận cả Duy Tín, cho cả 2 một cơ hội chạm đến hạnh phúc. Nhưng đời không như là mơ, bi kịch bắt đầu khi Ký Minh dẫn Duy Tín về quê ra mắt cha mẹ...
4
285794
2015-02-02 12:38:00
--------------------------
154807
5009
Truyện hay lắm, rất đáng để đọc

Nhân vật rất có cá tính, rất riêng, không nhập nhằng, lẫn lộn. Túm lại công ra công, thụ ra thụ, nhân vật phụ ….ra nhân vật phụ :D

Tất cả tình huống, từ đầu cho đến lúc kết, đều được xây dựng tạo cảm giác rất thật. Từ lúc còn đấu tranh giằng co giữa tình cảm và lý trí như nào, chối bỏ như nào, kiên trì như nào, gia đình phản đối như nào, đau khổ như nào, hạnh phúc ra sao… Đọc xong chỉ cảm thán thốt lên một tình yêu thật đẹp, thật đáng ngưỡng mộ, thật cảm động lòng người.
5
471708
2015-01-30 14:33:25
--------------------------
154682
5009
Đọc truyện này mình lại rất thích tính cách của cả bạn Công và bạn Thụ =)))) cứ như thể hai người là một cặp trời sinh cho nhau vậy, mình thấy thế. Hai người đến với nhau vì một thỏa thuận, họ cùng nhau sống và cùng nhau tạo nên cho mình một gia đình. Ngươi truy ta đuổi, rốt cuộc cái gia đình đó cũng trở thành hiện thực, dù cái quá trinh truy đuổi cũng hơi dài hơi một tí =))) Có lo lắng, có bất hòa, tranh cãi nhưng cũng rất ấm áp và ngọt ngào, đó là hương vị của gia đình. Hạnh phúc có chăng cũng là một người chung một mái nhà chia sẻ, chăm sóc, có một ánh đèn sáng chờ đợi mình những khi đêm muộn... rất thích hợp cho những bạn chuộng thể loại ấm áp, nhẹ nhàng ~ ♥
4
216463
2015-01-29 23:09:32
--------------------------
148928
5009
Truyện này mình mua từ lâu lắm rồi. 

Mình rất ấn tượng với nhân vật trong truyện: Anh công rất bá đạo còn anh thụ rất bướng bỉnh. Ngược thì cũng có nhưng kết thúc lại rất viên mãn hí hí hí ~

Ấn tượng nhất là lúc anh công theo đuổi anh thụ. Cho dù anh thụ có chối bỏ như thế nào đi chăng nữa thì anh công vẫn kiên trì ở bên anh thụ. Niềm tin hai anh dành cho nhau làm mình rất cảm động.

Nói chung, truyện này rất hay, không đọc thì rất phí ♥
5
85298
2015-01-11 23:40:48
--------------------------
