490367
5771
truyện tranh cổ tích hay, với những hình ảnh sinh động, hấp dẫn, với tình tiết lôi cuốn, " chồng người vợ tiên" như một món quà tuyệt vời cho các bé trong cuộc sống hiện đại.
5
1886579
2016-11-12 11:32:25
--------------------------
