572117
6661
Cuốn sách giúp những người tham gia Kinh Doanh Theo Mạng hiểu hơn về ngành nghề này và giúp những người chưa tham gia có cái nhìn mới mẻ ,tích cực về ngành Kinh Doanh Theo Mạng. Sách vừa phân tích, vừa có những câu chuyện giúp người đọc hiểu sâu hơn về ngành nghề MLM và có một phần giải đáp những câu hỏi của mọi người  rất hay và bổ ích ,nó giải đáp kỹ hơn những thắc mắc của mọi người về ngành nghề và giá trị ngành MLM đem lại ,chỉ rõ cách làm việc và về hệ thống ngành MLM . Và ngành Kinh doanh theo mạng sẽ là ngành nghề có tốc độ phát triển doanh số nhanh nhất thế giới . Cảm ơn tác giả về quyển sách này
5
1037190
2017-04-13 12:32:20
--------------------------
