435255
6783
Nhan đề quyển sách là những mẹo vặt hay trong cuộc sống nhưng thật ra là quyển sách chỉ viết về những mẹo vặt của 3 mảng là sức khỏe gia đình , làm đẹp và sử dụng máy vi tính. Phần lớn những mẹo trong quyển sách này thì chúng ta cũng đã biết và ứng dụng trong cuộc sống nhất là phần sử dụng máy vi tính. Tuy nhiên cũng có nhiều mẹo rất hay và hữu ích trong cuộc sống. Về phần hình thức thì mình cũng không thích, quyển sách không in các mục ra mà viết liên tục và chỉ có một màu đen nhìn rất rối và không thu hút
3
958015
2016-05-24 20:15:50
--------------------------
