568201
9235
Nội dung thì khỏi phải bàn. Rất hay, lời văn dễ thương. Tiki giao hàng rất nhanh, đây là cuốn thứ 17 mình mua ở tiki :)))
5
1801075
2017-04-09 12:41:21
--------------------------
559797
9235
Rất hay ạ .sách cũng rất đẹp nữa .k biết cuốn tiếp theo là cuốn nào vậy ạ
5
5123446
2017-03-30 23:37:06
--------------------------
557041
9235
Tiki giao hàng nhanh trong 01 ngày. Bìa sách cũng đã bọc. Do sách không có bookmark mà được Tiki tặng kèm cũng an ủi phần nào.
Tuy nhiên về phía nhà xuất bản, chắc nên tái bản với cỡ chữ lớn hơn; dù chi phí dẫn đến giá thành cao nhưng còn hơn xem chữ nhỏ.
4
1370127
2017-03-28 21:59:27
--------------------------
555641
9235
truyện rất hay,đọc rất thích, hài hước và tình tiết cũng hấp dẫn
5
718288
2017-03-27 13:02:42
--------------------------
553941
9235
Bìa sách quá đẹp...nội dung thì khỏi bàn .Thích nhất là tốc độ giao hàng của Tiki ,sẽ tiếp tục ủng hộ Tiki
5
954438
2017-03-25 13:43:00
--------------------------
551065
9235
Yêu Phượng Cửu và Đông Hoa, khôg giống như Bạch Thiển, Phượng Cửu là 1 cô gái rất chủ động và cố chấp. Chính sự cô chấp đó đã nối duyên 2 người, quả là muôn sự tại nhân, thành sự tại thiên 😍😍
5
3811653
2017-03-22 21:59:56
--------------------------
542269
9235
Cảm ơn Tiki đã mạng bộ truyện này đến cho đọc giả. Mình rất thích truyện này. Đây là bộ truyện cổ trang hay nhất mà mình từng đọc. Truyện còn có kẹp sách và hình vẽ cực kì đẹp. Mình sẽ tiếp tục ủng hộ Tiki 😍😍😍
5
1982297
2017-03-15 00:09:39
--------------------------
541957
9235
Thật sự tôi mua cuốn tam sinh tam thế thập lý đào hoa,  coi xong vẫn chưa thỏa mãn nên mua cuốn truyện đọc thêm nhưng nhớ tới phượng cửu lại mua thêm ôi tôi đọc đúng hay luôn,  tôi bỏ cả tháng trời để đọc bộ truyện đó, hay. 
4
1946201
2017-03-14 20:56:05
--------------------------
537857
9235
Khi  mới bắt đầu đọc mình còn cảm thấy lạ và khó có thể hiểu được văn phong của Đường Thất. Nhưng rồi càng đọc mình lại càng bị cuốn hút, văn phong viết ngày càng dịu dàng, dễ hiểu. Các tình tiết được chị xây dựng rất tự nhiên, có kịch tính, bất ngờ, cũng có những lúc hơi ngược tâm nhưng tóm lại vẫn là một câu chuyện đầy ngọt ngào giữa Đông Hoa và Phượng Cửu.
5
1206653
2017-03-08 17:46:56
--------------------------
526505
9235
Phải nói là rất hay, mình đã đọc qua trên mạng cảm thấy thiếu thiếu, nên đã quyết định mua, đúng là không làm thất vọng độc giả mà. Còn mua hàng bên Tiki thì quá yên tâm rồi, nv ship hàng còn nhiệt tình nưa. Yêu tstt yêu luôn tiki
5
2152812
2017-02-16 22:24:24
--------------------------
522965
9235
Nghe bạn bè kể khá hay vô cùng khen ngợi. Cũng lanh chanh mượn đọc thử và đã quyết định mua 1 cuốn cho riêng mình. Rất dễ thương. 
5
2131835
2017-02-10 19:44:53
--------------------------
515993
9235
Trước nay không có hứng thú với ngôn tình chỉ tìm đam mà đọc thôi mà vô tình lại thấy được quyển này do bìa sách khá đẹp! Đến khi đọc mới biết nội dung của nó rất là dễ thương dễ thương đến không tả được ♡ Đông Hoa lạnh lùng nhưng khi ghen thì vô cùng dễ thương còn Phượng Cửu thì nghịch ngợm nhưng cái cp đối với tôi là vô cùng tuyệt vời. Lần đầu đọc được bộ nào hay như vậy luôn! Sợ không hay nên chỉ mua quyển 1 đến khi đọc xong lại thấy tiếc tại sao mình không mua sẵn tập 2 để mà đọc tiếp :< rồi hóng thêm artbook nữa :'<<< con đường dài lê thê sao chịu nỗi :<
5
1155406
2017-01-27 10:48:29
--------------------------
463876
9235
Nếu dùng một từ để hình dung tác phẩm này thì chỉ có dùng chữ tuyệt mà thôi . Tôi chỉ mất đúng một ngày để đọc xong quyển này vì khi cầm lên là không hề muốn đặt nó xuống nữa . Tác giả xây dựng tính cách nhân vật quá độc đáo . Một đông hoa đế quân lạnh lùng vô dục vô tình trên thế gian này chỉ có sự hủy diệt của thiên địa mới làm chàng chú ý .Bỗng một ngày thế giới của chàng bị đảo lộn vì một tiểu hồ ly đáng yêu , mạnh mẽ Phượng cửu . Thích nhất mấy đoạn đối thoại hài hước của đông hoa , phượng cửu không hề bánh bèo tí nào .
5
1469268
2016-06-29 18:23:23
--------------------------
419245
9235
Sau khi đọc Tam Sinh Tam Thế Thập Lý Đào Hoa thì tôi tìm ngay đến tác phẩm Chẩm Thượng Thư này. Nhân vật Đông Hoa Đến Quân là nhân vật nam chính gây ức chế nhất trong số các tác phẩm ngôn tình mà tôi đã đọc. Ngài biết tình cảm Phượng Cửu dành cho mình cũng như tình cảm mình dành cho nàng nhưng lại luôn làm những chuyện khiến PC hiểu lầm nghiêm trọng. Sau lưng ĐQ đều giúp đỡ nàng, lo cho nàng, tất cả đều như nàng nhưng tại sao lại không nói ra, tại sao lại để nàng đi từ hiểu lầm này đến hiểu lầm khác. Đến lúc PC đăng cơ thay thế cô cô Bạch Thiển, ĐQ cầu hôn nàng, mọi chuyện cứ tưởng là từ nay về sau hai người sẽ hạnh phúc bên nhau thì một lần nữa ĐQ lại khiến nàng đau lòng bỏ đi. ĐQ thật sự rất tội nghiệp, người đọc ai cũng cảm nhận như vậy nhưng hành động của chàng thật khó chấp nhận. PC trước giờ rất yêu ĐQ nhưng lần này nhất định bỏ đi là biết nàng đau lòng tới mức nào. Và cũng may mắn như bao tác phẩm khác của Đường Thất Công Tử, cuối cùng cũng HE. 
4
113540
2016-04-20 21:25:37
--------------------------
405670
9235
Tôi trước đây đã từng đọc thập lý đào hoa và biết đến Đường Thất cũng từ đó,văn phong của Đường Thất rất thú vị nó có 1 chút dì đó hài nhưng trong hài lại ngược. Bộ Chẩm Thượng Thư này tôi được nghe nhiều người nói hay nên mua đọc thử,và rồi....hay kinh khủng luôn,thích Đông Bông kinh khủng,đúng là sống lâu nên miệng lưỡi hông ai sánh nổi chỉ tội chị Cửu bị Bông ăn hiếp hoài,...và từ bộ này mình đã là fan của Đường Thất và bắt đầu lùng truyện thể loại huyền huyễn, nếu bạn là fan của thể loại này thì đừng nên bỏ qua hệ liệt Tam sinh tam thế nhá.
5
1017741
2016-03-26 23:58:42
--------------------------
401562
9235
Thật ra mình đọc Chẩm thượng thư trước rồi mới xách mông đi mua Thập lý đào hoa cho nên có thể cảm nhận của mình sẽ khác với mọi người một chút. Mình rất thích Chẩm thượng thư, thích Phượng Cửu, thích Đông Hoa, thích mối tình duyên éo le của hai người họ. Có thể giữa Phượng Cửu và Đông Hoa có duyên không phận, nhưng chính sự cố chấp của con hồ ly lông đỏ và sự thờ ơ lãnh bạc của chàng đế quân đã kéo   họ đến gần nhau hơn.
Đôi khi duyên phận không phải chờ đợi mà ra ...
5
521239
2016-03-20 22:17:20
--------------------------
399992
9235
Câu chuyện ở phần này hay và hài hước phượng cửu và đông hoa từ ko có duyên rồi lại thành có duyên . Văn phong của đường thất vô cùng hóm hỉnh và nuột nà như những truyên khác lại là một tác phẩm nữa cúa đường thất thu hút mình. Tóm lại đây là một câu truyện tình lãng mạn không kém gì thập lý đào hoa nhưng lại đan xen sự tuói vui hóm hỉnh làm cho câu chuyện có chỗ đứng trong gia tài của đường thất. Phần này đa số nói về đông hoa và phượng cửu nên hóm hỉnh hơn phần 2
4
370852
2016-03-18 16:40:11
--------------------------
382115
9235
Tôi đã từng đọc nhiều thể loại từ xuyên không , dị giới cho đến hiện đại , học đường , nhưng chưa có quyển truyện nào khiến tôi mong ngóng như Chẩm Thượng Thư . Khi đọc xong nó , tôi chẳng còn tâm trí đọc truyện khác , thậm trí ngày ngày mơ mộng về cái kết của cặp đôi Đông Hoa Đế Quân và Phượng Cửu . Cái kết mà chị Thất để lại có phần khiến tôi xao xuyến và xúc động , sau bao nhiêu trắc trở cuộc tình " duyên mỏng " hóa ra lại cảm thấy hạnh phúc nhất khi biết được bản thân có thể cùng người kia vũ hóa , sung sướng nhất khi biết thực ra người đó đã sinh cho mình một đứa con . Kết truyện chỉ vọn vẻn câu : " Cổn Cổn , ta là phụ quân của con " nhưng khiến người đọc hả hê , mừng thầm cho một gia đình đã đoàn tụ , cho những nỗ lực mà Phượng Cửu đã bỏ ra để theo đuổi Đế Quân và cả cho những khổ sở , gánh nặng mà Đông Hoa mang theo
5
1138642
2016-02-18 16:38:56
--------------------------
378790
9235
Đến với Tam sinh tam thế Chẩm thượng thư, tính cách nam nữ chính được Đường Thất xây dựng hoàn toàn trái ngước với Tam sinh tam thế Thập ly đào hoa. Nữ chính Phượng Cửu tính cách hiếu động, hoạt bát, tuổi còn trẻ nên vân bồng bột đa số luôn hành động trước khi kịp suy nghĩ, là một đóa hoa đang nở tràn đầy sức sống. Vì thế, khi yêu Đông Hoa, nàng cũng yêu hết mình, không ngại khó khăn, trở ngại. Khi biết tin người mình yêu cưới người con gái khác, dù rất đau lòng, nàng vẫn buông bỏ chấp niệm. Từ đó có thể thấy, Phượng Cửu là một cô gái dám yêu dám hận, dù đau khổ nhưng vẫn biết thời điểm thích hợp để buông tay. Còn nam chính Đông Hoa Đế Hoa thì vô cùng nổi bật với tính cách cực kỳ vô sĩ. Nhiều lúc đọc truyện, tôi cười đến đau bụng những tình huống dở khóc dở cười giữa hai người. Mặc dù cũng thất quá đáng khi người bị ức hiếp luôn là Phượng Cửu, nhưng không khỏi cảm thấy Đông Hoa thực sự rất lợi hại.
Nhìn chung, truyện được dịch mượt mà, được tặng kèm bookmark và 2 tấm poster rất đẹp. 
4
109334
2016-02-07 15:26:37
--------------------------
360216
9235
Nếu Tam sinh tam thế Thập lí đào hoa là đệ nhất huyền huyễn thì Tam sinh tam thế chẩm thượng thư là đệ nhị huyền huyễn :))) Trọn một ngày rãnh dành ra đọc quyển này, cảm thấy không uổng công chút nào.
Phượng Cửu, nữ vương Thanh Khâu, là cháu gái của Bạch Thiển trong Tam sinh tam thế Thập lí đào hoa, tính cách cũng giống cô cô của mình, quái gở, nghịch ngợm, độc mồm độc miệng nhưng cũng rất mạnh mẽ, quyết đoán, thông minh, lại có chút tuyệt tình.
Phượng Cửu sau khi được Đông Hoa Đế Quân tiện tay cứu lúc nhỏ đã đem lòng yêu chàng đến hai ngàn năm, nhưng chàng lại không hề hay biết. Nàng vì chàng mà hạ mình, không ngại thân phận cao quý để làm một tiểu tì trong Thái Thần cung nơi Đông Hoa ở, nhưng lại chẳng hề được chàng để ý. Có lẽ đúng như thiên mệnh nói, họ không có chút duyên phận nào.
Nàng cuối cùng báo đáp được Đế Quân, cứu ngài một mạng, lại được ở bên cạnh ngài, nhưng chỉ dưới thân phận một sủng vật. Vì cứu chàng, nàng đánh đổi bộ lông hồ ly tuyệt đẹp của mình, cũng không thể biến lại thành người trong ba năm. Nhưng ở bên cạnh chàng, hạnh phúc nàng có được lại còn ít hơn đau khổ. Chàng lãng quên nàng, như lãng quên một con sủng vật. Ngày nghe tin chàng kết hôn, nàng nhìn chàng rồi rời đi, buông bỏ chấp niệm một cách tuyệt tình.
Phải, nàng rất tuyệt tình, nói bỏ thì có thể bỏ, để có thể bình tĩnh lạnh nhạt đối mặt với Đông Hoa rất lâu sau tại tiệc cưới của Bạch Thiển và Dạ Hoa, như một người mới quen hoàn toàn không có chút ngượng ngùng.
Đế Quân chú ý đến nàng, chàng bắt đầu nhận ra mình bắt đầu thích nàng, thích tính cách quái gở nghịch ngợm ấy. Nàng tưởng chừng mình đã sớm buông bỏ tình yêu dành cho chàng, nào ngờ lại lần nữa rơi vào, tưởng chừng đã có thể cùng chàng bên nhau mãi mãi, để rồi một lần nữa bị tổn thương, tổn thương sâu sắc hơn cả lần đầu.
Riêng rôi vô cùng yêu Phượng Cửu,  cũng như yêu Bạch Thiển, thích tính cách của nàng. Mạnh mẽ! Đông Hoa chư vượt qua được Dạ Hoa,có lẽ vì chàng hơi cố chấp, hơi ương bướng mà chưa từng đặt mình vào suy nghĩ cho nàng, hiểu cảm nhận của nàng.
A Lan Nhược và Trầm Diệp là hai thân ảnh của Phượng Cửu và Đông Hoa, mối tình của bọn họ cũng sâu sắc như vậy, nhưng vẫn là A Lan Nhược dám yêu, dám hy sinh, còn Trầm Diệp vẫn cố chấp như Đông Hoa vậy, để lại một kết cục làm tôi tiếc nuối.
Các nhân vật phụ như cặp vợ chồng Bạch Thiển - Dạ Hoa cùng cục bột nhỏ, Liên Tống Quân, Tô Mạch Diệp, Cô Minh Chủ, Ti Mệnh Tinh Quân đều rất đáng yêu. Lâu lâu lại nhắc tới cặp đôi Chiết Nhan - Bạch Chân làm mình mừng vô cùng <3
Kết truyện không rõ rành lắm, vẫn hơi vội như Thập lí đào hoa, thực sự không khiến người đọc thỏa mãn, lại không có ngoại truyện. Mình rất bực bội với đoạn Trọng Lâm chỉ trích Phượng Cửu. Dù nàng hiểu lầm tấm lòng của Đế Quân, nhưng cũng là vì không ai giải thích, không ai nói rõ để nàng đau xót như vậy, cớ gì là tội của nàng ? Nói chung cả truyện thấy khúc cuối khong được như truyện, có vẻ đuối. Mong chị Bảy viết thêm ngoại truyện để truyện hoàn hảo hơn <3
5
399719
2015-12-28 21:11:42
--------------------------
357888
9235
Khi mới đọc được vài trang đầu, mình còn cảm thấy có chút gì đó hơi nhàm chán. Nhưng khi cố gắng đọc đến gần nửa quyển thì, trời ơi, quá là TUYỆT VỜI!!! Mình cảm thấy thật may mắn khi đọc phần nhận xét của các bạn đã từng mua cuốn sách này về, và cũng cảm thấy thật may mắn khi quyết định mua cuốn sách này. Mình nghĩ rằng chắc có nói nữa thì cũng không thể kể hết được sự hấp dẫn của cuốn sách này!!! Ngoài nội dung của Tam Sinh Tam Thế Chẩm Thượng Thư ra, mình còn có thiện cảm với bìa ngoài của cuốn sách này nữa. Mình nghĩ người con gái ở bìa sách là Phượng Cửu, hì hì. À! Còn nữa, bên trọng cuốn sách này còn có thêm hai bức tranh của Y Xuy Ngũ Nguyệt! Trời ơi! Đẹp không thể tả! Mình cảm thấy thật xúc động, vui mừng, hạnh phúc khi đã quyết định mua cuốn sách này! Qủa không hổ là "sách gối đầu giường" của các bạn trẻ!!!
5
1025876
2015-12-24 13:45:27
--------------------------
356200
9235
Hôm trước mình mua sách này ở nhà sách Dầu Tiếng,cầm xuống mà thấy nó nặng kinh khủng,mình muốn mua cuốn này vì mình đã đọc cuốn Tam sinh tam thế,thập lý đào hoa hay cực kỳ luôn nên mình thích lắm nhưng khi qua cuốn này mình thấy không được hay bằng cuốn nhưng dù sao cũng là một cuốn sách hay! Vì nó nối tiếp bộ chuyển tam sinh tam thế,hiện giờ đã ra truyện tranh luôn rồi đấy nhưng dịch cuốn này lại không hay,mình là fan ruột tiểu thuyết của cố mạn và đường thất công tử nên cũng ráng đọc hết còn nếu nói về hình bìa thì khỏi xinh lung linh luôn mình nhìn giống Bạch Thiển hơn Phượng Cửu ánh mắt u buồn,vũ phục màu trắng mình thích nhất là ảnh bìa của truyện này còn tam sinh tam thế thập lý đào hoa cốt truyện hay nhưng ảnh bìa lại không bắt mắt mình thấy nhà xuất bản hơn bị ngược rồi
4
1066742
2015-12-21 14:08:10
--------------------------
355071
9235
Nếu khoảng cách giữa hai người là một nghìn bước, chỉ cần nàng bước lên một bước, chàng cũng lập tức quay đầu bước lên mười bước. Đá Thiên mệnh đã viết duyên phận của hai người là mãi mãi không có duyên phận.
Nàng mang theo chấp niệm nghìn năm chỉ vì chàng đã vô tình cứu nàng một mạng-mà theo bạn của chàng nói thì nếu không phải là nàng mà là bất kỳ ai đi chăng nữa, với vị thế của chàng chàng chắc chắn cũng sẽ cứu. Nàng lại một lòng một dạ thuỷ chung muốn báo ân chàng. Năm lần bảy lượt tiếc rằng đều không thành công, đều không khiến nàng thoả mãn. Từ việc làm tỳ nữ trong cung của chàng bốn trăm năm đến việc hy sinh bộ lông đỏ bóng mượt của cửu vỹ hồ đến cứu chàng. Nguyện làm tiểu hồ ly-thú cưng của chàng. Toàn là những việc không ai nghĩ Đế Cơ của nước Thanh Khâu có thể làm, thế mà nàng đã làm. Tất cả đều là một mình nàng gánh vác.
Đá Thiên mệnh vì thương xót cho tình cảm của nàng mà viết cho hai cái bóng mang một nửa khí chất của hai người một duyên phận sâu đậm đến trọn đời. Lại có một người đang rảnh nên chen vào chuyện của hai cái bóng này. Chuyện không thành khiến Đá Thiên mệnh đành thay đổi duyên phận của chàng và nàng thành duyên phận mỏng manh. Nàng đã an phận từ bỏ lại gặp chàng trong lễ thành thân của cô cô nàng. Chồng của cô cô nàng gọi chàng là thúc thúc. Biểu đệ Cục bột nhỏ gọi nàng là tỷ tỷ nhưng gọi chàng là gia gia. Có phải chính lúc nàng buông tay lại là lúc nàng có được? Liệu chàng sẽ làm gì để giữ duyên phận mỏng manh này?
Mình cho 4* vì truyện có vài đoạn hơi dài dòng và nghe nói Đường Thất Công Tử đạo văn.
4
1038720
2015-12-19 09:27:17
--------------------------
349078
9235
Mình không thích quyển này cho lắm. Mới đầu nghe nhỏ bạn giới thiệu nên mới quyết định mua. Nhưng sau khi đọc xong thì thấy CTT cũng tạm vì cốt truyện rất rắc rối chủ yếu là toàn kể về ngày xưa. Sang đến quyển 2 thì Đông Hoa đế quân rời đi thì phải rồi cả hai lại phải xa cách. Tuy nhiên, đây cũng chỉ là ý kiến riêng của mình mà thôi. Nếu bạn nào thật sự thích thể loại này hay truyện của chị Đường Thất thì nên thử đọc Chẩm Thượng Thư xem sao.
3
596777
2015-12-07 17:35:25
--------------------------
340914
9235
Ý kiến bản thân =))*
Không như những tác phẩm khác của Đường Thất, Bộ Chẩm Thượng Thư khá dài dòng, đưa người ta rời khỏi mạch chính của câu chuyện. Nó làm cho mình cảm thấy hoang mang, không biết đang viết về cái gì, tuy vậy vẫn ráng đọc T.T  để tìm ra cái hay, cái hấp dẫn của câu chuyện và... nó làm mình khá thất vọng. Nó không làm nổi bật được hình tượng của nhân vật chính. Đặc biệt hơn, tác giả nói về khoảng thời gian yêu đương bên nhau của hai nhân vật chính khá ít. Mình cũng không thích cái kết lắm khi mà hai người họ chưa cưới mà đã có con. Có thể mọi người nói mình quá cặn kẽ nhưng suy cho cùng mình nghĩ một đế quân mặt dày như Đông Hoa không nên để người mình yêu thương phải bị như vậy. Đặc biệt là ở chỗ nữ chính bỏ đi thì tác giả lại không nêu những ngày tháng buồn khổ của nam chính =)))*
2
992908
2015-11-20 20:14:20
--------------------------
337754
9235
Tôi biết đến đường thất công tử lần đầu tiên là đọc  tam sinh tam thế thập lý đào hoa cuốn truyện kinh điển không dễ vượt qua hiện nay đọc đến quyển thứ hai tam sinh tam thế chẩm thượng thư tôi càng cho rằng đường thất công tử không dễ có đối thủ trong đề tài này. Với văn phong dí dỏm dễ thương khiến tôi đọc đi đọc lại vẫn không thấy chán. Hình thức bìa rất đẹp cộng thêm bookmark khiến tôi rất hài lòng. Hi vọng quyển hai cũng được như vậy. S2 Đường Thất Công Tử.
5
766468
2015-11-14 17:28:10
--------------------------
327337
9235
Đọc xong Hoa tư dẫn_đứa con mỏng manh như thủy thủy tinh của "mẹ"Đường Thất,tôi liền lục lọi tìm hiểu thêm vài cuốn tương tự như vầy về ngốn,ai ngờ nó cũng là một tuyệt phẩm không kém cạnh"tiểu tư dẫn" song nhiều chỗ bản dịch hơi có sạn đọc hơi khó hiểu đôi lúc lại buồn cười song cái tính trẻ con,ngang bướng,zễ thương của Phượng Cửu và sự cao quý lạnh lùng của Đông Hoa đã kéo tôi,níu tôi đến hết hai phần,ngoài ra tôi còn thấy trong cách dựng truyện của Thất tỷ khác hơn so với mọi phẩm khác,chất riêng hơn,nhìn vào mọi nhân vật tôi cũng có cảm nhận họ đang diễn ngay trước mắt,mơ mơ hồ hờ,minh minh bạch bạch,tôi thấy trong chuyện tình đó có cả những chi tiết khá giống với hoàn cảnh của bản thân.Ai đã đọc chắc sẽ liên tưởng đến những mùi vị mà tôi chưa từng nói:Hỉ,nộ,ái ,ố,ai,lạc,dục.♥♥♥
5
904362
2015-10-27 17:07:52
--------------------------
321161
9235
Cực kỳ thích văn phong của Đường Thất, ấn tượng với Hoa Tư Dẫn và cuồng luôn sau khi đọc Chẩm Thượng Thư. Đông Hoa mặt dày vô đối, là soái của soái trong lòng mình còn Phượng Cửu cũng rất dễ thương, lạc quan 1 cách khó hiểu. Đường Thất xây dựng nhân vật rất tuyệt vời, ai cũng để lại ấn tượng sâu đậm. Cái kết tuy hơi nhanh 1 chút nhưng với mình nó không ảnh hưởng tới độ hay của truyện. Mong là Đường Thất sẽ cho ra ngoại truyện của couple này. Chờ đợi Bạch Cổn Cổn lên sàn như cục bột nhỏ. Nghe nói Đường Thất đang viết Bộ sinh liên, hóng từng ngày, hy vọng khi viết xong Quảng Văn sẽ mua bản quyền và xuất bản
5
583867
2015-10-13 13:01:45
--------------------------
319496
9235
Thập lý đào hoa so về tình tiết thì hay hơn Chẩm thương thư , nhưng ấn tượng và thú vị nhất chính là ở nhân vật Đông Hoa , vị đế quân cao cao tại thượng đâu ai ngờ rằng chả thuộc dạng bá đạo , mặt dày như thế đâu ... cũng có thể nhờ độ bựa độ dày của Đế quân người nên dân tình mới phong cho là soái ca cổ đại ấy ... Thích cách tạo nhân vật của Đường Thất ~ Couple Đông hoa - Phượng Cửu khá là dễ thương luôn , bìa đẹp chất lượng giấy cũng ok . Tiki giao hàng nhanh gọn lẹ .. nói chung mị rất ưng ..
5
814338
2015-10-08 21:26:54
--------------------------
317413
9235
Không hổ danh tác phẩm ot, hay nhất năm 2014. Muốn mua lâu lắm rồi giờ mới đủ tiền để mua, nội sung không hề làm minhf thất vọng...yêu đường thất công tử quá. Bạn không phải hối hận khi mua đâu...Giấy, bìa đều đẹp. Tiki giao hàng cũng rất nhanh nữa........... Yêu quá...Mới đọc tập 1 xong phải chạy mua tập 2 luôn đóa!!
Giờ mình hiểu tại sao trong top mười soái ca cổ đại thì có bốn nhân vật của nhà Đường thất rồi. Không phải là người đam mê huyền huyễn nhưng phải công nhận đọc truyện Đường Thất đúng là không dứt ra được, sách gối đầu giường đúng là không sai. Đường nào thì cũng đến tây thiên nhưng muốn đến tây thiên thì phải qua khổ nạn mới được đó chắc là phương châm của Đường Thất, cứ tưởng hạnh phúc là đây ai ngờ đó là hố sâu. 
5
698653
2015-10-03 12:35:45
--------------------------
316828
9235
Giờ mình hiểu tại sao trong top mười soái ca cổ đại thì có bốn nhân vật của nhà Đường thất rồi. Không phải là người đam mê huyền huyễn nhưng phải công nhận đọc truyện Đường Thất đúng là không dứt ra được, sách gối đầu giường đúng là không sai. Đường nào thì cũng đến tây thiên nhưng muốn đến tây thiên thì phải qua khổ nạn mới được đó chắc là phương châm của Đường Thất, cứ tưởng hạnh phúc là đây ai ngờ đó là hố sâu, ngược công bằng cả nam lẫn nữ là khỏi ai phân bì, ngược cả độc giả luôn nhé, đọc truyện của chị Bảy là chị nhúng mình xuống hố ngược xong chị với lên sấy khô khô cái chị cười với mình một cái xong chị nhúng mình xuống lần nữa. Chỉ có là thần tiên mới thấy được rằng tuổi tác không là gì cả, Đông Hoa vẫn như trai đôi mươi vẫn hồn nhiên xì teen dâu như thường, gừng càng già càng cay nói ra câu nào thì thâm nho câu đó, khỏi ai đỡ được. Đông Hoa dù da mặt dày nhưng lúc nào nghiêm túc thì quyến rũ không chịu được. Còn nữ phụ Cơ Hoành thì cũng như bao nữ phụ khác yêu đến nỗi quên cả lòng tự trọng của mình, ép người khác không được lấy vợ, cô này thọc gậy bánh xe rất đúng thời điểm cứ đến lúc sắp viên mãn thì thế nào cũng bay ra làm cho hai nhân vật chính rơi vào biển lửa nhưng cô ta có diễm phúc gì? tu bao nhiêu kiếp mà lại được Yến tráng sĩ yêu thương chứ? đúng tội nghiệp cho anh này. Liên tống à! Huynh là một người nếu không nhắc đến thì đúng là thiếu sót nếu không có đế quân thì huynh sẽ được chức vụ mặt dày đấy nhưng tiếc rằng bộ truyện của huynh bị dừng rồi. Mỗi nhân vật trong truyện đều mang một màu sắc tạo ra một câu chuyện không đến nỗi đau như cắt nhưng lại khiến người ta bùi ngùi, duyên phận đấy à? Là do chính mình tạo ra thôi.

5
348298
2015-10-01 20:55:30
--------------------------
314584
9235
Phải nói truyện của Đường Thất Công Tử quá sức chịu đựng của mình!!! Tác phẩm nào cũng hay, cũng ám ảnh không dứt!!! Mỗi khi gấp lại quyển sách là lại suy nghĩ không ngừng về nó!!!! Truyện lúc đầu bao giờ cũng hài hước, nhưng luôn ẩn trong đó là sự đau lòng. Lúc nào đọc truyện của Đường Thất cũng khóc hết nước mắt T.T, kinh khủng quá!!! Mình từng nghĩ Tam sinh tam thế Thập lý đào hoa là nhất rồi, không có truyện nào hay hơn được vậy nữa, nhưng quyển Chẩm Thượng Thư này cũng day dứt không kém!!!!
Tóm lại là 1 quyển sách tuyệt vời!!!!
5
460759
2015-09-26 14:34:42
--------------------------
288668
9235
Mặc dù hơi dài nhưng đây quả thật là 1 tác phẩm hay. Nam, nữ chính đều vô cùng đặc biệt. Nữ chính vô cùng thú vị còn nam chính thì mặt dày không thể dày hơn. Lời văn của Đường Thất Công Tử khá nhí nhảnh, linh hoạt theo phong cách nhân vật. Câu truyện cũng được dẫn dắt vô cùng tự nhiên và hấp dẫn. Tuy nhiên tôi hơi hụt hững với phần kết, nó khiến tôi cảm giác như mình đang lầm tưởng hay chính tôi cũng chẳng hiểu gì. Có lẽ giấc mộng của An Nhược Lan mà Phượng Cửu phải hứng chịu quá dài. Tuy vậy có nó thì mối tình giữa Đông Hoa và Phượng Cửu mới có kết quả. Và sự xuất hiện của đứa con giữa 2 người cũng khá hay, khá ấm áp, khá cảm động. Ngoài việc hơi khó hiểu và hụt hẫng do cái kết thì đây quả thật là 1 tác phẩm trọn vẹn, chỉ 1 từ "hay"
5
305705
2015-09-03 19:44:36
--------------------------
283770
9235
Mình thấy có rất nhiều người chê cuốn này không hay bằng Thập lí đào hoa, nhưng bản thân mình thì lại rất kết cái couple này. Đông Hoa đế quân kiểu mặt dày biến thái bá đạo gì đâu ấy, còn nhân vật Phượng Cửu thì khỏi nói, mình luôn rất thích những nhân vật nữ trong truyện của Đường Thất Công Tử, từ Quân Phất, Bạch Thiển và giờ là Phượng Cửu. Cảm giác như Tiểu Bạch của Đế quân vừa thông minh, cũng có chút ngây thơ, và hơi tưng tửng nữa. Nhưng quan trọng là tình yêu cô dành cho Đế quân rất chân thành. Nhờ sự bá đạo của Đế quân mà truyện vui hẳn lên, rất hài, đọc thoải mái nhiều lắm. Duyên giữa hai người mỏng nhưng cuối cùng cũng tới được bên nhau, vậy là viên mãn rồi. Mình cũng cực thích artbook của bộ này, nét vẽ đẹp, hình như truyện nào của chị bảy cũng có artbook riêng hay sao ý, đẹp dã man luôn. Nói chung là cực cực thích bộ này :))))
5
144697
2015-08-30 12:00:41
--------------------------
280110
9235
        Tác giả Đường Thất Công Tử rất xuất xắc trong mảng truyện như thế này. Truyện hay tuyệt với nữ chính Phượng Cửu dễ thương nam chính Đông Hoa hài vô đối. Có lúc đọc thấy buồn cười chết mất với hai nhân vật nhất là Đông Hoa quan điểm của hắn là "mặt là vật ngoài thân" :)). Nhưng có lúc lại buồn da diết đọc đi đọc lại vẩn thấy hay, gấp sách lại vẫn thấy đọng lại dư vị buồn có, vui có, tiếc cũng có. Văn phong hấp dẫn, tình tiết thú vị nên đọc, nên đọc. Truyện có cả poster đẹp lung linh kèm bookmark cũng xinh không kém!
5
651813
2015-08-27 13:55:09
--------------------------
279525
9235
Duyên phận rốt cuộc là thế nào? 
Đọc cuốn này cảm xúc lâng lâng, thích cách Phượng Cửu âm thầm theo đuổi Đế Quân, sẵn sàng đổi bộ lông để cứu Đông Hoa, nhưng Đông Hoa vì công chúa Cơ Hoành bỏ mặt Phượng Cửu bị thú cưng của Cơ Hoành ăn hiếp, thấy tội Phượng Cửu vô cùng, đọc "Tam sinh tam thế - Thập lý đào hoa" tò mò nên mua ngay Tam Sinh Tam Thế Chẩm Thượng Thư, thích cuốn này vô cùng, bookmark đẹp, poster max đẹp luôn, 1 trong những cuốn huyền huyễn yêu thích nhất =)))))
5
416237
2015-08-26 21:26:51
--------------------------
276807
9235
Khác với cô cô mình, Phượng Cửu có một mối tình vừa dai dẳng, vừa bi kịch, gian nan lại vừa vô cùng đáng yêu và lãng mạn. Thật sự ngưỡng mộ sự kiên trì của Phượng Cửu, nhiều lúc thấy buồn cười, chưa cười thỏa lại đâm ra đau thương :(( Anh chàng Đông Hoa này dày vò em nhỏ gần mấy kiếp con người mới nhận ra tình cảm em ấy, lúc đó thì thôi =)))) Đối xử dễ thương kinh !!
Nói chung bạn nào yêu Đường Thất Công Tử thì không thể bỏ qua tác phẩm này, không yêu cũng không được bỏ qua =)))))
5
602240
2015-08-24 13:14:14
--------------------------
275609
9235
Tôi không hề có “thâm niên kỳ cựu” trong giới đọc ngôn tình, cổ đại. Nhưng tôi nghĩ chỉ cần mình hài lòng là đc, người khác có nói gì cũng không sao! Tôi  rất ưng ý tác phẩm này, thầm mừng mình đã không bỏ lỡ nó! Chuyện tình của Phượng Cửu thực sự là một sự bền bỉ hiếm gặp, tôi không thể gọi đó là sự cố chấp, tôi nghe oai danh của Đông Hoa mặt dày số một, nhưng hóa ra kẻ mặt dày mặt lạnh đó lại có thể vì yêu mà mất luôn cả cái gọi là vô dục vô cầu, tôi đọc hết phăng nó trong vòng 1 ngày mà hết thảy ngạc nhiên, lối văn không biết nên gọi là nước chảy mây trôi, hay là thâm ý đáng ngưỡng mộ! Dí dỏm có dí dỏm, bi thương có bi thương, ẩn ý muôn phần dễ đoán, nhưng thực ra sâu lắng vô cùng!Tôi cũng cực kỳ thích trọng lượng quyển sách, nhìn vào cứ ngỡ nặng lắm, ai ngờ nhẹ hẫng! 
Khi lật đến trang cuối cùng, tôi lại cảm ơn trời, may quá, còn nữa, sau đó lại cám ơn bản thân, may là có mua luôn cả 2 quyển cuối! Suýt nữa mất cả món ăn ngon! Tất cả các nhân vật tôi đều thích, yến Trì Ngộ là thứ 3, sau đó là Liên Tống Quân, còn lại các nhân vật đều hảo ý, song tôi chướng mắt nhất chính là Cơ Hoành.Thực sự nàng ta là thiên kim đúng nghĩa, đời chẳng mấy va chạm, ích kỷ lại coi rẻ người khác, ngoài mặt ân cần với Đông Hoa, hóa ra lại nảy sinh tình ý với thị vệ, sau này vỡ lẽ lại tìm về lương duyên mình từng bỏ lỡ, mặt dày yêu cầu người Đông Hoa yêu thích tránh xa chàng ra. Tôi chỉ chưa hiểu thông vì sao Đông Hoa lại đối tốt với nàng ta, Tri Hạc thì còn có thể hiểu được, nhưng tôi chỉ mong cốt truyện sau này nàng ta bị Đế Quân dằn mặc 1 lần cho hả giận! 
5
516261
2015-08-23 00:02:53
--------------------------
273030
9235
Tiếp nối Thập lý đào hoa - mối tình của cô cô Bạch Thiển, đó là Chẩm thượng thư kể về cô cháu gái Phượng Cửu xinh đẹp, đáng yêu và tinh nghịch đã được nhắc trong truyện trước. Đọc truyện này tôi rất thích tình yêu của Phượng Cửu đối với Đông Hoa, tình yêu đó rất mạnh mẽ, ẩn chứa trong đó sự quyết tâm, sự kiên cường và sự hi sinh trong tình yêu của nàng, thật đáng để người ta hâm mộ, Cho dù trải qua bao khó khan, ông trời cũng không phụ nàng đã khiến cho Đông Hoa thích nàng. Xen kẽ trong đó phải kể đến các nhân phụ đã có phần thúc đẩy mối tình này như Liên Tống, Tiểu Yến, … đã làm truyện thêm phần hấp dẫn. Truyện rất hay, dễ thương, nhẹ nhàng và không kém phần hài hước, tôi rất thích !
5
478050
2015-08-20 16:51:37
--------------------------
266581
9235
Tác phẩm “Tam Sinh Tam Thế Chẩm Thượng Thư” của tác giả Đường Thất Công Tử là phần hệ liệt của cặp Đông Hoa Đế Quân và Phượng Cửu từng xuất hiện trong " Tam sinh tam thế - Thập lý đào hoa" của cùng tác giả mà tôi đã đọc trước đó. Quả thật, tôi mua cuốn này vì rất tò mò về mối tình “ lộn xộn” của cả 2 nhân vật chính. Nhân vật Phượng Cửu có tính cách khá trẻ con, tinh nghịch và si tình; Đông Hoa là một đế quân với vẻ ngoài soái ca lạnh lùng bên ngoài, trong nóng “chảy”. Tình yêu của họ bị có bi kịch nhưng vẫn rất hạnh phúc và hài hài.
4
276840
2015-08-14 20:20:30
--------------------------
266129
9235
Kỳ thực lúc mới đọc thì mình không thích Phượng Cửu cho lắm nhưng sau thì càng đọc càng thương. Nhân vật nam chính rất là bá đạo, haizz. Nhưng dù sao thì cũng đã không phí tiền vì cách hành văn của Đường Thất rất tuyệt, liền mạch và có sự tinh tế cao. Trong sách chỉ có chữ thôi nhưng lại đem khung cảnh hệt như mình đang là 1 nhân vật được chứng kiến, cảm thấy cảm xúc từ các nhân vật. Đây là 1 cuốn sách đáng đọc trong hàng ngũ truyện ngôn tình dày đặc.
5
514738
2015-08-14 13:48:16
--------------------------
264723
9235
Tam sinh tam thế chẩm thượng thư là một trong những cuốn truyện của Đường Thất Công Tử mà mình rất rất rất là thích . Đường Thất Công Tử là một trong những tác giả mà mình hay mua truyện để đọc nhất . Tam sinh tam thế chẩm thượng thư là cuốn truyện rất hấp dẫn , có tình tiết chặt chẽ , phong văn mượt mà , nội dung cũng mới mẻ . Trong truyện có nhiều tình tiết rất cảm động cũng có nhiều tình tiết cười ra nước mắt . Bìa truyện rất đẹp mang đậm màu sắc cổ xưa . 
4
635786
2015-08-13 13:23:02
--------------------------
259986
9235
Lúc đầu nhìn thấy truyện dài nên cũng ngại mua! Nhưng vì bìa sách quá bắt mắt nên mình mạnh dạng mua thử. Mình không bao giờ hối hận vì truyện cứ lôi cuốn không thể nào bỏ ngang để đi làm chuyện khác được! Đặc biệt là truyện miêu tả khung cảnh rất tinh tế chỉ bằng những từ ngữ cơ bản nhất, không xa hoa nhưng khi mình tĩnh tâm đọc thì cứ như mình đang đứng trước khung cảnh đó thật! Truyện tuy có hơi ngược nhưng bù lại nội tâm nhân vật miêu tả rất sắc xảo. Có những đoạn cười ra cả nước mắt, cũng có khi tâm tư tình cảm nhân vật chính đau lòng mình cũng xót xa theo. Đây là một tác phẩm đáng để thưởng thức. Cám ơn tác giả rất nhiều.
5
81713
2015-08-10 00:11:48
--------------------------
258613
9235
Vẫn là một tác phẩm thành công của Đường Thất.  
Nội dung mới mẻ phong phú,   tình tiết chặt chẽ,  văn phong mượt mà ,dễ đọc. Nếu đã đọc Thập lí đào hoa thì ko thể bỏ qua Chẩm Thượng thư. Còn nếu chưa đọc thì càng phải nên đọc cả hai tác phẩm. 
Còn về tác phẩm , Vì mới là tập 1 nên tổng thể câu chuyện chưa có mấy cao trào , ngoài những màn gặp gỡ khó quên và đặc sắc của cặp nhân vật chính và tạo tiền đề cho những phần sau. Câu chuyện khá chậm rãi,  nhưng với cách viết chắc tay của Đường Thất vẫn khiến độc giả không thể bỏ dở giữa chừng được và chắc chắn là phải mong mong chờ chờ phần tiếp theo ra mắt.  

4
377537
2015-08-08 17:49:29
--------------------------
256396
9235
Đọc xong mình thấy truyện rất cuốn hút ,mình rất thích cách hành văn của Đương Thất Công Tử,nói chung là vô cùng đặc biệt .Lúc đầu mình không thích tính cách của Phượng Cửu nhưng càng đọc càng thấy thương tỉ ấy ,vì tình yêu có thể làm tất cả ,chịu hi sinh để người mình yêu hạnh phúc.Cốt truyện cũng rất hay,có kịch tính,có bi thương ,có vui vẻ và còn có những khoảnh khắc khiến lòng người như cuốn theo từng tình tiết của truyện.Sau khi đọc xong truyện mình cảm thấy rất may mắn khi đã mua đúng truyện hay và đúng thể loại mình yêu thích.
5
574522
2015-08-06 20:42:10
--------------------------
253571
9235
tác phẩm này thật sự rất hay .. mình đã say mê Đường thất Công Tử từ thập lý hoa đào ..vì vậy mình lại quyết tâm mua thêm tập Chẩm thượng thư này .. quả là không uổng tiền mà .. Đông Hoa mặt dày vô sỉ . Phượng Cửu thì ngây thơ nhiều khi còn bị hoang tưởng nữa chứ. Bên cạnh 2 nhân vật chính thì các nhân vật phụ cũng vô cùng đặc sắc và đáng yêu ( chỉ trừ những nữ đeo bám Đế Quân thôi !!) Nói chung là rất yêu và hay lắm đó ! Nên đọc nè
5
194144
2015-08-04 15:49:59
--------------------------
251350
9235
Lần đầu vì tò mò Đông hoa Đế quân mặt dày vô sỉ là ai nên mới mua quyển sách này. Thật sự là bị câu chuyện giữa Bông Đế quân và Phượng hồ ly làm cho bấn loạn rất nhiều. Mối tình có phần bá đạo, hài hước, nghịch ngợm của 2 người thật làm con người ta hạnh phúc theo. Nhưng vẫn có những chi tiết gợi mở sự tò mò của người đọc về quá khứ của họ. Là duyên kiếp trước hay nợ kiếp này. Hay chỉ là sự theo đuổi vô vọng của 1 người con gái
4
405363
2015-08-02 18:16:06
--------------------------
244677
9235
Mình vừa mới đọc xong tập 1 của Chẩm thượng thư, phải nói là khá cuốn hút. Giọng văn của Đường Thất vẫn rất tửng và hài hước như trong Thập lý đào hoa, quả thật cực kỳ ấn tượng. Nam nữ chính cá tính, thích ơi là thích. Nữ phụ thì không ấn tượng nhưng nam phụ kiểu như Yến Trì Ngộ với Tương Lý Manh thì thật là tuyệt vời. Cực thích phân đoạn có Tiểu Yến tráng sĩ. Mới đọc có 1 tập nên chưa có nhiều cao trào lắm, nhưng mình thấy một vài phân đoạn hơi dài dòng, Chẩm hay nhưng theo mình vẫn chưa bằng được Thập lý đào hoa!
4
31339
2015-07-28 13:11:18
--------------------------
244049
9235
TT^TT Mới tậu cuốn này về là mừng muốn khóc luôn!
Đọc xong thì cảm thấy nhất định phải khen Đường Thất Công Tử một câu: Tuyệt vời ông mặt giời rồi! Chưa kể tới mấy tác phẩm trước của Đường Thất mình cũng từng đọc qua, mình cực ki thích văn phong của tác giả. Không chỉ Dạ Hoa hay Bạch Thiển mà Phượng Cửu với Đông Hoa Đế quân cũng làm mình mê tít! 
Có nhiều người khen, nói nam chính chúng ta mặt dày như tường thành nhưng cá nhân mình cực kì thích tạo hình nhân vật ấy (Thì trước có Dạ Hoa cũng dày mặt đâu kém :]]] ) 
Nữ chính là Phượng Cửu lần này khiến mình rất ấn tượng. Vốn tưởng một Phượng Cửu có màn xuất hiện khá nhu nhược trong Tam sinh tam thế Thập lý đào hoa (Lúc biến thành phi tần hay khóc ấy) sẽ chỉ là một cô gái kiên cường thôi nhưng lúc đọc tới lúc khắc khẩu của hai người thì ôi thôi cười chết :)))))
Nói chung là mình bắt đầu để ý cốt nhân vật giống như Đông Hoa Đế quân rồi :))) 
Về phần hình thức, bìa mềm nhưng cũng vừa tay, hình như khá nặng mà cũng chất lượng, bookmark đẹp, sạch sẽ. 
5
619695
2015-07-27 22:26:11
--------------------------
243829
9235
Rất khâm phục nữ đế quân của Thanh Khâu, vì tình yêu mà có thể làm tất cả. Nàng hạ mình làm tì nữ cho chàng, xả thân mình, hi sinh bộ lông quý báu 9 đuôi duy nhất trong thiên hạ làm đồ chơi cho kẻ khác 3 năm ròng chỉ để cứu chàng. Nàng chấp nhận làm thú cưng cho chàng. Nhưng mà... có phải nàng quá ngốc hay không? Nàng đã quá dại khờ trong tình yêu của chính mình. Mà đọc cuốn này xong lại nóng lòng mua ngay quyển hạ về để theo dõi tiếp >w< Hi vọng là cái kết có hậu ^^
5
547720
2015-07-27 19:55:22
--------------------------
238590
9235
Sau khi đọc xong Thập lý đào hoa với mối tình của cô cô Bạch Thiển, ngay lập tức tôi tìm đến Chẩm thượng thư để đọc về cô cháu gái tài năng không kém cô cô của mình – Phượng Cửu. Tình yêu là gì? Là muốn xuất hiện, muốn nhìn thấy người đó mọi lúc, kể cả khi là nô tỳ, khi là thú cưng tiểu hồ ly của chàng, hay khi nàng là đế cơ Thanh Khâu đi chăng nữa, nàng luôn muốn thấy chàng, mặc kệ chàng có biết đó là nàng hay không. Tôi thật sự ấn tượng với sự kiên cường, hi sinh trong tình yêu của nàng, thật sự khiến người khác cảm động. Ngoài ra, các nhân vật khác như, Tiểu Yến, Liên Tống,… được khắc họa cũng rất độc đáo. Truyện thật sự rất hay, hài hước, nhẹ nhàng, dễ thương vô cùng. Mua được cuốn truyện này quả thật không đáng tiếc!
5
602588
2015-07-23 12:05:05
--------------------------
235070
9235
Sau Hoa tư dẫn, Đường Thất Công Tử lại tiếp tục mang đến cho độc giả một câu chuyện vô cùng thú vị, đó chính là Chẩm thượng thư. Truyện kể về Phượng Cửu và Đông Hoa Đế Quân. Mỗi lần 2 người họ gặp mặt nhau là lại đấu khẩu hặc rơi vào tình trạng vô cùng hài hước. Đông Hoa Đế Quân là nam chính mà tôi thích nhất từ trước đến nay.Chàng là vị tiên chí cao vô thượng, là chúa tể muôn loài, nhưng chàng lại có tính cách khó mà đỡ nổi : mặt dày, vô sỉ, tự luyến ,... Điểm trừ duy nhất của chàng là đã để bé Cửu phải chịu nhiều uất ức quá :) Dù vậy, đây vẫn là một truyện rất đáng đọc đấy !
5
564048
2015-07-20 20:27:44
--------------------------
229043
9235
Bìa phải nói là quá đẹp, poster cũng đẹp, thêm mình là fan của Y Xuy Ngũ Nguyệt nên yêu luôn quyển tiểu thuyết, đúng là mua về không hề làm mình thất vọng, đọc phần giới thiệu mình tưởng Đông Hoa Đế Quân là vị tôn thần cao cao tại thượng, thanh lãnh, lạnh lùng, ai ngờ hình tượng đó lại sụp đổ khi Đông Hoa lại mặt dày và đáng yêu như vậy. Tình tiết truyện diễn ra rất lo-gic, ngôn ngữ nhẹ nhàng, có cảm giác uyển chuyển, có những khúc ngôn từ rất bình thường nhưng lại làm mình nghĩ lại và cười như con điên.
5
522674
2015-07-16 13:26:59
--------------------------
228662
9235
Lúc đầu tôi không thích truyện huyền nhuyễn vì nó khá ảo không thực tế nhưng vì nghe mọi người nói hay nên mình quyết định mua. Quả thật truyện không làm mình thất vọng. Về phần bìa truyện thật sự rất đẹp, còn được tặng kèm bookmark và poster nên mình rất thích. Nhân vật Đông Hoa Đế Quân làm mình đọc cảm thấy rất mắc cười vì tính cách của ngài. Còn về phần nữ chính - Phượng Cửu mình rất thích sự kiên cường của nàng, nàng hi sinh vì tình yêu rất nhiều khiến mình rất cảm động. Kết truyện mình không thích lắm nhưng cũng miễn cưỡng xem là HE. Tóm lại đây là một quyển sách rất đáng đọc.
5
391948
2015-07-15 19:22:23
--------------------------
225245
9235
Nhìn bìa đã thấy Phượng Cửu quá chi là đẹp, quả nhiên là đệ nhất mỹ nhân có khác. 2 poster tặng kèm cũng rất tuyệt. Nội dưng truyện thì mình thấy không hay bằng thập lý đào hoa nhưng vẫn rất ok, mình thích sự kiên cường của Phượng Cửu, yêu một người suốt mấy vạn năm là một điều vô cùng khó, buông tay vì muốn chúc phúc cho người ấy lại càng khó hơn, ấy vậy mà nàng đã làm được. Mình cũng ấn tượng với sự mặt dày của Đông Hoa, trời ơi, mặt dày đến khó đỡ. Dàn nhân vật phụ như Liên Tống, Yến Trì Ngộ, Manh thiếu gia,…cũng được khắc họa rất thú vị.
5
630600
2015-07-10 01:39:57
--------------------------
219591
9235
Đọc truyện này là do có bạn giới thiệu- một bộ truyện huyễn huyễn khá là hay và hấp dẫn với nhiều tình tiết li kì. Quyển đầu tiên với bìa là nhân vật Phượng Cửu xinh đẹp và còn được tặng kèm bookmark và poster. Nhận vật Đông Hoa Đế Quân và Bạch Phượng Cửu là hai nhân vật khá dễ thương. Sau 2000 năm gặp mặt thì Cửu tỷ quyết định né mặt Đế Quân :)) nhưng ai đó siêu mặt dày là quấn không cho chị trốn. Đặc biệt hơn nữa là tình yêu rung động của 2 người, cực yêu bộ truyện này của má Thất.
5
506178
2015-07-01 17:50:26
--------------------------
215043
9235
- Có thể đây là quyển hài nhất và nam chính mặt dày nhất mình từng gặp . Tối đọc mà cười như con điên , bị chữi một trận =)) . Đọc mà thấy thượng bé Cửu của tui ghê hà toàn bị ăn hiếp , bị bắt phải nấu ăn , làm bài tập ... vân vân và mây mây . Mà có khi Hoa làm tui hơi bực vì cái thái độ mặt dày và vô tình của bản =)) 

- *Bìa đẹp , Bookmark cũng đẹp , ngoài ra còn có hai tấm poster to đẹp . Hơi buồn vì có trang bị dính nhau =))
5
609429
2015-06-25 19:48:41
--------------------------
211862
9235
Một cuốn truyện cực kì hay lúc đầu mình dược nhỏ bạn cho mượn đọc hết cuốn một thấy cực kì hay thật sự không nở xa thế là rút hầu bao lên tiki mua luôn quyển một và hai đoc xong cảm thấy rất đáng đồng tiền .
Cốt truyện hay lời văn tốt cảm thấy hư ảo phiêu phồng lúc đầu dọc hơi khó hiểu vì từ ngữ không thông dụng cho lắm lúc sau thì cảm thấy hài hức và tiếp theo là giai đoạn đau lòng nói thật mình đoc không ít truyện ngôn tình cổ trang nhưng cuốn này là cuốn hay nhất mình từng đoc làm mình rơi nhiều nước mắt nhất . Nếu các bạn đang có ý định mua thì đừng chần chừ nhé các bạn sẽ không phải thất vọng đâu mình cam đoan .
5
624207
2015-06-21 10:37:17
--------------------------
206728
9235
Nếu ai đã từng đọc qua Tam Sinh Tam Thế Thập Lý Đào Hoa thì chắc chắn sẽ không thể bỏ qua Tam Sinh Tam Thế Chẩm Thượng Thư. Ở phân đoạn Thập Lý Đào Hoa đã được giới thiệu sơ qua về chuyện tình của nàng tiểu hồ ly Phượng Cửu và chàng Đế quân lạnh lùng Đông Hoa. Khi đọc phần nay thật sự không khiến người khác thất vọng.
Đông Hoa - chàng đế quân kiêu ngạo, lạnh lùng - đã có tình cảm với nàng tiểu hồ ly Phượng Cửu ngay từ lần đầu chạm mặt. Đùa giỡn với nàng, gây ra nhiều hiểu lầm không đáng có rồi sau đó tự cảm thấy có lỗi. Yêu thầm Phượng Cửu, ghen cũng ghen thầm luôn đến khi xảy ra hậu quả không ngờ lại cuốn cả lên.
Phượng Cửu - vì tình yêu mà phải đến cung Đông Hoa làm tỳ nữ nhưng trớ trêu thay là suốt 300 năm mà Đế quân cũng chưa gặp Phượng Cửu lấy một lần. Nàng hồ ly cá tính và xinh đẹp vô tình lọt vào mắt xanh của Đông Hoa nhưng chính bản thân nàng cũng không biết. Phượng Cửu ranh ma tinh nghịch nhưng khi ở trong tình yêu lại trở thành kẻ ngây thơ, bị gieo vào đầu những suy nghĩ không giống ai của anh chàng Tiểu Yến và tin đó là sự thật.
Phần giọng văn của Đường Thất luôn gây ấn tượng mạnh với người đọc. Miêu tả giữa hiện tại đan xen với quá khứ, giọng văn có lúc dí dỏm có lúc lại đau đến xé lòng. Cách xây dựng hình tượng nhân vật khá mới mẻ đem đến cho đọc giả một cái nhìn mới không bị nhàm chán. 
Về phần quyển sách, mình rất thích phần bìa qua cách vẽ của Y Xuy Ngũ Nguyệt. Hình ảnh Phượng Cửu được dựng lên khá giống trong miêu tả của tác giả. Sách khá dày nhưng nhẹ, dễ cầm, có hương thơm dịu nhẹ chứ không hắc như những quyển sách khác. Sách được tặng kèm Bookmark và poster rất đẹp. Mình cảm thấy rất hài lòng về quyển sách cũng như nội dụng của nó.
5
424154
2015-06-10 14:40:22
--------------------------
206308
9235
Cốt truyện quả thật rất đặc sắc. Có thể vì lần đầu đọc thể loại cổ đại nên có chút ko quen với ngôn văn nghiên về hướng nội tâm như vậy, nhưng điều bất ngờ rằng thể loại cổ đại này mang đến cho người đọc một cảm giác ấm áp và ngọt ngào vô cùng. Cũng có thể vì bối cảnh tiên giới ảo mộng và văn từ mềm mại hơn chăng?
Đông Hoa quả thật ra một nam chính rất nổi trong thể loại cổ đại ngôn tình (Hình như top 5 nam thần cổ đại đã bị nam chính dưới ngòi bút Đường Thất chiếm ngôi gần hết). Nam chính tính cách rất thú vị, mới lạ.
Phượng Cửu là một nữ chính tôi rất yêu thích, cá tính rất mạnh mẽ. Cách mà cô ấy yêu Đông Hoa quả nhiên làm người ta vừa thương vừa xót. 
Nói thật thì tập 1 cảm thấy cốt truyện hơi dài vì phải nhớ lại kỉ niệm xưa, giới thiệu bối cảnh, nhân vật,.. Nhưng nhìn chung vẫn rất ổn. 
Về Đông Hoa, với tư cách là một người ko hề hay biết gì về Phượng Cửu năm xưa, quả thật muốn trách cũng ko trách được. Về Phượng Cửu, muốn trách chỉ có thể trách duyên quá mỏng mà thôi. 
Ngôn phong rất khéo léo dẫn dắt người đọc, dù nhẹ nhàng nhưng ko gây nhàm chán.
Tôi vốn là người chuộng HE, tuy cốt truyện nhìn tổng thể có hơi buồn nhưng vẫn rất ấn tượng.
5
378068
2015-06-09 12:38:11
--------------------------
206263
9235
Đọc Tam sinh tam thế thập lý đào hoa xong, mình lục tìm những truyện thuộc thể loại này và biết rằng ĐTCT còn 1 tập nữa là Tam sinh tam thế chẩm thượng thư. Thế là mình tìm và đọc luôn. Mình luôn thấy Phượng Cửu tinh nghịch, đáng yêu, trù nghệ lại còn rất giỏi, theo như ai đó trong truyện nói thì nàng cố chấp theo đuổi đoạn nhân duyên này. Đúng vậy, trải qua bao nhiêu lâu, hai người là Đông Hoa Đế Quân và Phượng Cửu vốn dĩ không có duyên nhưng cuối cùng vẫn là con người thay đổi. Tình yêu của nàng cảm động đến tận trời xanh, cho hai người được đến với nhau. Có lúc đau lòng muốn buông bỏ, có lúc muốn giữ quyết không buông... Đôi lúc đọc truyện phì cười vì tính cách của Đông Hoa, cả cục bột nhỏ nữa. Nói chung là hay.
5
431542
2015-06-09 10:52:14
--------------------------
157172
9235
Tôi vốn không thích đọc truyện huyền huyễn vì cảm thấy nó rất hư ảo,thiếu chân thực.Nhưng từ khi đọc chẩm thượng thư thì bắt đầu thấy rằng quan niệm của mình là sai hoàn toàn.Thì ra câu chuyện về thế giới tiên nhân , thần tiên,hồ li, pháp thuật cũng hay đến vậy.
Tôi khâm phục khả năng sáng tạo và trí tưởng tượng phong phú của Đường Thất công tử khi viết nên câu chuyện huyền huyễn thu hút , lôi cuốn say mê lòng người,nó đã để lại cho tôi thật nhiều cảm xúc khi nghĩ về câu chuyện này.
Tam sinh tam thế chẩm thượng thư là câu chuyện tình xúc động giữa Phượng Cửu và Đông Hoa đế quân.Một Phượng Cửu tinh ngịch,đáng yêu , xinh đẹp; bất chấp hi sinh thân thế theo đuổi tình yêu đến trăm năm, vì tình yêu với Đông Hoa mà phải trải qua nhiều đau khổ ,tủi nhục.Một vị thượng tiên cổ tài năng , trí tuệ , dung mạo , khí chất thanh cao nhưng cũng rất mực mặt dày “da mặt chỉ là thứ ngoài thân không cần xem trọng”.Hai con người không quá đối lập nhưng lại hợp nhau đến kì lạ,thu hút nhau, bổ sung hoàn chỉnh cho nhau.
Cấu trúc truyện mạch lạc,rõ ràng, tình tiết nhẹ nhàng có, kịch tính nguy hiểm cũng có, đôi lúc lại mang đậm chất hài hước,vui vẻ.Đọc truyện nhiều lúc cảm thấy duyên phận sao mỏng manh vô tình quá. Cơ hội cho họ gặp gỡ nhau nhưng duyện phận không để họ nhận ra nhau,chỉ một chút nữa thôi là hai nhân vật có thể đến với nhau nhưng biến cố xảy ra lại đẩy hai người họ về lúc ban đầu.Cũng thật may là cuối cùng tình yêu chân thành đã giúp Phượng Cửu và Đông hoa vượt bao trắc trở để nắm tay nhau hạnh phúc đến cuối đời.
Mỗi người một cách nghĩ về câu chuyện, cá nhân tôi cho rằng đây là một câu chuyện hay rất đáng để đọc.
5
454196
2015-02-07 21:08:56
--------------------------
119258
9235
Đã được "kinh" qua tác phẩm trước trong hệ liệt "Tam sinh tam thế" là "Thập lí đào hoa" của chị Thất và cảm thấy khá thích tác phẩm đó nên cũng không ngần ngại khi quyết định mua tiếp phần tiếp theo của cả bộ. Nói chung đối với tôi những truyện huyền huyễn của chị cũng chỉ ở mức bình thường, không có gì đặc sắc mấy cả, nhưng vì được PR và tung hô quá nhiều khiến tôi cũng cảm thấy hiếu kì nên mới mua để đọc thử.
Về phần bìa truyện: ok, không có gì phải chê bai cả, họa sĩ Y Xuy Ngũ Xuyết phải nói là trên cả tuyệt vời, bạn tôi khi nhìn thấy bìa sách cũng phải thốt lên: cái bà đóng vai này chắc đẹp lắm nhỉ ?! (vâng, nó tưởng truyện đã được chuyển thể thành phim ạ)  
Về phần dịch: Nguyễn Thành Phước là một cái tên, tôi nghĩ, là rất xa lạ không những với tôi mà với hầu hết các độc giả ngôn tình. Thường thì tôi không thích các dịch giả là nam dịch truyện ngôn tình cho lắm. Lí do thì tôi cũng không biết nói sao, chỉ cảm thấy hơi không phù hợp. Và tôi cũng rất dị ứng với cách xưng hô "chàng-em", tại sao không phải là "chàng-thiếp" chứ, dịch nửa cổ đại nửa hiện đại làm tôi không quen và cũng có phần hơi sến nữa :( Hạt sạn lớn nhất trong phần này chính là chữ LOGIC!!! Vâng, đây là một từ cộp mác hiện đại 100% đấy, và làm thế quái nào mà nó lại xuất hiện trong tác phẩm cổ trang như này vậy???
Về nội dung: tôi thấy hơi nản, có lẽ là không thích bằng "Thập lí đào hoa", một phần cũng do phần dịch làm tôi bị mất hứng, và một phần là mạch truyện hơi dài nên làm tôi dễ nản :( Tuy nhiên, có 2 nhân vật làm tôi ấn tượng nhất (tính tới hết tập 1) là Cục bột nhỏ và Đông Bông (tức Đông Hoa đấy ạ) :) cả 2 đều có những phát ngôn rất độc đáo, một người thì nghĩ sao nói vậy, đáng yêu kinh khủng, một người thì câu nào nói ra bá đạo câu đó, chẳng ai đỡ nỗi hết!
Túm lại, ngoài phần dịch thì tất cả những điểm còn lại tôi đều ưng, hi vọng Quảng Văn sẽ chú ý về phần dịch nhiều hơn để rút kinh nghiệm cho những tác phẩm sau (đặc biệt là cổ đại, nhất là mảng huyền huyễn)
3
251042
2014-08-03 19:51:42
--------------------------
103983
9235
Truyện hay!
Không có quá nhiều tình tiết lắt léo đau khổ khiến người ta mệt mỏi, trái lại truyện hài hước và đáng yêu. Trí tưởng tượng của tác giả vô cùng phong phú, đưa người đọc đến một thế giới thần tiên với nhiều điều mới mẻ và thú vị.
Nhưng khi đọc đến đoạn kết lại rất xúc động. Và sau khi đọc xong, mình vô cùng hối hận vì trước đó hoàn toàn không biết đây chỉ là phần 1. Nếu biết chắc chắn mình đợi có phần 2 rồi mới đọc để không phải khó chịu đau khổ thế này.
Điều mình không thích ở quyển sách này chỉ là dòng chữ “sách gối đầu giường” ở trang bìa. Nếu có dòng chữ này thì nội dung quyển sách hoàn toàn chưa xứng đáng. Bỏ qua một chút khó chịu đó thì đây quả thực là quyển truyện ngôn tình thú vị đáng đọc.
Đợi phần 2.
4
181266
2014-01-06 19:07:57
--------------------------
77997
9235
1. Nghe danh cụ Đông Hoa đã lâu, đến nay vẫn chưa được gặp mặt, mong sớm có sách :3
2. Bìa đẹp thật đấy, nhìn mà thấy thích :D truyện của tác giả  Đương Thất Công Tử  thì khỏi phải chê.
3. Đọc phần giới thiệu thật hấp dẫn, nghe qua có vẻ Phượng Cửu rất thâm tình, bỏ cái chức vị nữ vương Thanh Khâu để hạ mình vào làm nữ tỳ trong phủ của Đông Hoa, chịu đựng mấy trăm năm cực khổ, khoảng cách gần nhất chỉ là nàng quét dọn bên này ao, chàng câu cá bên kia ao rồi sau đó chỉ biết lặng lẽ bỏ đi trước ngày thành hôn của chàng với người con gái khác. Nghe qua có vẻ ngược???
4. Nghe nói lần xuất bản trước có vẻ nhiều lỗi, mong lần tái bản này khắc phục được.
5. Mong sớm có cả tập 2 :3

5
122008
2013-05-30 17:23:45
--------------------------
77689
9235
Chờ "Chẩm" từng ngày, nhưng thực sự đã khá thất vọng khi nhận sách.

Không nói thêm về lỗi xuất bản của "Chẩm" nữa, cái tôi chờ giờ đây, thực sự là một lần nữa được ôm "Chẩm" trong tay, gối "Chẩm" nơi đầu giường để mối tình si ngốc nhưng mãnh liệt của Phượng tỷ và cái sự không thèm nói lý lẽ của Đông Hoa ru tôi vào giấc ngủ.

Quảng Văn hứa với độc giả "Chẩm" mới có poster mới, bookmark mới, thực sự rất chờ. Hy vọng Quảng Văn không làm độc giả thất vọng lần nữa.

Chờ ngày sách về nhà.
4
23329
2013-05-29 09:46:29
--------------------------
75051
9235
tớ đã đọc không biết bao nhiêu lần rồi mà lúc nào đọc xong cũng tức hết!! huhu... rất mong chờ tập 2...khi nào mới có nhỉ?... 
đọc cuốn sách này giống như là đi du ngoạn chốn tiên cảnh vậy,  ngoài thích tích cách của nhân ra, tớ còn thích những cái tên tiên cảnh, thánh địa  độc đáo ở khắp tứ  hải bát hoang. thật khâm phục chị Thất có thể đặt ra những cái tên độc đáo , đúng chất tiên như vậy=]]!
mỗi lần đọc đến đoạn tả cảnh của chị Thất, tớ lại tưởng tượng ra một bứa tranh chốn tiên cảnh thật thơ mộng và huyền bí, đặc biệt dường như nơi nào có Đông Hoa Đế Quân dều được miêu tả thật kỉ vì đây là nhân vật nổi tiếng lạnh lùng thờ ơ với những chuyện xung quanh nên những nơi được y chọn để đọc sách, câu cá...đều rất yên tỉnh, đẹp đẽ, trong lành, không vướng chút ồn ào,... mình quả thực rất thích những đoạn tả cảnh như thế! truyện được dịch rất hay! mong là sớm có tập 2!! hic
5
85174
2013-05-16 17:03:24
--------------------------
72173
9235
Mình rất thích tác giả Đường Thất Công Tử nên các tác phẩm của chị được xuất bản mình đều tìm mua cho bằng được và Chẩm Thượng Thư cũng không ngoại lệ. Chẩm thương thư đã không làm mình thất vọng, đây thật sự là một câu chuyện tuyệt vời. Qua ngòi bút tài năng của tác giả đã mang lại cho câu chuyện sức hút lạ kì, đan xen giữa những tình tiết dí dỏm, dễ thương là một mối tình đơn phương đến tuyệt vọng của Phượng Cửu. Có thể Đông Hoa đế quân chỉ tiện tay cứu nàng 1 mạng nhưng tình cảm nàng dành cho chàng đã vượt xa tất cả nàng chấp nhận từ bỏ tất cả, theo đuổi tình yêu của mình: làm tì nữ, làm 1 tiểu hồ ly bên cạnh người nàng yêu, vì chàng, nàng sẵn sàng nguyện ý không toan tính. Tình yêu ấy làm mình vô cùng thán phục và cảm động
Mình đang rất nóng lòng chờ ngày tập 2 được xuất bản

5
79617
2013-04-30 18:12:39
--------------------------
70314
9235
Lúc đầu mình đọc thì mình nắm bắt rất là mơ hồ vì lúc đó mình chưa đọc xong cuốn Tam Sinh Tam Thế - Thập Lý Đào Hoa, và rồi cũng tự nhủ cho qua chuyện
Và câu chuyện về sau đã được tác giả miêu tả rõ ràng, nhưng trong rõ ràng đó có 1 cái gì đó rất là mơ hồ từ hiện tại đến quá khứ, rồi từ quá khứ đến hiện tại. Nhưng không vì thế mà câu chuyện lại mất đi vẻ đẹp vốn có của nó, trong sáng từ tốn và không kém phần hồi hợp hấp dẫn
Một PC rất hồn nhiên vui vẻ hoạt bát lại nhưng lại có 1 mối tình rất là đáng quý. PC đã hy sinh tình yêu bằng mọi cách để mang lại hạnh phúc cho riêng mình, mặc dù không ít gian nan nhưng cuối cùng cô cũng không từ bỏ
Một thượng thần tôn quý nhất trên Cửu Trùng Thiên, có một tính cách rất quái lạ bề ngoài mặc dù điềm tĩnh, chín chắn nhưng lại có một cái miệng rất là độc tài, vì cái miệng này mà không biết bao nhiêu độc giả chết ngất vì ĐH
Hai người tính cách hoàn toàn trái ngược nhưng lại hòa hợp như không thể hòa hợp hơn, mình rất thích cặp này vì nó có 1 hương vị rất lạ. Rất lạ
5
102719
2013-04-20 10:43:37
--------------------------
67807
9235
  Truyện này thật sự rất hay.....sau khi đọc tam sinh tam thế thập lí đào hoa xong...đọc sang quyển này thì hâm mộ đường thất công tử hơn....cái lối viết làm ta đọc không thể rời mắt....truyện với nôi dung lôi cuốn hấp dẫn người đọc, các tình tiết đan xen nhau một cách hợp tình hợp lí, tạo được một không gian truyên hài hước vui vẻ nhưng không kém phần hấp dẫn.Tuy không thực sự hay như tam sinh tam thế thập lí đào hoa nhưng đọc tác phẩm này bạn sẽ không thấy thất vọng.....đang rất mong chờ tập 2.
3
23984
2013-04-08 22:25:45
--------------------------
67725
9235
Chẩm thương thư đã để lại cho tôi rất nhiều cảm xúc. Qua ngòi bút tài năng của tác giả đã mang lại cho câu chuyện sức hút lạ kì, đan xen giữa những tình tiết dí dỏm, dễ thương là một mối tình si gần như tuyệt vọng của nữ chính. Có thể Đông Hoa đế quân chỉ tiện tay cứu nàng 1 mạng nhưng tình cảm nàng dành cho y đã vượt xa tất cả. Dù là 1 đế cơ Thanh Khâu, nhưng Phượng Cửu đã từ bỏ tất cả, theo đuổi tình yêu của mình: làm tì nữ, làm 1 tiểu hồ ly bên cạnh người nàng yêu, vì chàng, nàng sẵn sàng đánh đổi tất cả. Tình yêu ấy làm tôi vô cùng thán phục và cảm động. Khi nàng chấp nhận buông xuống tình cảm này thì cũng là lúc Đông Hoa tìm đến, không ngừng xuất hiện trong cuộc sống của nàng. Khi Đông Hoa biết được sự thật, chạy đến cứu Phương Cửu, tôi thật sự rất chờ mong, chờ mong tiếp tập 2. Đó hứa hẹn sẽ là một câu chuyện vô cùng hấp dẫn, hé mở về khoảng thời gian 2 nhân vật chuyển kiếp ở phàm trần mà trong Tam sinh tam thế thập lý đào hoa có đề cập đến. Mong là tình yêu của nàng hồ ly sẽ được báo đáp.
4
79608
2013-04-08 17:27:17
--------------------------
65800
9235
- Ưu điểm của truyện:
+ Trang trí bìa đẹp kèm tranh minh họa -> kích thích thị giác tránh gây buồn ngủ khi đọc ^^!!!.
+ cốt truyện mới mẻ, độc đáo nhiều tình tiết hài hước thú vị.
+ Có nhiều ngữ cảnh lãng mạng, và đặc biệt không miêu tả H văn ( có 1 số tác giả ngôn tình Trung Quốc rất thích miêu tả những cảnh đó - mình thấy rất phàm tục, chiêu câu tiền).
+ Văn phong nhẹ nhàng dễ hiểu.
+Nhân vật có tính cách rất đặc biệt, rất thú vị khác xa tính cách của hầu hết các ngôn tình mình đã đọc.
+ Có kết nối với bộ truyện "tam sinh tam thế thập lý đào hoa". Cặp đôi này vốn dĩ đã rất được độc giả quan tâm ở bộ truyên trên. Nay lại có cơ hội để hiểu và biết thêm về những nhân vật nầy.
-Nhược điễm:
+ Có nhiều lỗi chính tả.
+ Bản của người dịch có 1 số chỗ không đúng với nội dung mà tác giả muốn đề cập tới.
+ Mà nhà xuất bản cũng mới chỉ đưa ra thị trường quyển 1 thôi. làm người đọc chờ mòn mỏi luôn, tận năm sau mới xuất bản quyển 2.
=> Mặc dù có không ít lỗi sai sót nhưng nhìn tổng thể truyện rất hay, đáng bỏ đồng tiền bát gạo để đọc.
4
94424
2013-03-27 19:02:03
--------------------------
65396
9235
mình đag rất mog chờ tập 2 :(
mà mãi chưa có :(((((((((
đây là một trog số cuốn sách mình rất hài lòg, bìa sách rất đẹp, giấy mịn và nhẹ vô cùg
đọc truyện cảm thấy rất khâm phục Phượg Cửu, dám yêu và đi tìm tình yêu của ình, nhưg đôi lúc cũg trách thầm sao nàg ta ngốc quá, Đôg Hoa lạnh lùg như vậy, đem nàg ra đùa giỡn, vậy mà nàg vẫn cứ si tình
nói cho cùg Phượg Cửu cũg là con gái, lại còn qá trẻ, sao tránh được nhữg ngốc ngếch vụg về
Đông Hoa lạnh lùg hay bỡn cợt nhưg tâm địa tốt, đã nhiều lần giúp Phượg Cửu, tuy có thể k nhận ra tình cảm Phượg Cửu dành cho mình và có khi cũg chẳg í thức đc tình cảm mình dành cho Phượg Cửu nhưg k thể k nhắc tới nhữg lúc quan tâm và yêu chiều nàg
một mối tình lạ lùg và đág yêu
ngoài ra nhữg tuyến nhân vật fụ được thêm thắt vừa fải, mạnh truyện lôi cuốn và nhẹ nhàg, k f chỉ loanh quanh ch tình yêu của 2 người mà còn lồg vào rất nhiều câu trích dẫn hay, nhữg yếu tố hài hước cũg được đan xen rất tinh tế
mặc dù đến cuối truyện Đôg Hoa mới nhận ra Phượg Cửu là con hồ ly mình mất lúc trước nhưg 2 người vẫn chưa đến đc với nhau :( buồn gê gớm :(
5
98955
2013-03-25 17:29:14
--------------------------
64491
9235
Đông Hoa vô phần biến thái và chai mặt.
Phượng Cửu ngốc mà si tình.
Họ là 1 cặp đôi khiến tôi ngưỡng mộ. họ rất hợp nhau, tạo thành một luồn sinh khí trong các tác phẩm của Đường Thất Công tử.
Có lẽ câu truyện của Chị Bảy  sẽ không chỉ đơn thuần là vui vẻ tinh nghịch. Nhất là khi Chẩm Thượng Thư có đến tận 2 phần. Sẽ có những đoạn ngược tâm ngốn nhiều nước mắt. 
Nhưng tôi thực sự rất mong chờ nó sớm đến đc tay mình, để được gối đầu giường!!!
Rất Cảm ơn Quảng Văn và Tiki~~~
2
77849
2013-03-20 12:48:22
--------------------------
63414
9235
Đọc cuốn này mình cảm thấy rất thích ,do tính cách của của các nhân vật trong phần này khá rõ,cá tính.Đặc biết là trong phần này mình cực thíc A Ly nha ,phần này A Ly dễ thương hơn phần trước nhìu nhìu nhìu.Công với Đông Hoa vô phần biến thái và chai mặt.
Nhưng mình không hiễu lắm là tại sao Đông Hoa thích Phượng Cửu nhưng tại sao luôn làm tổn thương nàng ?
Cũng như khi nàng là con hồ ly đỏ ,không phải Đông Hoa rất quý nó hay sao mà là lại nhốt nó trong căn phòng với thời gian rất lâu,rồi khi Phượng Cửu đi mất thì lại bỏ hôn lễ đi tìm .
Mình thật sự không hiểu rốt cuộc là nhân vật Đông Hoa đang suy nghĩ cái gì trong đầu,làm mình cang mong chờ được đọc phần hai hơn.Mình thích cuốn này quá .

4
45594
2013-03-15 15:35:54
--------------------------
63190
9235
Mình yêu Đường Thất Công Tử, mình cuồng Tam Sinh Tam Thế nhưng mình rất thất vọng khi đọc bản dịch của dịch giả Phước trong cuốn tiểu thuyết này. Mình từng đọc bản dịch của bạn Cloudy trên mạng, rất hay. "Bom tấn" của mình qua tay QV lại thành "bom xịt" là sao đây =.=". Mình tán thành ý kiến của ban Yu Min 2 tay 2 chân luôn, cuốn sách này có hình thức rất hoàn hảo, bìa sách cực đẹp, in trên giấy Phần Lan, sách còn được tặng kèm poster và bookmark nhưng nội dung thì đúng là pó tay, một số đoạn dịch thô mình ngồi đọc hoài còn chưa nghiệm ra được nghĩa nó là gì, một số đoạn bị dịch sai hẳn về mặt ý nghĩa, chưa kể đến việc cuốn sách này đầy lỗi đánh máy, lỗi sắp chữ, lần này QV biên tập đúng thiệt ẩu quá. Cầm trên tay cuốn sách cả trăm nghìn mà đầy lỗi ra như thế mình đúng là có chút ức chế >"<. Mong rằng QV sẽ rút kinh nghiệm khi xuất bản quyển hạ, nhưng dù sao thì cũng cám ơn QV và Tiki đã mang Chẩm đến với mọi người, mình đang mong ngóng Chẩm hạ ra mắt ^^
3
42247
2013-03-13 22:51:02
--------------------------
62817
9235
Mình nói trước đây chỉ là quan điểm riêng của mình thôi nhé mọi người! Sau khi đọc "Chẩm" xong mình thấy cuốn sách này không như mình mong đợi, hay nói cách khác là mình thấy thất vọng. Về mặt hình thức thì khỏi phải bàn cãi, nó rất tuyệt vời nhưng về mặt nội dung và chất lượng thì đúng là tỷ lệ nghịch với hình thức. Mình từng kỳ vọng vào cuốn này, hơn nữa nó còn do cô Phước dịch ra nên mình thực sự mong chờ ngày rờ được "em" ấy nhưng khi mua về đọc hết thì mình thấy hụt hẫng ghê. Mình không biết có phải do QV gấp rút xuất bản cuốn này hay không mà biên tập cẩu thả quá đi mất, lỗi chính tả thì đầy ra, một số đoạn dịch còn bị sai lệch ý nghĩa, mình nghĩ thế vì mình đã từng đọc qua convert, cách xưng hô thì loạn xà ngầu và có vẻ không phù hợp với hoàn cảnh của nhân vật =.=". Cô Phước đã gây ấn tượng mạnh với mình khi dịch "Hoa tư dẫn" nhưng lần này khi cô dịch văn phong không còn hay và cuốn hút nữa, có lẽ mình thích cách bạn Cloudy dịch tác phẩm này hơn >"<. Hy vọng sang quyển hạ QV rút kinh nghiệm để cho ra đời tác phẩm chất lượng hơn, vì "Chẩm" là "siêu phẩm bom tấn" đối với mình nên mình muốn nó hoàn hảo chứ không phải lắm sạn như thế này!
3
42247
2013-03-11 21:45:06
--------------------------
62671
9235
Mình thích truyện của Đường Thất Công Tử bắt đầu từ lúc đọc Tam Sinh Tam Thế Thập Lý Đào Hoa, đọc xong không những rất thích cặp đôi Bạch Thiển - Dạ Hoa mà còn không ngừng tò mò về câu chuyện dang dở của nàng Phượng Cửu vì báo ân Đông Hoa mà năm lần bảy lượt cùng chàng lịch kiếp ở nhân gian. Không ngờ tác giả thật sự viết tiếp Chẩm Thượng Thư kể tiếp mối tình sâu sắc của Phượng Cửu đối với Đông Hoa. Khác với Thập Lý Đào Hoa, mối tình trong Chẩm Thượng Thư không ủy khuất, trải sóng gió tan tan hợp hợp đến kinh thiên mà có chút ngây ngô, trong sáng đúng chất Phượng Cửu, lại có chút phúc hắc, gian xảo của Đông Hoa. Đọc đến những đoạn đối đáp của chàng-nàng là lại không nhịn được cười. Dù đến cuối truyện Phượng Cửu và Đông Hoa vẫn chưa hiểu rõ tấm lòng của đối phương nhưng tin rằng "những kẻ yêu nhau cuối cùng vẫn đến được với nhau". Rất mong chờ ở quyển 2 của Chẩm Thượng Thư :)
4
64263
2013-03-10 19:03:37
--------------------------
62660
9235
Tình yêu, có lẽ là thứ làm con người ta lúc đắm say lúc ưu tư hay ngàn nổi phiền muộn. Mối tình Phượng Cửu và Đông Hoa cũng không ngoại lệ. 
Chàng và nàng, hai con người tính khí hết sức trẻ con, luôn thích đùa tếu. Nhưng để đến được tình yêu ấy. Nàng đã trải qua hai ngàn năm trồng si và đợi chàng, dẫu bất biến gì xảy ra.
"Thời gian như nước chảy, tính ra cũng hai ngàn bảy trăm năm, có quá nhiều chuyện xảy ra trong quãng đời dài dặc đó".
Có chuyện còn nhớ, có chuyện đã dĩ vãng nhưng lại vẫn nhớ. Những tình tiết ấy luôn được tác giả Đường Thất triển khai mạnh. Bởi rằng, yêu là phải sắc sâu trong tim. Đông Hoa có thể quên đi tình yêu với Phượng Cửu, nhưng mảnh kí ức trong tim sẽ lại gắn kết và nối tiếp tình yêu của Đông Hoa và tiểu Hồ ly đỏ ngày nào.
Giọng văn của tác giả hết sức trang nhã, mượt mà làm tăng thêm nét mơ ảo cho tác phẩm. Một cốt truyện đặc biệt.
Tuy nhiên, điểm trừ cho gáy sách, nó quá yếu nên khi xem cứ quẹo qua quẹo lại.
4
8802
2013-03-10 18:01:06
--------------------------
62385
9235
Ngay khi vửa đọc xong Tam Sinh Tam Thế- Thập Lí Đào Hoa tôi đã mong chờ chuyện tình giữa Đông Hoa Đế quân và Bạch Cửu. Thương cho sự chung tình mòn mỏi của Bạch Cửu, nhưng khi đến cuối truyện mới ngỡ ngàng nhận ra tấm chân tình của Đông Hoa. Thì ra chàng không vô tình như mình đã nghĩ. Kết thúc Thập Lí Đào Hoa, người đọc cảm thấy xót xa cho Dạ Hoa và thương cho tấm lòng chàng bao nhiêu thì đến Chẩm Thượng Thư cũng mong ngóng Đường THất giải oan cho Đông Hoa bấy nhiêu
5
37529
2013-03-08 21:57:19
--------------------------
62344
9235
Tôi chưa từng đọc cuốn tiểu thuyết nào do Đương Thất Công Tử viết cả nhưng khi vô tình đọc được đoạn tóm tắt truyện Tam sinh tam thế- Chẩm thượng thư do tiki đăng tải trên facebook thì bắt đầu đâm ra thích. Truyện lấy bối cảnh cổ xưa nhưng tình tiết truyện vẫn rất hấp dẫn. Một cô gái mạnh mẽ, tinh nghịch đã bỏ cả  lòng tự trọng của một nữ vương Thanh Khâu để làm tỳ nữ cho Đông Hoa, Phượng Cửu mang cho tôi cảm giác nàng thật mạnh mẽ, quyết tâm, tôi  yêu nàng vì sự ngốc nghếch trong tình yêu của nàng, yêu vì sự lựa chọn từ bỏ tất cả để được bên người mình yêu của Phượng Cửu.
Rất mong sẽ có tập 2 sớm.
5
100664
2013-03-08 16:34:16
--------------------------
61369
9235
Một cuốn sách hay!
Văn của Đường thất công tử nhẹ nhàng, vui vẻ, ấm áp khá hợp với sở thích của mình. Tình tiết truyện hợp lí, nhiều yếu tố gây cười nhưng cũng rất cảm động. Một Phượng Cửu đế cơ trẻ tuổi nhưng chín chắn, nếm trải nhiều điều - một Đông Hoa đế quân bề ngoài lạnh lùng, thờ ơ nhưng thật rất rất BT làm khổ Phượng Cửu nhiều phen. Giữa họ là một chuyện tình đẹp, hài hước, thú vị mà không thể bỏ qua.

Sự thật, trong số các nam chính của Chị Bảy thì mình thích Dạ Hoa nhất nhưng mà ngưỡng mộ Đông Hoa BT, dày mặt nhất  ^ ^! 

Đây là một cuốn truyện đáng để đọc nếu bạn thích sự nhẹ nhàng, vui tươi, không ngược hại tim - không sủng hại não.
Rất mong nxb sớm phát hành quyển hạ để mình có thể gom cả bộ ^^
5
18171
2013-03-01 21:33:08
--------------------------
61252
9235
Tôi đã chờ cuốn sách này lâu lắm rồi, lúc trước đọc Tam sinh tam thế - Thập lí đào hoa đã thích cặp Đông Hoa - Phượng Cửu này lắm lắm luôn. Đông Hoa là một đế quân với vẻ ngoài lạnh lùng, nhưng thực chất tính tình lại rất trẻ con và đáng yêu, Phượng Cửu thì đáng yêu không bàn cãi luôn, một lần được Đông Hoa cứu sống, cô đã đem lòng yêu Đông Hoa và mang mối tình đơn phương theo bên mình suốt một thời gian rất lâu nhưng khi cô quyết định từ bỏ đoạn tình này thì Đông Hoa lại đuổi theo cô, sau Dạ Hoa và Bạch Thiển thì mình thích cặp này trong các cặp của Đường Thất nhất, truyện của Đường Thất thì không có gì phải lăn tăn về nội dung, nếu bạn nào đọc được những tác phẩm trước thì biết. 
5
82786
2013-03-01 10:02:42
--------------------------
60898
9235
Khi được biết Tam sinh tam thế của Thất Thất sắp ra mắt tại Việt Nam, tôi đã ngóng trông từ lâu. Bởi, những câu chuyện tình yêu huyền huyễn của Thất Thất được mô tả qua những trng văn của Thất Thất đều rất sinh đông.
Bằng giọng văn tưng tửng và cách mở màn đầy ấn tượng của chị đã làm " hấp dẫn" những độc già chúng ta qua những trang văn đầu tiên của chuyện. Câu chuyện mang đến những mối tình  rất đỗi đời thường lồng ghép vào một trong chốn thần tiên ảo mộng với những trật tự, cung quy khắc nghiệt. Nếu ai đã từng yêu thích qua mối của Dạ Hoa- Phượng Cửu thì không thể bỏ lỡ mối tình của Đông Hoa - Phượng Cửu. Và, nếu ai đã từng ấn tượng với một Đông Hoa lạnh lùng như tượng đá không có cảm xúc gì trong tình yêu và một Phượng Cửu ngây ngốc trong tình cảm thì sẽ đặc biệt thú vị với " sự tiến tới " của một vi đế quân biến thái, mặt dày và vô cùng vô sĩ khi đứng trước một vị nữ quân đã trưởng thành và chín chắn hơn trong tình cảm.
Đã ngóng được phần Thượng, hi vọng phần Hạ ra mắt trong một vài tháng  sắp tới!
4
97672
2013-02-26 18:56:25
--------------------------
60376
9235
Tôi thích Giọng văn của Đường thất công tử từ khi đọc được Tam sinh tam thế- Thập Lí Đào Hoa 
Trong bộ Thập Lý Đào Hoa, cặp đôi Đông Hoa - Phượng Cửu khiến tôi thấy rất tò mò về tình cảm của họ 
Mới đầu tôi có cảm giác như Đông Hoa Đế Quân sẽ là 1 vị Đế Quân cương nghị, có nét thâm trầm như Dạ Hoa hoặc nếu không cũng là 1 người đàn ông sống vì nguyên tắc, kiệm lời 
Nhưng khi đọc được vài trích đoạn trên mạng thì tôi đã thay đổi hoàn toàn suy nghĩ
Đông Hoa đáng yêu hơn những gì tôi tưởng tượng 
Chàng như 1 đứa trẻ :))
Đặc biệt là khi xem 1 vài trang trong cuốn Artbook Tam sinh Tam thế- Thập Lí Đào Hoa có nói đến Đông Hoa thì tôi lại càng thích thú với Vị Đế Quân đáng yêu này :))

Có lẽ câu truyện của Đường Thất Công Tử sẽ không chỉ đơn thuần là đáng yêu, tinh nghịch. Nhất là khi Chẩm Thượng Thư có đến tận 2 phần. Sẽ có những đoạn ngược tâm ngốn nhiều nước mắt. Nhưng tôi thực sự rất mong chờ nó sớm được xuất bản 
Cảm ơn Quảng Văn và Tiki rất nhiều :)
5
48361
2013-02-22 20:20:48
--------------------------
60363
9235
Mình đọc quyển này sau khi đã đọc Tam Sinh Tam Thế Thập Lý Đào Hoa.

Tiếp nối với câu chuyện của Bạch Thiển và Dạ Hoa là câu chuyên về cô cháu gái Phượng Cửu sắc nước hương trời không thua kém gì cô cô của mình. Nếu Bạch Thiển có nét đẹp dịu dàng đằm thắm thì Bạch Phượng Cửu chỉ khi xuất hiện trước mặt chúng tiên mới khoác lên cho mình cái vỏ dịu dàng, còn sau lưng thì nàng nghịch như quỷ. Nhưng nàng liên tục thất thố trước mặt Đông Hoa, con người mà nàng thầm thương trộm nhớ, giờ đã quyết tâm từ bỏ.

Ban đầu truyện vào rất là hài, rất là hấp dẫn, cái bản tính hiếu động của Phượng Cửu làm nàng trở nên rất sinh động trong mắt người đọc. Nhưng đến nửa sau thì thoang thoáng chút buồn. Nhưng có lẽ câu chuyện này không buồn được. Cứ thấy thoáng buồn thế thôi chứ hài thì nó vẫn hài, vì bản tính Phượng Cửu là thế rồi.

Mình thích Đông Hoa trong truyện này. Chàng không để ý ai thì thôi, chứ đã để ý rồi thì nắm còn chặt hơn cả ngũ trảo của Phật Tổ. Không dịu dàng thì thôi chứ dịu dàng là chảy-cả-nước!

Rất nhẹ nhàng, và có lẽ không ngược như Thập Lý Đào Hoa, theo mình thì là vậy!
4
19107
2013-02-22 19:31:29
--------------------------
60353
9235
Thế giới thần tiên qua lời văn của Chị Bảy làm cho người đọc có một cái nhìn khác về cuộc sống nơi đó. Nó không còn chỉ là chốn thoát tục như những nhận định trước đây, mà nó bao gồm cả yêu hận tình thù, có trách nhiệm đối với cuộc sống của mình, của nhân sinh. Có vòng luân hồi, có nhân quả,... 
Có lẽ nếu là những mối tình phàm nhân bình thường thì sẽ dễ gây nhàm chán cho người đọc. Những cuộc tình lãng mạn thông qua thế giới thần tiên đã mang đến một khái niệm mới mẻ về nơi mà con người mơ ước ấy. Ở đó, không chỉ có giao du ngắm cảnh, mà còn có trải qua quá trình tu luyện công phu, khắc khổ, nếu không vượt qua được thì mãi mãi bị hủy diệt. Không có gì là dễ dàng và tự đến với mình cả, chỉ khi bản thân cố gắng hết sức thì kết quả mới mỹ mãn được, dù đó là thân tiên hay con người. 
Một cách nhìn mới mà không thể bỏ qua về thế giới thần tiên.

5
63376
2013-02-22 18:38:40
--------------------------
60315
9235
Mình rất thích Đường Thất công tử và các tác phẩm của cô, lúc trước đọc Thập lí đào hoa có nhắc đến cặp đôi Đông Hoa và Phượng Cửu này, quả thật rất thú vị. 

Trong artbook cũng có đề cập đến, thật sự mình thấy Đông Hoa rất đặc biệt, có nhiều điểm khác biệt hơn những nam chính khác. Phượng Cửu thì rất trẻ con nhưng cũng rất đáng yêu. Nhìn ở góc độ nào họ cũng rất hợp nhau, tạo thành một luồn sinh khí trong các tác phẩm của Đường Thất Công tử.

Phải công nhận là bìa sách rất đẹp, màu sắc cũng đơn giản mộc mạc. Nói chung là thích từ ngoài vào trong. 

Hơn nữa Nguyễn Thành Phước dịch văn rất mượt, hấp dẫn, nói chung là không làm mình thất vọng ở các tác phẩm trước nên lần này để dịch giả này dịch bộ Chẩm thượng thư thì mình không có gì để bàn cãi, tóm lại là tán thành hai tay đi.

Dù bây giờ chỉ mới có quyển 1 nhưng cũng xem như là không bỏ công chờ mong bấy lâu nay, mong rằng sẽ sớm được đọc quyển 2. 
4
55514
2013-02-22 13:32:55
--------------------------
59378
9235
Biết về "Tam sinh tam thế Chẩm thượng thư" sau cuốn "Thập lý đào hoa", tôi đã ngóng chờ rất lâu để được gặp Đông Hoa Đế Quân và Phượng Cửu. Tôi đã tìm đọc bản truyện edit "Chẩm Thượng Thư" của CloudyLin, tôi đã say mê Đông Hoa mặt dày, tôi đã yêu Phượng Cửu ngốc mà si tình. Nhưng dịch giả dừng edit truyện vì lý do bản quyền, tôi đã tìm đọc cả những bản convert cho "đã cơn nghiền" để đợi ngày ra sách.

Ngày ấy cuối cùng cũng đến. Phượng Cửu lên bìa sách, bức hình này đã xem qua nhiều lần nhưng khi nó lên bìa, cảm xúc của tôi khác hẳn, ngạo khí của vị Đế Cơ cho tôi cảm giác hồi hộp, ánh mắt đượm một nỗi nhớ đậm đặc lại cho tôi sự run rẩy.

Chờ ngày được ôm "Đông-Phượng" trong lòng, chờ ngày được "gối đầu giường" bằng "Sách gối đầu giường" của chị Thất.

Và chờ đợi hơn nữa, ngày "Chẩm" hoàn cả bộ.

4
23329
2013-02-13 19:46:06
--------------------------
