571753
9263
Sách rất hay và ý nghĩa cho mỗi người trong cuộc sống này
5
5125156
2017-04-12 22:28:19
--------------------------
566069
9263
Qúa tuyệt vời
Cuốn sách viết theo kiểu đối thoại cảu tác giả với con quỷ nên rất lôi cuốn hấp dãn và dễ hiểu( tuy rằng phần đầu khá khó hiểu cần phải kiên trì đọc hết)
Tác giả đã cho ta thấy một số khía cạnh của cuộc sống mà ta cho rằng nó tốt đẹp nhưng có thực sự như vậy hay không
5
2136465
2017-04-06 16:25:05
--------------------------
558749
9263
Không phải ai cũng biết, trong mình luôn có hình bóng của một con quỷ dữ. Thật tuyệt vời Napoleon Hill đã cho chúng ta thấy được bóng dáng, hình ảnh cũng như những thứ mà con quỷ đang hàng ngày hàng giờ kiểm soát chính con người chúng ta. Một cuốn sách đáng để đọc cho bất cứ ai trên hành tinh này. Hãy tìm và đọc nó sớm nhất để tìm thấy sự tự do và thành công cho chính mình.
5
5120160
2017-03-30 08:30:56
--------------------------
547121
9263
Một cuốn sách tuyệt vời. Mọi người nên đọc ít nhất 1 lần
5
1742429
2017-03-18 22:20:50
--------------------------
543929
9263
Sách có nội dung hay, thức tỉnh những tâm hồn đang buông thả. Nhưng lối viết còn mơ hồ, 4* cho những nội dung nổi bật của sách. Nên mua.
4
1738676
2017-03-15 21:11:04
--------------------------
541737
9263
Mới đọc được một ít nhưng thấy nó cứ sao sao ý, mình chưa thấy hay. 
3
1951053
2017-03-14 18:57:47
--------------------------
538257
9263
khi nhìn tiêu đề thì tôi đã bị cuốn hút nhưng khi đọc thì nó gây cho tôi tính nhàm chán, thật sự chưa có cảm xúc chưa đi sâu vào trong lòng người đọc
2
2065547
2017-03-09 12:57:33
--------------------------
532037
9263
Biết được cuốn sách này qua người bạn đọc ebook giới thiệu cho. Tải ebook về đọc xong vẫn ngứa tay lên tiki tìm xem có không không ngờ có thật. Thế là tậu một em về. Đúng là ko làm thất vọng cuốn sách tâm lý hay đáng để đọc nội dung dễ tiếp cận. Chỉ biết nói hay!!
5
1222229
2017-02-26 20:02:46
--------------------------
528905
9263
Tôi đọc rất nhiều tác phẩm của Napoleon Hill. Mỗi cuốn sách là một trải nghiệm rất khác biệt

4
1687661
2017-02-21 08:53:14
--------------------------
496053
9263
Mình mua vì thấy nó chưa từng xuất bản , ấn tương vì khổ sách và tên bìa  , hy vọng sau khi đọc xong mình sẽ giết được con quỷ trong bản thân 
4
866376
2016-12-15 17:19:03
--------------------------
494149
9263
Sách hay cơ mà hơi buồn vì mình nhận đc 1 cuốn sách bìa vừa bị bẩn vừa xước. T^T
3
1480587
2016-12-05 08:33:19
--------------------------
490396
9263
Cảm nhận đầu tiên là sách bị nhăn..không thấy nilon bao quyển sách hừm không mấy hài lòng luôn.do đặt cùng cuốn Tony trên đường băng nên cầm sách thấy nhăn.nên để qua bên đọc hết Tony mới quay lại đọc...Đọc chương 1 do không  ưa nên không thích nghĩ đã mua sách nên cố đọc.đúng là quyết
. định đúng càng đọc càng hay....Napoleon hill trước khi đưa ta đến với con quỷ đã cho ta thấy được các khó khăn mà ông đã gặp phải...và ông đã trải qua như thế nào.phần sau ông đưa ta vào phần đối thoại với con quỷ..dịch vụ giao hàng cũng nhanh...
3
1672016
2016-11-12 14:44:28
--------------------------
488713
9263
Vừa nhận hàng.Tiki vẫn giao hàng và đóng gói cẩn thận.Nhưng chỉ có điều lần này mình không hài lòng lắm về sách được nhận vì bìa sách của quyển này bị xước lung tung và bẩn bẩn làm cảm giác như mua phải sách cũ dù bên trong vẫn mới tinh.
4
611378
2016-11-04 13:14:02
--------------------------
485005
9263
Mua sách Tiki nhiều lần rồi nhưng đây là lần đầu tiên mình viết nhận xét. Phải nói sách hay cực kỳ!!! Nhận được hàng đọc liền một mạch không dứt luôn. Cái thú vị của quyển sách là cuộc phỏng vấn giữa Hill và con qủy. Đọc sách mà hơi chột dạ vì trong mình cũng có bóng dáng con qủy đó. Như trúng tim đen vậy. CTCQTLB giúp mình ngộ ra rất nhiều điều. Đặc biệt là về tính cách. Con người ta không thể sống buông thả mãi được!!! Nói chung nếu ai đang gặp khó khăn về mặt tinh thần thì nên đọc quyển sách này. Quá tuyệt <3
5
1028010
2016-09-28 19:08:06
--------------------------
470350
9263
Tựa đề cuốn sách là lí do vì sao bạn nên đọc quỷên sách. Khi đọc quỷên sách này bạn sẽ hiểu đc thứ gì cản trở bạn và làm bạn bị đứng lại trog kế hoạch của bạn và tìm ra nguyên nhân cách chống lại điều đó. Để thành công với mục tiêu đề ra tôi khuyên bạn nên mua quỷên sách này về đọc và rút ra cho mình một công thức đúng về tư duy và hành động. Từ đó sẽ không có chuyện gì khó cho bạn trong hành trình chinh phục tương lai, mục tiêu,... mà bạn đề ra.
5
1282662
2016-07-07 13:36:53
--------------------------
463428
9263
Napoleon Hill và con quỷ đối thoại trong quyển sách này dẫn dắt người đọc hiểu hơn về sự tồn tại của 1 con quỷ trong bản thân mỗi con người. Nó tương tự như cuốn " Giọng nói nhỏ trong đầu bạn " ( A little voice - của Blair Singer ). Con quỷ là những giới hạn cản trở sự thành công của bạn trong cuộc sống. Tựa đề thu hút, hầu như phần nào giúp người đọc đoán ra được nội dung, nhưng nội dung khá thú vị với những tình tiết mang tính đối đáp qua lại, thể hiện rõ những hạn chế tự bản thân bạn tạo ra và tìm cách xoá bỏ nó. Nên đọc nhé bạn!
5
861781
2016-06-29 11:48:55
--------------------------
457962
9263
Trong cuộc trò chuyện giữa Napoleon Hill và con quỷ, tôi tìm tìm thấy bản thân mình trong đó. Có lẽ con quỷ mà Napoleon Hill đề cập là con quỷ trong mỗi chúng ta, mà chúng ta vẫn thường không nhận ra, hoặc dù nhận ra nhưng cố tình phớt lờ nó. Có hay không chuyện chiến thắng con quỷ, bởi vì đó cũng là chiến thắng chính bản thân chúng ta. Phải đọc thật sâu thì ta mới có thể hiểu những gì mà Napoleon muốn truyền tải thông qua câu chuyện ấy. Dù gì thì đây là một cuốn sách khá hay.
4
452822
2016-06-24 18:28:18
--------------------------
451653
9263
Điều đầu tiên mình muốn nói là quyển sách này khá kén người đọc. Nếu ai đã đọc qua những tác phẩm khác của Napolleon Hill thì sẽ dễ nắm được lối hành văn và những triết lý của ông. Thêm nữa, người đọc phải là người thường xuyên tiếp cận với những loại sách phát triển cá nhân mới có thể hiểu và nắm rõ, nắm sâu những ý của ông viết. Quyển sách đọng lại trong mình 2 từ "buông thả" và "kiểm soát". Sau khi đọc xong, mình cảm thấy đầu mình được mở ra, quyết tâm "KIỂM SOÁT" lại mọi mặt cuộc sống của mình, không để cho Con Quỷ ru ngủ nữa. Quyển sách cũng lý giải nguồn gốc sâu xa của những thành công và thất bại của người đời. Bạn sẽ hiểu tại sao chỉ có 2% số người là thành công. Mình tự gọi đây là "quyển sách thức tỉnh" nếu bạn thực sự hiểu và áp dụng vào cuộc sống của mình.
5
916249
2016-06-19 22:56:09
--------------------------
451491
9263
Tôi mới đọc tới chương 4 thôi nhưng tôi đã lên nhận xét này để các bạn biết mà tìm đọc vì nó có tác động mạnh đến nhường nào. Vi nội dung của cuốn sách vạch trần hết những gì mà thời xưa đang diễn ra nên nó chính là lí do vì sao mà chưa từng xuất bản từ 1938. Bạn sẽ thấy được con quỷ chiếm lĩnh con người chúng ta như thế nào, nhất là những người sống buông thả. Những người không có định hướng tương lai hay kế hoạch hoạt động rõ ràng hay sa đà trong ăn chơi thì đang mang trong mình con quỷ đó. ... Còn tiếp nữa, rất hay các bạn nên tìm đọc sẽ thấy sức tác động đến thế nào chứ qua nhận xét thì chẳng rút ra được bao nhiêu.
Cảm ơn tác giả, cảm ơn tiki. 
5
181088
2016-06-19 20:24:55
--------------------------
447315
9263
Tôi vừa nhận sách. Cảm ơn Tiki giao hàng nhanh, đóng gói cẩn thận. Đầu tiên, thật thích thú vì sách rất đẹp, từ bìa đến phần nội dung bên trong. Và tôi đã bị ấn tượng mạnh bởi câu đầu tiên đọc được: " Nỗi sợ hãi là công cụ của quỷ dữ do con người tạo ra". Thấm! Đây hẳn là quyển sách tôi cần lúc này. Táo bạo từ tiêu đề sách "Chiến thắng con quỷ trong bạn" đến lời tựa của tác giả Napoleon Hill, khiến tôi tò mò tột độ và chỉ muốn lĩnh hội càng sớm càng tốt. Đọc comment khen có, chê có. Càng thôi thúc chính mình tự đọc và cảm nhận. Có vô lý không trong khi nhiều người khác tin tưởng tôi nhưng tôi lại đi bác bỏ chính mình? Liệu sách sẽ giúp tôi thức tỉnh để chiến đấu với con quỷ ấy và có đủ can đảm làm những điều mình muốn? Chờ xem.
4
348187
2016-06-13 22:27:28
--------------------------
443821
9263
Theo đánh giá của tôi thì đây là quyển sách gối đầu giường cho những ai muốn thay đổi bản thân mình, muốn chiến thắng bản thân và thành công trong cuộc sống, nó giúp bạn thoát khỏi vòng xoáy của cuộc đời, không rơi vào bế tắc cuộc sống. Nội dung rất hay, bao gồm các kinh nghiệm, trải nghiệm, là kết quả nghiên cứu 20 năm của tác giả, được trình bày dưới dạng cuộc đối thoại giữa tác giả và con quỷ trong bản thân tác giả. Theo tôi bạn nên sỡ hữu một quyển sách như vầy. Nó rất hữu ích.
Hãy đọc và cảm nhận theo cách của riêng bạn...
4
1358244
2016-06-07 13:48:52
--------------------------
440105
9263
Một tác phẩm khủng khiếp từng được xuất bản trên thế giới. Tôi không thể tin được cuốn sách như vầy lại được xuất bản. Nó chứa đựng những bí mật mà giới cầm quyền rất ngại cho mọi người biết. Tôi nghĩ đây là một cuộc cách mạng thì cuốn sách này được đến tay độc giả. Và quả thật sau khi Napoeon Hill mất rồi cuốn sách mới được xuất bản lần đầu tiên. Nếu bạn còn có nhiều rào cản trên bước đường tìm đến thành công. Còn chần chừ gì nữa mà không mua ngay cuốn sách thần thánh này.
5
39844
2016-06-01 10:25:19
--------------------------
439824
9263
Những quỷên sách của Napoleon Hill đều không thể chê vào đâu đuợc, trong đó có cuốn Chiến thắng con quỷ trong bạn. Chiến thắng con quỷ trong bạn giúp ta hiểu về cái tôi khác, cách mà ta chiến thắng con quỷ,...   Sách này rất hay, ý nghĩa và có ích đối với những nguời muốn tự do và thành công trong cuộc sống. Và chắc hẳn ai trong chúng ta cũng mong muốn điều đó đến với bản thân. Vì vậy tôi khuyên các bạn nên đọc, ngẫm nghĩ và áp dụng nó vào cuộc sống của mình.
5
1346472
2016-05-31 20:37:57
--------------------------
429726
9263
Chỉ mới đọc đến cuộc gặp gỡ với con qủy mà đã làm cho tôi kết luận đây là quyển sách hay! Khi tôi đọc toàn bộ tâm trí tôi bị cuốc vào quyển sách như thể tôi đang chứng kiến toàn bộ sự việc diễn ra vậy.Tôi chắc chắn sau quyển sách này tôi sẽ tiếp tục ủng hộ các quyển sách khác của Napoleon Hill. Đây là một quyển sách hay không đọc thì phí đó nha! Nó giúp bạn hiểu rõ hơn về "con qủy" và làm cách nào để chúng ta chiến thắng giành được sự tự do và thành công trong cuộc sống!
5
1107719
2016-05-13 19:53:22
--------------------------
408471
9263
Cuốn sách này mình đã mua khá lâu rồi! sách dày, bìa đẹp, giao hàng lại nhanh. Nhờ nó mà mình đã nhận ra được rất nhiều điều! nó giúp mình hiểu được thế nào là thói quen sống buông thả và mình đã thay đổi  rất nhiều khi đọc nó! Tuy không biết đây có phải là đoạn đối thoại có thật không nhưng cách nói lại rất sống động, đánh vào tâm lí của nhiều người, khiến họ nhận ra những sai lầm trong cuộc sống đang mắc phải. Nói thật đây là cuốn sách hay nhất mà mình từng đọc!
5
1276593
2016-03-31 19:37:21
--------------------------
407057
9263
đọc cuốn sách, bạn sẽ thấy như ta đang tự nói với chính mình. "Con quỷ" chính là nỗi sợ hãi trong tâm hồn. Ta sẽ thấu hiểu được nguyên nhân của sự sợ hãi, và, ngày càng ngạc nhiên với một số bí mật bị che dấu. Qua cuộc đối thoại tưởng như là giả định, chúng ta sẽ hiểu tác giả muốn truyền đạt lại những gì. Nếu bạn đang đọc nhận xét về cuốn sách này ,thì tôi có thể khẳng định hãy mua nó ngay, đừng chần chừ bởi vì cuốn sách này thật sự có thể thay đổi tâm trí bạn, và điều đó có nghĩa là nó sẽ thay đổi cuộc đời bạn.
Cuốn sách không giống như bất kỳ cuốn sách nào khác mà tôi đã đọc bởi vì nó đánh động tiềm thức và nhận thức của tôi ở mức sâu nhất. Napoleon Hill quả là đã đem đến những món quà và khám phá tuyệt vời cho nhân loại.
5
458895
2016-03-29 13:07:04
--------------------------
403375
9263
Trong mỗi con người luôn tồn tại Thiện và Ác, mỗi Napolion đã phân tích rất cho tiết về nó. Cam xúc mạnh, cam giác lạ,... Thích thi một cách lạ thường khi tôi đọc cuốn đánh này, nó mang đếm cho tôi nhiều suy nghĩ trong cuộc sống, 1,2,3,4,5 lần. Tôi đã đọc đi đọc lại như vậy, nhưng mỗi lần lại có những cam giác khác tuy theo hoa màu cảnh. Cách suy nghĩ mình đặt vào khi đọc, Napolion hill, đã cho tôi nhiều suy nghĩ về bản thân mình để được hoàn thiện hơn,sống có ích hơn. Cuốn sách thật sự rất tuyệt!!!!!!
4
1136117
2016-03-23 18:00:56
--------------------------
403350
9263
"Chiến thắng con quỷ trong bạn" thật sự là một cuốn sách rất đáng để đọc. Chính cuốn sách này đã thay đổi con người và cách suy nghĩ, tư duy đối với tôi. Các bạn nào đang phải chịu thất bại, chưa định hướng được tương lai, đang sống buông thả, không nghĩ đến bản thân mình thì tôi khuyên các bạn nên đọc và suy ngẫm những vấn đề mà tác giá đã viết, nó thật sự hữu ích và sẽ thay đổi con người bạn cũng như nó đã thay đổi con người tôi. Từ một người thất bại trở thành một người tự tin và dần dần có lại được những gì mình đánh mất
5
294767
2016-03-23 17:20:33
--------------------------
401121
9263
Đây là cuốn sách mà tôi rất quý. "Chiến thắng con quỷ trong bạn", một cái tựa sách mà khi mới đọc, tôi đã cảm thấy mình rất cần quyển sách này. Mỗi người chúng ta, ai cũng có một con quỷ ẩn mình bên trong, chỉ chực trào ra là điều khiển con người bạn. Nhưng làm sao để khống chế được nó? Hãy đọc cuốn sách này nếu muốn biết câu trả lời. Để trở thành một người hoàn toàn tốt không khó, nhưng làm sao để tốt thì không hề dễ. Đọc đến trang nào, bạn cũng sẽ tìm thấy một phần con quỷ trong bạn đấy.
4
211114
2016-03-20 10:37:46
--------------------------
400596
9263
Có bao giờ bạn tự hỏi những người thành công có đặc điểm hoặc điều gì chung khiến họ thành công như vậy? Có bao giờ bạn tự hỏi điều gì đã thôi thúc một người thực hiện hành vi nào đó? Đó là do cái thiện hay cái ác thôi thúc. Ví dụ nếu cứu người nghĩa là do lòng tốt khiến ta cứu người, hay là vì ta không thể chịu được cảm giác hối hận ăn năn nếu không cứu. Vậy thì đâu mới là con người thật của ta? Chỉ có đối diện với chính con quỷ trong ta mới tìm ra câu trả lời.
4
465332
2016-03-19 16:29:43
--------------------------
376227
9263
Đây là một quyển sách hay và giá trị. Bằng giọng văn cuốn hút và thuyết phục tác giả đã đưa chúng ta khám phá những góc khuất hay chính là những "con quỷ" trong tâm hồn mỗi người. Sách giúp chúng ta tìm ra những hướng đi đúng trong cuộc sống. ngoài những lời văn về cuộc nói chuyện giữa con quỷ và Napoleon Hill còn có những lời bình của tác giả đã biên tập ra cuốn sách này. Nhẹ nhàng cuốn sách sẽ tác động đến tiềm thức và cuối cùng là cuộc sống chúng ta. Một cuốn sách hay đáng để đọc.
4
755818
2016-01-30 13:15:32
--------------------------
352011
9263
Nếu như bạn chỉ định chọn một vài cuốn sách, hoặc ít hơn nữa, chỉ một cuốn, có nội dung về phát triển bản thân, tạo cảm hứng và động lực, "Chiến thắng con quỷ trong bạn" rất đáng để bạn cân nhắc lựa chọn. Cuốn sách được tác giả thai nghén khá lâu, chừng 20 năm, và ra đời vào nửa đầu thế kỉ XX, khi mà bối cảnh xã hội lúc bấy giờ hết sức sôi động. Phong cách viết của tác phẩm này mang nhiều màu sắc triết học, tôn giáo, thần học, khá khó đọc khi tiếp xúc lần đầu tiên, nhưng nếu đọc kĩ lại, có lẽ bạn sẽ tìm ra những "viên kim cương" quý giá. Với bản thân tôi, cuốn sách cuốn hút ngay từ phần mở đầu cho đến tận trang cuối cùng, thú vị, ý nghĩa và sâu sắc.
5
450250
2015-12-13 13:56:21
--------------------------
346103
9263
Mình biết được cuốn sách này qua lời giới thiệu của một người bạn. Dù rất đầu không thiết tha mấy nhưng càng đọc lại càng không thể đặt cuốn sách xuống được.
Mình cảm thấy rất thích cuốn sách này. Những điều mà Napoleon Hill nói có sức ảnh hưởng lớn đến mình. Tác phẩm được viết từ những năm cuối thập niên 30 nhưng nó vẫn đúng cho đến tận xã hội hiện đại ngày nay. Cái cách mà ông viết cũng hết sức đọc đáo và sâu sắc, dễ hiểu. "Con quỷ" tượng trưng cho những điều xấu và Napoleon Hill đã trò chuyện với nó để đưa ra những bài học thiết thực. Có cảm giác như bị cuốn vào từng câu đối thoại giữa ông và "con quỷ" đó.
4
67529
2015-12-01 22:04:09
--------------------------
338277
9263
Tôi bị hấp dẫn bởi tựa sách, mới thấy lên kệ là đặt hàng ngay. Tuy nhiên, hơi bị hụt hẫn lúc bước vào đọc. Thật sự là đã cố gắng rất nhiều để đi đến cuối cùng của quyển sách. Tuy có rất nhiều những lời hoa mỹ dành cho quyển sách này, và chắc cũng do bản thân không thích hợp với văn phong của tác giả hay sao mà tôi không cảm nhận được giá trị to lớn mà tác phẩm mang đến. Thật sự là đã không hiểu được nội dung cũng như thông điệp mà tác giả muốn truyền tải tới người đọc.
3
350180
2015-11-15 20:47:16
--------------------------
336765
9263
Thực sự mà nói đây là một quyển sách không dễ đọc và cảm nhận chút nào. Cuộc đối thoại giữa Napoleon Hill và con quỷ có thể chỉ là tưởng tượng, nhưng nó lại đề cập đến những vấn đề rất thật trong xã hội loài người, trong từng cá nhân trong xã hội. Người đọc không nhiều thì ít, sẽ có cơ hội nhận ra bản thân qua từng vấn đề được nhắc đến trong cuộc đối thoại. Sau 'Think and Grow Rich', đây tiếp tục là một tác phẩm để đời nữa của Napoleon Hill. Nếu là một người muốn thay đổi bản thân, thiết lập kỷ luật cá nhân thì đây là một cuốn sách mọi người không nên bỏ qua.
4
742083
2015-11-12 21:52:35
--------------------------
325666
9263
đây là cuốn sách đã giúp  tôi vượt qua nỗi sợ hãi của bản thân....Mọi chuyện bạn có thể có vượt qua trừ con quỷ trong con người bạn là bản thân mình.Khi bạn chiến thắng bản thân mình thì đó là một chiến thắng rất lớn và con đường đi đến ngày thành công của bạn dễ dàng hơn rất nhiều...Hãy đọc và cùng nhau chiến thắng được những nỗi sợ hãi đang diễn ra trong chính suy nghĩ của bạn..Cảm ơn Napollion Hill đã luôn  có những tác phẩm tuyệt vời như nghĩ giàu làm giàu...Đã giúp tôi có những tư tưởng tư duy mà trước đây chưa bao giờ biết
4
896862
2015-10-23 22:57:41
--------------------------
306501
9263
Trong mỗi con người đều có hai phần thiện ác, dù chúng ta có muốn nó tồn tại hay không. Trước phần người luôn là phần con, chúng ta càng phủ nhận thì nó càng hiện hữu, nên thay vì cố chấp lãng quên, ché giấu nó, Napoleon Hill chia sẻ chúng ta nên đối diện với nó, lắng nghe và tìm hiểu nó, vì đâu ta tham lam, vì sao ta hiếu thắng, tại sao ích kỉ lại tôn tại, chúng ta có sợ hãi không?... Hiểu được những hạn chế tồn tại trong chúng ta, là bước đầu tiên để vượt qua và chiến thắng nó. Những bài học mà ông chia sẻ mang đến nhiều giá trị to lớn với tôi trong công việc và cuộc sống.
5
258935
2015-09-17 16:53:28
--------------------------
303203
9263
Sau "Think and grow rich" thì Napoleon Hill vẫn thuyết phục tôi hoàn toàn qua cuốn sách này, "Chiến thắng những con quỷ trong bạn". Khác như "Ngày xưa có một con bò", cuốn sách này truyền đạt bằng cách tác giả tự nói chuyện với những con quỷ bên trong mình, đó là một cuộc chiến nội tâm giằng xé với con quỷ tham lam, con quỷ hiếu thắng, con quỷ ích kỉ, con quỷ sợ hải, con quỷ rụt rè,... Trong chúng ta ai cũng có những con quỷ như thế, nhưng quan trọng là phải làm thế nào để nhốt và chiến thắng nó, tác giả đã giúp tôi làm được điều đó. Dù có vài chỗ hơi khó hiểu, tôi vẫn chưa tiếp thu được hết những gì mà tác giả muốn truyền tải nhưng đây là một quyển sách tuyệt vời...
5
126861
2015-09-15 18:32:39
--------------------------
302657
9263
Chỉ với cái tiêu đề thôi "chiến thắng con quỷ trong bạn" đã kích thích tôi phải đọc cuốn sách, tôi biết đen cuốn sách qua một lần tới nhà bạn chơi. Tò mò với tiêu đề tôi mở ra xem và đã thực sự bị cuốn hút khi mới chỉ đọc lời mở đầu. Cuốn sách thật sự làm tôi cảm thấy hào hứng và đúng như tôi mong đợi, tôi đã vỡ oà lên sau khi đọc xong cuốn sách. Một tác phẩm thật sự có sức rung rất lớn và nó ảnh hưởng rất tích cực đến suy nghĩ của tôi về thất bại và thành công! Tôi cảm thấy mình thật may mắn khi biết tới nó, quá tuyệt vời!
5
164722
2015-09-15 13:12:50
--------------------------
300372
9263
Tôi hiểu rằng tại sao nhiều lúc tôi lại lưỡng lự, chần chừ và thất bại nhiều đến thế. Tôi vẫn chưa vượt được ngưỡng cửa của bản thân, chưa chiến thắng được chính mình. Bởi hằng ngày, tôi vẫn tôn thờ, phục tùng và nuôi dưỡng con quỷ trong tôi. Nhưng giờ, điều đó đã chấm dứt, tôi không còn để những khoảng trống để nó lớn mạnh nữa, tôi đã biến con quỷ đó thành nô lệ cho tôi. Một điều minh chứng rõ nét cho lời tôi nói là sau bao lần thất bại với mục tiêu dậy sớm tập thể dục, giờ đây, tôi đã thành công. Ngày nào cũng vậy, 4h30 đã trờ thành đồng hồ sinh học giờ giấc của tôi, tôi khỏe mạnh hơn nhiều, và ngày càng quản lý con quỷ tốt hơn. Tôi tin rằng, điều này giúp tôi vươn tới thành công nhanh hơn
5
703656
2015-09-13 21:55:15
--------------------------
294882
9263
Điều làm mình ấn tượng đầu tiên về cuốn sách này đó là nó rất đẹp và chắc chắn. Sách to hơn mình nghĩ nên cảm giác khi đọc rất thích.
Về nội dung thì không cần phải bàn cãi nhiều, thực sự là rất tuyệt. Chúng ta luôn hiểu một điều rằng, ở bên trong bản thân mỗi người chúng ta đều có những con quỷ xấu xí. Đó có thể là con quỷ của lòng tham, con quỷ của sự ích kỷ, hiếu thắng, hay là con quỷ của sự sợ hãi, rụt rè.Và chắc hẳn, ai cũng muốn đánh đuổi con quỷ đó ra khỏi bản thân mình để mình có thể trở thành một con người hoàn thiện
Hy vọng sau khi đọc xong cuốn sách này, bạn cũng như tôi có thể chiến thắng con quỷ trong mình.
5
145385
2015-09-09 20:12:51
--------------------------
292777
9263
Lại một lần nữa tác phẩm của Napoleon Hill - được xem là người có ảnh hưởng rộng rãi nhất, mạnh mẽ nhất trong lĩnh vực thành công cá nhân lại thể hiện được những thông điệp và triết lý của Napoleon Hill luôn đúng và sống mãi theo thời gian. Cuốn sách kể về cuộc nói chuyện của Napoleon Hill với con quỷ đã làm rào cản ngăn chúng ta đến thành công, ông đã vạch tội, bắt con quỷ thú tội và bên cạnh đó cũng chỉ ra những cách để khắc chế con quỷ đó đối với bản thân mỗi người. Con quỷ có thể là sản phẩm của trí tưởng tượng của ông nhưng chúng ta không thể từ chối rằng những điều mà ông và con quỷ nói ra rất đúng!
5
643634
2015-09-07 16:55:54
--------------------------
290319
9263
Một cuốn sách thực sự bổ ích!Bìa sách,chất liệu sách thì khỏi phải bàn cải,chất liệu sách rất tốt!Cuốn sách là những điều về con quỷ trong mỗi người mà tác giả muốn mình phải chiến thắng!Bên trong mỗi con người chúng ta tồn tại một con quỷ và tác giả sẽ giúp chúng ta chiến thắng con quỷ xấu xa ấy!Nhưng như tác giả đã nói hầu như những người trong chúng ta rất khó để chiến thắng chúng!Cuốn sách sẽ dạy chúng ta những lối suy nghĩ và tư duy để chiến thắng con quỷ trong ta,nhưng phải qua một quá trình thực hành!Chúc các bạn thành công!!
4
413637
2015-09-05 11:25:34
--------------------------
285281
9263
Tôi đã mua được cuốn sách này, nhận được nó tôi rất là vui, nhanh hơn tôi nghĩ. Ấn tượng đầu tiên là sách được gói khá kĩ càng, chất liệu sách tốt. Cuốn sách này tôi được một người bạn giới thiệu, đúng lúc tôi đang cần những cuốn sách như thế này, Có một con quỷ luôn ẩn mình trong mỗi con người, chiến thắng nó, vượt qua nó, không phải là một điều dễ dàng nhưng không có nghĩa là không thể. Tôi muốn thay đổi bản thân mình, vượt qua nỗi sợ hãi này, tiếp tục bước đi trên con đường mình đã chọn. Muốn làm được những điều đó tôi cần hiểu rõ bản thân mình hơn và đọc sách cũng giúp tôi có những cái nhìn khác về mọi thứ, những thứ đang diễn ra trong tôi, Tôi chọn nó làm cuốn sách đầu tiên mình sẽ đọc, đọc để biết con quỷ trong mỗi người lớn như thế nào, làm thế nào để chiến thắng nó.Cảm ơn tiki đã giao hàng rất nhanh và cẩn thận. Mình rất hài lòng về dịch vụ của tiki :)
4
781686
2015-08-31 18:02:39
--------------------------
284147
9263
Từ khi đọc những trang đầu, nó luôn thôi thúc tôi đọc những trang tiếp theo, tiếp theo và không thể dừng lại. Quyến sách cực kì tuyệt vời. Nó giải thích tại sao bấy lâu nay bạn lại hành động như thế. Trong mỗi chúng ta đều có 2 con người. Một tốt và một xấu. Và tại sao con người xấu lại thường chiến thắng con người tốt. Và làm thế nào để bạn có thể nhốt con quỷ trong bạn. Để bạn thành công trong công việc và cuộc sống. Chiến thắng con quỷ trong bạn là quyển sách vô cùng tuyệt vời. nếu hiểu và áp dụng quyển sách triệt để. Tôi tin chắc bạn sẽ thành công trong công việc và tất cả mọi viêc. 
5
274279
2015-08-30 17:57:26
--------------------------
283764
9263
Về hình thức, sách có chất liệu giấy tốt, đọc không mỏi mắt ( vì thế nên mình đọc hết quyển sách này chỉ trong 1 ngày ), bên tiki bọc sách cũng cẩn thận ngay ngắn. Về nội dung quyển sách, đây là một quyển sách tuyệt vời về bản chất trong mỗi con người. Quyển sách với cách dẫn dắt ấn tượng là một bàn học đắt giá về tư duy lối mòn và sự đột phá rào cản bản thân để vươn tới thành công. Độc giả sẽ học được làm thế nào để nhận ra con quỷ trong con người mình, vượt qua nó để đạt đến một tầm khác, một tầm cao hơn. Tuy nhiên, quyển sách này chỉ cung cấp về tư duy lý luận, về suy lý và trải nghiệm của tác giả, còn lại tùy thuộc vào quan điểm và nhìn nhận của mỗi độc giả khác nhau thì điều rút ra từ đó cũng không hoàn toàn giống nhau.
4
386817
2015-08-30 11:53:38
--------------------------
282024
9263
Ấn tượng đầu tiên khi cầm cuốn sách là sách được in ấn kỹ lưỡng và đẹp. Vì hầu như sách của Thái Hà đều được chọn loại giấy tốt để in nên mình rất thích. Biết đến Napoleon từ nhiều cuốn sách khác nhau. Và sách nào của ông cũng đều làm cho người đọc bât ngờ về nội dung của nó. Cuốn này cũng vậy, nó đã mang lại cho đọc giả một cách nhìn nhận khái quát hơn. Về các dịch vụ của tiki thì mình rất hài lòng, cách giao hàng nhanh và cẩn thận. Tuy nhiên có điều về chăm sóc khách hàng thì tiki nên chú trọng hơn.
4
730145
2015-08-28 21:09:29
--------------------------
268089
9263
Tại sao bây giờ tôi mới tìm đến sách của Napoleon Hill chứ!? Hẳn là người thông minh và cách nhìn đa diện. Có đoạn đối thoại đó. Tại sao lại hấp dẫn, lại giỏi dẫn dắt người đọc tò mò xem người trả lời sẽ đối thoại (như thế nào) cơ. Và cái cách nghĩ, đơn thuần có nghĩa là, "tôi muốn nhắc lại để xem ông khẳng định suy nghĩ của mình ntn, xem ông có kiên định không". Quyển sách khai thác con quỷ mà giống đang nói về người đọc. Vậy đi. Cứ đọc xong là muốn xem lại coi coi có bỏ xót chi tiết nào ko? 
5
365857
2015-08-16 01:09:52
--------------------------
266583
9263
“Chiến thắng con quỷ trong bạn” – Napoleon Hill là một trong những quyển sách hay nhất trong những sách dạy phát triển bản thân. Quyển sách là những đoạn đối thoại của con Quỷ được Napoleon Hill vạch trần để cho chúng ta thấy cái sai trong bản thân mình một cách cụ thể và đầy triết lý. Quyển sách thể hiện một cái nhìn sâu sắc của tác giả về số phận con người, số mệnh mỗi chúng ta. Sự an phận, sự sợ hãi, nhút nhát, suy nghĩ tiêu cực là bước cản trở lớn nhất của chúng ta trên con đường tiến đến thành công, chiến thắng nỗi sợ hãi, lòng đố kị và cơn giận dữ.
5
554150
2015-08-14 20:21:18
--------------------------
264428
9263
đây là một trong những quyển sách rất hay,mang lại nhiều giá trị kiến thức tuyệt vời và vô cùng bổ ích.Các bạn sẽ học được nhiều thứ hơn những gì bạn tưởng,Vượt qua nỗi sợ,sự lười biếng và chiến thắng chính mình.Nếu chúng ta áp dụng đầy đủ cũng như làm theo những cách mà trong sách viết,thì chắc chắn các bạn sẽ nhận ra mình thay đổi lúc nào cũng không biết.Nỗi sợ hãi chính là thứ vũ khí ngầm đã giết chết con người bạn,làm cho bạn không dám thực hiện ước mơ,khát vọng và những hoài bão trong tương lai của mình.Hãy vượt lên chính mình.Nếu không bạn sẽ tự đào thải mình ra khỏi xã hội hiện nay.Chúc các bạn thành công
4
744639
2015-08-13 10:17:11
--------------------------
262083
9263
Nếu cuốn nghĩ giàu làm giàu - cuốn sách kinh điển về triết lý thành công chỉ cho bạn biết cách để bạn thành công thì cuốn này sẽ là cuốn sách bổ trợ cho bạn biết vì sao mà mình vẫn không thành công. Đa số mọi người đều đọc những bí quyết thành công rồi sung sướng như biết hết mọi vấn đề và rất tự tin rằng mình sẽ thành công khi áp dụng những lời chỉ dẫn trong sách đó, nhưng khi làm mới biết nó không đơn giản. Mình là một trường hợp tiêu biểu đây. Sau khi mua cuốn sách này về mình với vỡ lẽ, vừa đọc vừa gật gù đồng ý đến nỗi chẹo xương cổ vì những lần mình sa bẫy con quỷ. Quả thật nó rất tinh vi. Ai mà bị như mình có thể nên mua cuốn này về vì đọc nhiều câu chuyện về thành công rồi thì cũng đến lúc đọc những câu chuyện về thất bại để "cân bằng âm dương" và rút ra được kinh nghiệm cho mình.
5
560697
2015-08-11 17:05:41
--------------------------
256459
9263
Trong mỗi con người đều tồn tại thiên thần và ác quỷ.Ac quỷ sẽ lợi dụng lúc mỗi thiên thần lơi là để chiếm hữu lấy tâm hồn con người.Nếu không chiến thắng được con quỷ ,bạn sẽ bị khuất phục và phải đón nhận những kết quả tiêu cực.Nhưng thực sự,không phải ai trong chúng ta cũng biết cách để chiến thắng con quỷ trong chính bản thân chúng ta . Dưới hình thức là 1 cuộc trò chuyện với con quỷ ,Napoleon Hill sẽ đưa ra những gợi mở để mỗi người lại tìm ra cho mình cách chiến thắng con quỷ theo 1 cách riêng
4
520355
2015-08-06 21:33:30
--------------------------
246656
9263
Mình mới đọc qua một lần nhưng cảm thấy cuốn sách này khá khó hiểu, dường như điều tác giả Napoleon Hill muốn truyền tải rất mơ hồ qua câu truyện của ông với con quỷ. Nếu bạn nào muốn mua quyển này thì hãy nên cân nhắc nhất là với các bạn mới đọc sách lần đầu mà đã hí hửng mua quyển này là rất nguy đấy nhé. Nhưng đây chỉ là nhận xét của mình thôi còn bạn nào thích quá thì cứ mua không sao cả, đọc miết là sẽ hiểu. Chúc các bạn đưa ra lựa chọn đúng đắn.
2
77186
2015-07-29 18:21:50
--------------------------
245081
9263
Ngoài Think And Grow Rich, nhắc đến Napoleon Hill là người ta lập tức nhớ ngay đến Chiến Thắng Con Quỷ Trong Bạn. Được biết đã thất lạc sau một thời gian rất dài rồi mới được phát hành nên tác phẩm ngoài mặt nội dung nó còn mang một giá trị vô cùng to lớn. Cá nhân mình nghĩ quyển sách ở một tầm khá cao nên có thể người đọc sẽ gặp một số khó khăn trong quá trình tiếp nhận ý tác giả muốn truyền tải, nhưng nếu chịu khó nghiền ngẫm chắc chắc cái mà ta nhận được từ Chiền Thắng Con Quỷ Trong Bạn sẽ không hề nhỏ.
4
204567
2015-07-28 18:18:48
--------------------------
239813
9263
Cuốn sách “Chiến Thắng Con Quỷ Trong Bạn” gây ấn tượng với tôi với hình tượng nghệ thuật “ con quỷ”. Nó là ai ? Tôi thật sự bất ngờ về sự thật về con quỷ. Nó ở trong mỗi chúng ta, trong tôi trong chính bạn. Với tôi, nó không hoàn toàn ngự trị và thống lĩnh nhưng dù sao cũng phải nói rằng nó vẫn luôn tồn tại. Cuộc chiến nội tâm, sự giằng xé kịch liệt vẫn diễn ra trong chúng ta. Cuốn sách là sự giải mã và khám quá, mở rộng thế giới quan của ta. Thông qua cuộc trò chuyện của Napoleon Hill và Con Quỷ, tác giả Napoleon Hill truyền cho ta những bài học cuộc sống đáng quý.
5
276840
2015-07-24 09:09:17
--------------------------
223016
9263
Tác phẩm của Napoleon Hill chưa đọc đã khẳng định là hay rồi. Cũng như các tác phẩm khác, cuốn sách "Chiến thắng con quỷ trong bạn" lại là một thành công của Napoleon Hill. Đúng như tựa đề của cuốn sách Napoleon Hill đang chỉ ra cho bạn đâu là con quỷ trong bạn và bạn cần phải như thế nào để có thể chiến thắng nó. Liệu bạn có tìm ra được nó, chấp nhận và loại bỏ nó hay không. Với lối viết khá là hài hước và thú vị về con quỷ của tác giả khiến mình bắt đầu nhìn nhận sự thật, mình bắt đầu hiểu nó là gì và mình phải làm gì tiếp theo... ^^
4
246340
2015-07-06 14:40:17
--------------------------
218350
9263
Đầu tiên mình khẳn định lại lần nữa Napoleon Hill đúng là một thiên tài, một tác gia quá xuất sắc của dòng sách phát triển bản thân. bạn sẽ nhận ra điều đó khi đọc các tác phẩm của Napoleon Hill , nội dung không đặc sắc lăm, tuy nhiên tình huống khá gần gũi với cuộc sống nên bạn sẽ thấy nó rất bổ ích.                                                
Tuy nhiên những bạn trẻ còn ít trải nghiệm sẽ thấy nó hơi khó hiểu, vậy nên nó hướng tới đối tượng trưởng thành nhiều hơn.
4
98257
2015-06-30 15:41:09
--------------------------
218255
9263
Lúc đầu mình nhìn tựa đề cuốn sách và tên tác giả thì mình chưa thấy hấp dẫn như các tựa đề kỹ năng sống khác. Nhưng sau khi mua về thì thấy cuốn sách khổ đẹp, giấy tốt, trình bày hay. Khi đọc được vài trang thì thấy hấp dẫn. 
Hồi trước mình rất hay sợ hãi, nhiều nỗi sợ không hiểu từ đâu mà có. Và sau khi đọc được cuốn sách này thì mình cũng đã hiểu phần nào về nỗi sợ của mình nói riêng và con người nói chung. Ngoài ra cuốn sách này cũng giải đáp rất nhiều vấn đề khác của cuộc sống. Mình cũng thấy rõ được cách trực giác tiếp cận với con người như thế nào. Hy vọng mình cũng sẽ thành công như tác giả Napoleon Hill. Xin cảm ơn tác giả và tiki. Cảm ơn tất cả mọi người đã đọc comment của mình.
5
448771
2015-06-30 14:57:18
--------------------------
212936
9263
Có lẽ tác giả Napoleon Hill đã quá nổi tiếng với những người chuyên tìm đọc thể loại sách dạy làm người và thành công, thông qua tác phẩm 13 nguyên tắc làm giàu.

Nội dung của cuốn Chiến Thắng Con Quỷ trong bạn xoay quanh về cuộc đối thoại giữa con người và phần quỷ trong con người mình. Nhờ vào cách dẫn dắt độc đáo, Napoleon Hill đã lột tả đã các thói xấu của con người, nhưng thật đáng quý vì ông đã giúp chúng ta cách đánh thắng con quỷ trong người chúng ta.

Liệu bạn muốn là một con người thực sự, hay là để con quỷ trong người ngự trị. Hãy đọc và cảm nhận.
5
140922
2015-06-23 07:49:02
--------------------------
206858
9263
Mình được cô giáo giới thiệu cuốn này để về đọc và nghiên cứu bản thân, thế nhưng đọc được nửa cuống mình chẳng thấy thấm thía gì hết, mình thấy nó cứ khó hiểu thế nào ấy. Không biết là do tác giả dùng lối viết của ngày xưa nên mình không thấm được hay do bản thân mình nữa, vì bản thân mình cũng lười đọc sách, chủ yếu đọc truyện hay tiểu thuyết thôi! Hihi
Nhưng mà mình cũng tóm ý và rút ra được vài bài học cho bản thân mình lắm, sách cũng giúp thêm kiến thức để vượt qua mọi suy nghĩ tiêu cức dẫn đến thất bại trong cuộc sống! ^^ Cô mình đọc say mê đấy, các bạn thích thể loại này thì mình nghĩ các bạn không chọn sai khi mua cuốn này đâu!
3
378481
2015-06-10 21:35:56
--------------------------
205179
9263
Quyển sách này hấp dẫn đến mức tôi đọc ngay liên tục từ sáng cho đến chiều tối, không thể cưỡng lại những kiến thức siêu kinh điển này.Nếu bạn đang bị "vòng xoáy tiêu cực" tấn công thì hãy mua nó ngay lập tức không chần chừ, để chiến thắng "con quỷ suy nghĩ tiêu cực" đang ngày đêm nhen nhóm, len lỏi vào trong tâm trí bạn, mà từ trước bạn cứ tưởng suy nghĩ tiêu cực đó là của mình, hãy đọc ngay để chiến thắng công cụ của con quỷ, để tự do và thành công trong sự nghiệp và cuộc sống.
5
532836
2015-06-06 00:13:53
--------------------------
198264
9263
Nếu bạn yêu thích sự chất vấn, đối thoại để tìm ra chân tướng vấn đề cũng như cách giải quyết thì đây là cuốn sách hay và phù hợp với bạn. Cuốn sách có những nội dung khá tương tự với Đắc Nhân Tâm của Dale Carnegie nhưng cách tiếp cận theo hướng khai phá vấn đề hơn là liệt kê vấn đề. Sách viết với ngôn từ giản dị, không quá cao siêu, liên kết mạch lạc giữa các ý tưởng, các chủ đề và cho người đọc cái nhìn xuyên suốt về toàn bộ nội dung của cuốn sách. Đây là cuốn sách hay, nên xem, để phát triển chiều sâu trong cách nhìn nhận, phân tích và giải quyết vấn đề.
4
164859
2015-05-19 15:43:24
--------------------------
195637
9263
Mặc dù cuốn sách đã được viết từ khá lâu nhưng giá trị vẫn còn. "Chiến thắng con quỷ trong bạn" chỉ ra cho bạn cách vượt qua những nỗi sợ hãi của chính mình, vượt qua những ranh giới an toàn của bản thân để bứt phá và vươn lên trước. Nếu có thể thực hành và làm theo những gì sách hướng dẫn, có lẽ bạn sẽ nhanh chóng chiến thắng bản thân và vươn tới thành công. Tuy nhiên mình không thích lắm những phần nhận xét sau mỗi đoạn viết của tác giả, nó làm mình bị phân tâm khỏi những trình bày của tác giả
4
507583
2015-05-14 10:20:07
--------------------------
194924
9263
Một người bạn của mình đã đọc cuốn sách này từ lâu và sau khi được bạn giới thiệu, mình bị hút ngay vào tựa đề của sách. "Chiến thắng con quỷ trong bạn" của Napoleon Hill, đọc lên đã thấy có gì đó thôi thúc, có gì đó cần phải đấu tranh giữa phần "con" và phần "người". Và rồi chính bản thân mình là người sẽ quyết định cho phần nào giành chiến thắng. Cuốn sách khá dày, đôi khi nhiều chỗ hơi khó hiểu, nhưng cứ đọc đi đọc lại và nghiền ngẫm mọi người ạ! Chúc ai cũng có thể chiến thắng con quỷ nhé! Cảm ơn!
4
383551
2015-05-12 11:41:42
--------------------------
186512
9263
Không ai là không biết Napoleon Hill,nổi tiếng với cuốn Think and Grow rich trên khắp toàn thế giới.Ông đã vén màn bí mật của những người thành công giàu có mà ai ai cũng ngưởng mộ như Êđison,Andrew Carnegie..Mình cũng không ngờ là mình đã vô tình áp dụng nhưng bí quyết đó mà không biết(ít thôi) nhưng hiệu quả.Trong cuốn sách vô cùng độc đáo thú vị này thì ông đã giúp chúng ta đào sâu mọi tật xấu đã khiến ta thất bại qua hình tượng con quỷ.Qua những lời đối thoại thì đúng là có nhiều phát hiện gây sốc nhưng nếu càng chiêm nghiệm,ngẫm nghĩ thì bạn thấy đúng là một cuốn sách không phải tầm thường đâu ạ.Có vài chỗ khó hiểu nhưng nhìn chung thì hay lắm ^^.Bạn nào mê dòng sách self-help như mình thì nêu tậu cuốn này nha
5
456366
2015-04-21 12:29:30
--------------------------
180369
9263
Nhiều câu hỏi được đặt ra trong tác phẩm khiến người đọc tò mò về nó, ai cũng muốn mình có 1 cuộc sống sung túc nhưng nội tâm bên trong bị kiềm lại bởi những thói quen xấu hằng ngày. Do vậy tác giả đã ví nó như con quỷ đang chiếm dần toàn bộ não hệ của chúng ta và chế ngự chúng ta phải xấu xa dần. Ông lột tả con quỷ bằng cách đặt nghi vấn bản thân và trả lời trên chính bản thân mình. Ai cũng có 1 tâm ma, quan trọng mình xử lý tâm ma mình thế nào, ý chí của mình có đánh gục được nó không.
5
87029
2015-04-09 11:37:39
--------------------------
172897
9263
*Mình đã rất tò mò ngay từ tựa đề của cuốn sách. Vậy rốt cuộc con quỷ sẽ là gì? Điều đặc biệt nữa đó là cuốn sách chưa từng được xuất bản và bị biến mất từ năm 1938. Tại sao vậy? Và thế là mình đã quyết định mua sách để tìm hiểu thực hư như thế nào.
*Điều mình ấn tượng nhất đó chính là cuộc phỏng vấn với con quỷ và cách nó thú tội thật sự rất đúng với cuộc sống hiện tại. Trong nhịp sống hối hả hiện nay, con người dường như đang bị cuốn vào cuộc chiến tiền bạc và quyền lực mà quên đi nhiều thứ hay tự buông thả bản thân theo những thói xấu, nản lòng, sợ khó khăn, không biết vượt lên chính mình, tự cao, tự đại,… Điều cần quan tâm hơn cả là đôi khi chúng ta vẫn chưa xác định được mục tiêu cuộc đời và cứ mãi chờ đợi dòng đời xô dạt đẩy ta đi.
*Từ năm 1938, tác giả đã hoàn thành xong cuốn sách mà thật sự có ý nghĩa lan tỏa theo thời gian đến tận bây giờ. Những người từng trải sẽ nhận thấy một số điều tác giả đề cập khá đúng với những gì họ đã, đang và sẽ trải qua. Không dừng ở đó, cuốn sách còn chỉ ra cho ta những cách giải quyết vấn đề xấu.
*Thật lòng mà nói, đây là một cuốn sách hay nhưng khá khó đọc và cần phải đọc nghiền ngẫm nhiều lần, nhưng nếu một khi đã đọc và hiểu nó thì bạn sẽ cảm thấy nó là một cuốn sách mô tả cuộc sống rất thực và có nhiều điều bổ ích để học hỏi.
5
45667
2015-03-25 09:36:26
--------------------------
161446
9263
Có thể nói quyển sách này là quyển sách cột mốc thay đổi cuộc sống tôi khi tôi bị mắc kẹt trong nỗi sợ hãi, tính nóng giận và những buông thả nghiệt ngã. Quyển sách này đã kéo tôi trở lại với cuộc sống thực tại,tư duy đúng đắn và đang từng bước chinh phục con đường đến ước mơ của của mình.
Quyển sách này cho ta thấy được những điều trong cuộc sống mà ta tưởng chừng như là đúng, vô hại, quan trọng; Nhưng đó lại là những điều khiến ta chỉ dám đứng ở vị trí an toàn và kiềm hãm mọi khả năng tư duy của chính bản thân mình. Quyển sách này giúp ta từng bước có được tư duy bản thân, suy nghĩ tích cực và vượt qua những tiêu cực có hại để đạt được những thành công như mình mong muốn, chứ không còn là tình trạng chỉ biết ngồi mơ tưởng đến những gì mình muốn có mà suốt đời không bao giờ đạt được.
Quyển sách gồm cuộc đối thoại giữa tác giả và con Quỷ (bản thân ta tự tạo nên và luôn ngự trị trong mỗi chúng ta) từ đó ta sẽ thấy được những giá trị chỉ dẫn ta từng bước đạt thành công trong tư duy và kiểm soát chính bản thân mình.
5
551187
2015-02-27 21:53:17
--------------------------
156230
9263
Có thể trong suy nghĩ của độc giả thời hiện đại, khi nói về Napoleon Hill thì mọi người sẽ nghĩ ngay tới sự giàu có bằng tiền. Nhưng trong quyển sách này, mượn hình ảnh con quỷ, ông đã miêu tả và tìm ra những trở ngại mà chúng ta phải đối mặt trên con đường vươn tới thành công. Nếu tinh ý hơn, độc giả sẽ nhận ra ông đang chia sẻ hiểu biết của mình về những nguyên tắc trong cuộc sống. Những gì ông chia sẻ trong các tác phẩm của mình đã minh chứng vì sao tác giả Napoleon Hill là một nhà tư tưởng có ảnh hưởng rất lớn ở Mỹ cho tới ngày nay. Có thể tác phẩm được viết từ năm 1938 nên sẽ khó đọc đối với một số độc giả.
5
387632
2015-02-03 20:06:22
--------------------------
131464
9263
Thật khác xa với "Ngày xưa có một con bò", "Chiến thắng con quỷ trong bạn" cũng nói về những thói xấu đó nhưng lại cụ thể hơn, không ẩn dụ quá sâu xa, từng bước giúp người đọc khắc phục và chế ngự bản thân.

Có những quy tắc mình biết rồi, nhưng khi đọc sách thì lại càng ngạc nhiên và thán phục hiểu biết sâu sắc của tác giả, còn những nguyên tắc mình chưa biết thì khỏi phải nói, quá đỗi hay luôn.

Quyển sách giúp mình sửa thói quen rất nhiều, tất nhiên không phải là vừa đọc sách xong thì thói quen của mình tự dưng được sửa, tất cả là nhờ những lời hướng dẫn, động viên được viết rất chân thành của Napoleon Hills, từng bước mình làm theo và sửa được, dù chưa hoàn toàn nhưng vẫn hơn trước rất nhiều.
5
418158
2014-10-25 09:02:19
--------------------------
123763
9263
Với lối viết thông minh và sắc sảo của mình, Napoleon Hill đã làm cho cuốn sách không giáo điều, cứng nhắc mà gần gũi, sâu sắc, chân thật, chỉ cho ta thấy rất nhiều cạm bẫy trong tâm hồn mà ta không hề hay biết. Đó là những con quỷ và nó đang ngự trị, kiểm soát tâm hồn mỗi chúng ta. Napoleon Hill đã giúp ta tim được ý nghĩa, hạnh phúc của cuộc sống và những bí quyết vươn tới thành công bằng cách kiểm soát và vượt qua được rào cản đó. Bob Proctor- người sáng lập nên tổ chức thành công cuộc đời- đã nhận xét rằng: " Đây lại là một tác phẩm làm thay đổi cả thế giới". Quả đúng là như vậy cho tới khi tôi đọc " những nguyên tắc vàng" của Napoleon Hill. Tôi cho rằng chỉ cần rèn luyện được tất cả các nguyên tắc tác giả đưa ra trong cuốn sách này thì " con quỷ" cũng không còn chỗ đứng trong tâm trí mỗi chúng ta.Hơn nữa, quyển sách đó còn cung cấp cho ta nhiều điều bổ ích khác mà sách này không đề cập tới.
3
381173
2014-09-03 15:10:20
--------------------------
107123
9263
Đây thật sự là 1 cuốn sách đáng giá nhất tôi từng đọc, và nó đến với tôi ngay đúng thời điểm mà tôi cần nó nhất. Cuộc chất vấn giữa Napoleon Hill và con quỷ có thể khiến nhiều người nghĩ là nó không có thật, nhưng đối với tôi, quan trọng nhất là những ý tưởng được truyền đạt qua cuộc chất vấn đó mới thật sự là quan trọng. Tuy nhiên bản thân tôi tin rằng cuộc tra hỏi này thật sự có tồn tại và những tiết lộ của con quỷ thật sự gây sốc và bất ngờ. 

Trong cuộc sống của mình tính đến thời điểm hiện tại, tôi đã nhiều lần rơi vào tay con quỷ, tuy nhiên tôi đã không hoàn toàn bị nó nắm giữ, điều đó thật may mắn biết bao. Và tôi nghĩ rằng chính bản thân tôi , đã hấp dẫn cuốn sách này đến với tôi ,để giúp tôi sống cuộc sống tự do và tự chủ của chính mình. Nếu bạn đang đọc nhận xét về cuốn sách này ,thì tôi có thể khẳng định hãy mua nó ngay, đừng chần chừ bởi vì cuốn sách này thật sự có thể thay đổi tâm trí bạn, và điều đó có nghĩa là nó sẽ thay đổi cuộc đời bạn.

Cuốn sách không giống như bất kỳ cuốn sách nào khác mà tôi đã đọc bởi vì nó đánh động tiềm thức và nhận thức của tôi ở mức sâu nhất. Napoleon Hill quả là đã đem đến những món quà và khám phá tuyệt vời thông qua các tác phẩm của ông.
5
22174
2014-03-02 07:25:41
--------------------------
105920
9263
Lại thêm một cuốn sách nữa được nghiền ngẫm nhân cái dịp tết này! 

Nhưng mình thấy có sự hụt hẫng không hề nhẹ ở đây. Sự hụt hẫng không đến từ tác giả, mà tự những sự giải thích, trích dẫn, bla bla của Sharon, người này đã tâng bốc cuốn sách một cách thái quá.

Nếu bỏ hết các chú thích của Sharon, thì văn phong của tác giả lại không hợp với thời đại này, nên vẫn gây cảm giác ngán ngẩm. 

Điều mà cuốn sách nhắc tới là đúng và cần thiết phải nhận ra ở mỗi cá nhân, tuy nhiên mình cho rằng các triết lý này nên được truyền tải theo một cách khác hợp với thời đại hơn. Những triết lý của Napoleon Hill rất đúng và đúng là đã đi trước thời đại của ông, nhưng nó đã được xuất bản quá trễ ở thời đại ngày nay, khi mà đã có rất rất nhiều hậu bối của Napoleon Hill đã phát biểu về những vấn đề đó.
2
104777
2014-02-10 14:12:36
--------------------------
91016
9263
Đây là một cuốn  sách có lịch sử khá thú vị. Vì nó đã được viết cách đây hơn 70 năm nhưng đến giờ mới được xuất bản. Toàn bộ nội dung cuốn sách là cuộc đối thoại giữa tác giả Napoleon Hill và con quỷ, không biết do ông tưởng tượng ra hay sao. Từ chỗ bị con quỷ khống chế, ông đã thoát ra được và khiến con quỷ phải thú nhận tất cả những thủ đoạn, chiêu trò mà nó dùng để khống chế hơn 99 % con người trên hành tinh này. Đọc tới đây thấy thật khủng khiếp. Thông qua cuộc đối đầu này, qua những chiêu trò của con quỷ ta sẽ biết được làm thế nào để thoát khỏi sự khống chế của nó, vì biết người biết ta , trăm trận không bại mà. Tuy nhiên, mình nghĩ không phải ai cũng có đủ dũng khí và ý chí để thoát khỏi con quỷ này vì nó đã đô hộ ta khá lâu và gần như bị đồng hóa rồi. Vấn đề là mình có tin rằng có một con quỷ như thế trong chính mình hay không. Một cuốn sách không phải dễ đọc, theo mình, vì mình vẫn chưa nghiệm ra được.
4
140131
2013-08-15 09:27:50
--------------------------
79178
9263
Chúng ta thường cho rằng cuộc sống của chúng ta bị ảnh hưởng bởi nhiều yếu tố và trong số đó có những “con quỷ” xuất hiện làm ngáng đường chúng ta, nhưng, thực ra không có con quỷ nào xuất hiện ở ngoài cả. Con quỷ đó luôn nằm trong bạn và từng ngày, nó gieo những suy nghĩ khiến bạn phải chùn bước. cuộc chiến với con quỷ chính là cuộc chiến nội tâm của từng ngày.

Đúng như tựa đề của cuốn sách, Napoleon Hill hướng dẫn chúng ta cách để không từ bỏ, phân tích con quỷ một cách kỹ lưỡng “biết địch biết ta” để từ đó bẻ cong lời dụ dỗ ngọt ngào của nó trở thành động lực để chúng ta lao động cật lực.

4
40504
2013-06-05 19:51:57
--------------------------
77622
9263
Quyển sách này viết ra dành cho một người có tính kiên nhẫn cao. Thú thật là khi bắt đầu, tôi cảm thấy hơi chán vì...khó hiểu. Nếu đọc nhanh, lướt thì...cất cuốn sách đi tốt hơn bởi phải nghiền ngẫm, suy nghĩ thì mới thấy cái hay mà tác giả truyền đạt. Ấn tượng lối viết rất mới của tác giả và bị thu hút. Và điểm mà tôi tâm đắc nhất chính là cái cách con quỷ muốn tác giả xưng hô với nó. Càng ngẫm càng thấy đúng, chúng ta ai cũng tồn tại một con quỷ trong tâm hồn, ta càng nhượng bộ những thói xấu, con quỷ càng to lớn, lấn át bắt ta phục tùng lúc nào không hay!
Một cuốn sách giá trị và tôi thích cuốn sách này!
4
61823
2013-05-28 21:21:10
--------------------------
68645
9263
Tôi đã bị cuốn hút bởi tựa sách rất hay la "chiến thắng con quỷ trong bạn", tôi nghĩ nó sẽ dạy tôi rất nhiều điều để có thể thắng được "Con quỷ". nhưng không! Tất cả những gì nó mang lại là sự chán nản và thất vọng. 
Mở đầu là nói về "cái tôi khac" có vẻ lạ nhưng lời văn khó hiểu, dài dòng. tôi phải rất cố gắng để đọc tiếp phần tiếp theo, đó là cuộc trò chuyện giữa tác giả và " Con quỷ"...và cuộc trò chuyện đó không thực tế, không đem lại sự thuyết phục cho tôi. Nhũng vấn đề được nêu ra không mới...và tôi đã không còn đủ kiên nhẫn         để đọc tiếp.
3
48683
2013-04-12 19:07:04
--------------------------
62683
9263
Đây là lần đầu tiên một cuốn sách đem lại cho tôi một sự ngạc nhiên thú vị khiến tôi không thể nào đặt quyển sách xuống được. Quyển sách là một cuộc đối thoại hết sức thẳng thắn giữa hai nhân vật "Con người" và "Con quỷ" và qua những mẫu đối thoại như thế, ta hiểu thêm về cách thức con quỷ luôn chiếm ưu thế trong thế giới đẫy rẫy những lo toan và cạnh tranh khốc liệt ngày nay như thế nào. Con quỷ rất thông minh và cách nó chiểm hữu và lấp đầy con người bằng những thủ đoạn tinh vi thông qua những ý nghĩ tiêu cực của con người sẽ khiến các bạn kinh ngạc và nhận ra mình có thể đã và đang là nạn nhân của con quỷ xảo quyệt này. Đọc cuốn sách, hiểu về nó và tìm cách thoát khỏi những âm mưu của con quỷ trong chính bạn sẽ giúp bạn tìm thấy ý nghĩa và niềm hạnh phúc chân thực nhất trong cuộc đời mình.
5
19101
2013-03-10 20:31:51
--------------------------
62307
9263
Tôi rất thích một câu chuyện như thế này: bên trong tâm hồn của mỗi chúng ta đều có hai con sói: Thiện và Ác. Chúng ngày đêm cắn xé nhau để làm chủ lí trí của ta. Ta cho con nào ăn, con đó sẽ thắng!
"Chiến Thắng Con Quỷ Trong Bạn" cũng là một câu chuyện nói về cuộc chiến phía trong mỗi con người, có điều "con sói Ác" hiện lên trong tác phẩm dưới dạng "Một con Quỷ", nó tượng trưng cho mặt đen trong tâm hồn mỗi người...
Con Quỷ của  Napoleon Hill  hoàn toàn không phải là một sản phẩm tưởng tượng, chỉ là ta không bao giờ thừa nhận sự tồn tại của nó. Từng trang sách là cuộc đối thoại giữa tác giả và con Quỷ, được ghi lại với sự kịch tính trong từng con chữ!
5
58480
2013-03-08 12:17:06
--------------------------
