427291
97
Khi nhận sách mình rất, rất thất vọng. Cuốn sách khổ nhỏ mà lại dày trông không phù hợp chút nào. Giấy rất xấu, đen sì luôn ấy. Chữ in cũng nhỏ, khó đọc. Sách tiếng anh thì luôn đắt nhưng để bỏ ra 165k thì quả thật không đáng. Lần đầu tiên đặt sách trên tiki mà xấu vậy nên mình quyết định đổi trả. Thà mất 20k còn hơn là sở hữu quyển sách như thế. Được cái tiki hỗ trợ khách hàng rất nhiệt tình, đi đổi trả cũng hơi rắc rối. Vớt vát 1 sao cho tiki do thái độ phục vụ không thể chê vào đâu được
1
679442
2016-05-08 22:07:06
--------------------------
