311454
10340
Sách hay, chất lượng tốt, giá cả rẻ hơn so với bên ngoài. Tình yêu là gì mà làm ai cũng phải lao đao. Tình yêu là thứ gia vị làm cho cuộc sống thêm phong phú. Có duyên mới gặp nhau nhưng chừng đó không đủ, phải biết hòa hợp sao cho mãi mãi bên nhau, nếu không làm được như vậy thì tình yêu dễ đến nhưng cũng dễ tan, khó mà hàn gắn lại được. Cái giá phải trả cho tình yêu thật quá đắt. Cuộc sống là vậy, yêu cần phải có quá trình để cảm nhận và đó phải là một nghệ thuật. 
4
780124
2015-09-19 23:17:02
--------------------------
