573445
10513
Chất lượng sách thì ok
Nhưng nếu tôi muốn có sách ngay khi mua, không cần đợi chuyển đến, tôi muốn có tùy chọn đến kh hàng hoặc văn phòng gần nhất có hàng để lấy
5
5165172
2017-04-14 20:01:01
--------------------------
572493
10513
cuốn này nội dung giống như cuốn "cách nghĩ để thành công" nhưng nội dung diễn đạt ko hay bằng. Tôi mua cuốn 13 nguyên tắc nghĩ giàu, làm giàu" sau khi mua "Cách nghĩ để thành công" nhưng sau khi đọc vài trang đầu thì nội dung ko khác gì mấy so với cuốn kia. Để liên hệ Tiki xem có trả lại được ko?
2
1114431
2017-04-13 20:35:10
--------------------------
566053
10513
Cuốn sách vô cùng tuyệt vời, nó không chỉ giúp bạn làm giàu mà nó còn làm bạn có thể hoàn thiện bản thân và cách suy nghĩ của mình
Đây  là một trong những cuốn sách phát triển bản thân hàng đâu bất kỳ ai cũng nên đọc qua
5
2136465
2017-04-06 16:14:51
--------------------------
563205
10513
Rất hay và ý nghĩa. Là sách gối đầu giường của mọi thế hệ
5
2195440
2017-04-03 21:12:18
--------------------------
553529
10513
Sách hay, mình sẽ đọc ít nhất 3 lần quyển này. Mình tin rằng sẽ thành công, bởi vì có niềm tin mới có thành công. 
Bìa đẹp, chất lượng giấy tốt! Nhìn mà ưng ghê, lúc nào cũng muốn ngắm và khoe với mọi người!
5
5136204
2017-03-25 00:47:01
--------------------------
543605
10513
Một cuốn sách không chỉ là 13 nguyên tắc để làm giàu, mà còn là thể hiện một cách sống thật tốt, một thói quen giúp mọi người ý thức hơn và nếu chúng ta thực hiện theo thói quen ấy thì sẽ thật tốt... Napoleon Hill không chỉ nhìn nhận được xã hội từ những năm tháng ông còn sống, mà còn nhìn xa được để áp dụng cho tương lại sau này...
Thiết nghĩ, mỗi người trong chúng ta bai cũng được chỉ dẫn, áp dụng cách sống như trong cuốn sách chỉ thì thế giới sẽ chẳng còn người nghèo và kẻ xấu nữa...
5
973690
2017-03-15 17:11:09
--------------------------
525657
10513
Cuốn sách như kim chỉ nam giúp bạn ngày một gần hơn với khối tài sản mơ ước của mình cùng với những ví dụ điển hình được đúc kết từ những bậc vĩ nhân trên thế giới.
5
947376
2017-02-15 15:57:29
--------------------------
523929
10513
Vừa nhận sách nên mình đọc luôn. Giấy vàng tốt, nội dung thì ko còn gì để nói a good good good ;) 
5
696770
2017-02-12 16:48:32
--------------------------
518729
10513
Sách bự mình cứ tưởng nhỏ vừa tay cầm, Tiki bao rất gọn và đẹp. Mình nhận hàng hơi trễ tý vì ngủ quên 😭😱sorry Tiki nhiều nha 🤤 sách rất đẹp a
5
2121183
2017-02-04 12:22:49
--------------------------
518537
10513
Quyển sách rất hay, mỗi lần đọc nó tôi lại tìm được nhiều điều hữu ích,...
5
1872792
2017-02-03 22:19:07
--------------------------
517097
10513
Nó thực sự hữu ích về cách giúp bạn tư duy kế hoạch và khơi dậy mong muốn thực hiện kế hoạch cháy bỏng khơi dậy nguồn cảm hứng trong bạn. Là một cuốn sách vô cung tuyệt vời
5
1688078
2017-02-01 12:46:45
--------------------------
496536
10513
Mình đã đọc review trên Amazon.com . Mọi người đều dành nhận xét rất tốt về cuốn sách này nên mình quyết định mua . Dù mới đọc nửa cuốn sách nhưng mình nghĩ rằng sách không chỉ làm giàu cho giới trẻ mà bất cứ ai muốn vươn tới thành công đều nên đọc qua nó. Cuốn sách được kết tinh từ những kinh nghiệm , lời khuyên quý báu được tác giả chắt lọc . Ta sẽ không thấy choáng ngợp bởi nhiều lời khuyên khác nhau mà sẽ tìm cho mình một lời khuyên hữu hiệu nhất . Mình khuyên mọi người nên đọc đi đọc lại để thấm nhuần , suy nghĩ và đưa ra quyết định đúng để thực hành sau khi chiêm nghiệm xong cuốn sách.
5
781966
2016-12-19 11:06:45
--------------------------
496426
10513
Nó thực sự có ích với bản thân của tôi rất nhiều. Đây chính là một cuốn sách tuyệt vời 
5
1832845
2016-12-17 22:48:23
--------------------------
495658
10513
Mình đã đọc cuốn sách này và thật sự phải nói "Think and grow rich" đúng là 1 cuốn sách kinh điển trong những tác phẩm kinh điển.13 nguyên tắc nghĩ giàu và làm giàu quả rất thực tế,rất thuyết phục.Về hình thức thì khỏi nói,cũng rất tuyệt luôn. Đặc biệt dịch vụ của Tiki giao hàng rất nhanh :)
5
703614
2016-12-13 21:37:07
--------------------------
494341
10513
Tóm gọn lại, sách hay, cực hay và cụ thể. Sách hướng dẫn cho bạn những bước rõ ràng để đặt và thực hiện mục tiêu. Nhưng theo tôi, quan trọng vẫn là mỗi cá nhân chúng ta, nếu thật sự muốn thì sẽ tìm mọi cách để đạt được. Tôi không thích một điểm là sách toàn chữ, hơi dài dòng. Dù sao thì đây vẫn là cuốn sách nên đọc cho tất cả mọi người.
4
1092734
2016-12-06 14:52:46
--------------------------
493185
10513
Hãy đọc nếu bạn có khao khát niềm tin và  trí tuệ. Nếu không chỉ làm bạn cảm thấy thêm chùn bước thôi. Công trinh của một đời người, những kinh nghiệm để truyền cho những thế hệ kiên định, tài năng và mạnh mẽ để khởi nghiệp. Bạn có ý tường tốt, có khả năng lãnh đạo và tầm nhìn vượt thời gian thì cuốn sách chính là một trong những hành trang bạn nên mang theo. Tôi bị thu hút bởi bìa sách và tên tác giả, các bạn nên tìm hiểu một chút ông là một tác giả người Mỹ, một trong những người sáng lập nên một thể loại văn học hiện đại đó là môn "thành công học" (là khoa học về sự thành công của cá nhân).Tác phẩm được cho là nổi tiếng nhất của ông có tên "Nghĩ giàu và làm giàu" (Think and Grow Rich) là một trong những cuốn sách bán chạy nhất mọi thời đại.
Trong sự nghiệp của mình, ông cũng từng được trở thành một cố vấn cho Tổng thống Franklin D. Roosevelt. Câu nói nổi tiếng thể hiện tư tưởng của ông là "Điều gì mà tâm trí có thể nhận thức và tin tưởng thì tâm trí có thể hoàn thành". Napoleon Hill được xem là người có ảnh hưởng rộng rãi nhất, mạnh mẽ nhất trong lĩnh vực thành công cá nhân.
Hãy đọc và áp dụng thông minh, bạn sẽ có giàu về nhiều thứ, tại sao không?
tôi hi vọng bài viết sẽ có ích cho bạn, người có khát khao làm giàu!!!
5
794047
2016-11-28 17:29:28
--------------------------
486767
10513
Mình rất thích cách thiết kế của cuốn sách này từ bìa màu đen trang nhã và những dòng chữ được thiết kể nổi bật trên nền màu đen.
Những trang giấy ngã vàng rất phù hợp với bìa đen ma mị đó. 
Sách to và dày cộm rất bắt mắt.
Một cuốn sách dạy làm giàu từ những nguyên tắc bất biến trong cuộc sống.
13 nguyên tắc liên kết chặc chẽ với nhau để tạo nên một con người hoàn hảo, đó là đỉnh cao của sự thành công
Đã đọc hết và tôi sẽ còn đọc lại nhiều lần
5
1409381
2016-10-16 21:58:20
--------------------------
486654
10513
Nói chung sách quá ư là dày so với số tiền 56k đã bỏ ra. Các tips trong sách toàn là những tuyệt chiêu làm giàu. Tôi đang thử áp dụng trong học tập và đạt hiệu quả khá cao ^^ Lời lẽ sách viết có nhiều phần phải nghiệm lâu mới hiểu được rõ ý đồ tác giả. Nói chung Napoleon Hill viết sách nào cũng hay, cũng ý nghĩa .Mong là các bạn tìm mua và đọc thử :D Như Cactus Jack Barringer đã từng nói "Mua nó, bạn có một cuốn sách. Đọc nó bạn có một kế hoạch làm giàu. Làm theo kế hoạch đó, bạn có cả thế giới"
4
553523
2016-10-15 18:23:54
--------------------------
471877
10513
60k không hề phí.
Tiki giao hàng rất cẩn thận mà còn nhanh nữa. 
Với một cuốn sách 60k thì nó khá nặng, với đứa cuồng sách như mình thì càng dày càng nặng càng có cảm giác =))))
Phông chữ vừa phải, giấy cũng vừa phải, bìa đen nổi bật trong đống bìa màu mè :v
Hoàn toàn chưa đọc hoặc đôi khi lướt qua rồi quên vì không có thời gian :((
Chỉ là một đứa thích sưu tầm, cảm giác mau về chỉ trưng bày, đọc xong lại quên. nhưng có cho chọn lại mua hay không vẫn sẽ cứ mua ...
5
513917
2016-07-08 23:08:06
--------------------------
463410
10513
Từ khi bắt đầu chọn Kinh tế là ngành học đại học, bản thân mình đã nung nấu ý định làm giàu. Nhất là khi trên ghế nhà trường, thầy cô nào cũng luôn miệng bảo học Kinh tế mà đến 30 tuổi chưa có nhà lầu xe hơi là một thất bại. Ai cũng muốn mình giàu nhưng để thực hiện được điều đó là một chặng đường dài học hỏi, nghiên cứu và vượt qua những thất bại. Và mình đã bổ sung kiến thức bằng khá nhiều sách kinh tế, sách học làm giàu ... Đến quyển sách này mình thật sự thấy bổ ích và học được nhiều điều. Tác giả đã dành khoảng thời gian 25 năm để quan sát, nghiên cứu, đúc kết kinh nghiệm và viết ra quyển sách này nên phải nói nó là cả một kho tàng quý giá cho những ai mong muốn làm giàu như mình. Đọc sách mình có những thay đổi mới hơn, tích cực hơn và cũng hình dung được con đường sau này đi phải được xây dựng như thế nào. Với giá chưa đến 60 nghìn mình đã có được một quyển sách tâm đắc, hữu dụng ^^
5
63487
2016-06-29 11:33:33
--------------------------
461845
10513
Mình đã từng đọc cuốn "Suy nghĩ tích cực tạo thành công" của Napoleon Hill và có được giới thiệu đến cuốn "Nghĩ giàu làm giàu" này và mình quyết định mua ngay. Về hình thức thì sách cầm lên rất thích bởi cách trình bày bìa đẹp mắt, khổ giấy vừa vặn, chữ in rõ ràng.
Về nội dung thì quá tuyệt. Là một cuốn sách về kĩ năng sống nên sách chia sẻ những bí quyết động lực, gieo cho ta niềm tin và sách muốn ta hiểu rằng đừng ngại thử thách hay khó khăn trong cuộc sống, muốn có thành công thì hãy hành động.
Cảm ơn Tiki vì những cuốn sách hay.
5
791063
2016-06-28 06:45:52
--------------------------
458616
10513
Mua sách từ lâu nhưng chưa có thời gian viết nhân xét. Chỉ thấy thế này: cuốn sách này không phải là đọc xong giúp bạn làm giàu liền. Cái cốt yếu là định hướng của cuốn sách giúp bạn thay đổi suy nghĩ khác so với cái suy nghĩ hiện tại bạn đang nghĩ
Mới đọc 5 chương nhưng thấy rất hữu ích trong việc thay đổi tư duy. Tất nhiên để thay đổi không phải ngày 1 ngày 2 là được. Bạn cần đọc đi đọc lại quyển sách này khi thấy mình cần củng cố niềm tin và vận dụng vào tình huống cụ thể

3
938203
2016-06-25 12:25:42
--------------------------
453650
10513
Đã mua và đọc cuốn sách này vì nó được xếp vào những cuốn kinh điển và bán chạy nhất mọi thời đại. Và quả thật, những nội dung trong cuốn sách có lẽ là không bao giờ lỗi thời. 
Bài học làm giàu từ hơn 500 người nổi tiếng trên thế giới được đúc kết thành những nguyên tắc vàng, dễ đọc dễ hiểu. 
Rất tâm đắc với một số quan điểm mà càng ngẫm càng đúng về "trí tuệ vô hạn" và "nhóm trí tuệ ưu tú của tác giả". Khuyên các bạn nên tìm đọc thay vì bỏ tiền đi học các khóa học làm giàu nhanh. 

5
926008
2016-06-21 13:30:51
--------------------------
445171
10513
Mình không thích sách Thái Hà Books dịch. Cuốn 13 nguyên tắc nghĩ giàu và làm giàu Thái Hà Books không nên dịch, sách của công ty này dịch sai rất nhiều chính tả ,không phù hợp với văn hóa người Việt và không truyền tải được nội dung tác giả cần diễn đạt. Các bạn nên mua cuốn Cách nghĩ để thành công (cũng chính là cuốn sách này) do công ty First News dịch, không nên mua cuốn sách do Thái Hà Books dịch. Cuốn sách đó vừa diễn đạt được nội dung của tác giả đưa ra, phù hợp với văn hóa người Việt, không bị sai chính tả, trình bày đep, rõ ràng hơn so với cuốn sách kia.Vì thế khi mình đọc mình rất là tâm đắc, còn sách của Thái Hà dịch vừa đọc được 1 chương đã không muốn đọc nữa. Đó là lý do mình luôn yêu quý sách của First News là như vậy. Còn cuốn sách này có đáng đọc không. Câu trả lời của mình là có.
2
1349340
2016-06-09 17:24:13
--------------------------
440101
10513
Bạn phải sở hữu ngay và luôn cuốn sách thần thánh này. Đây là cuốn sách và 90% người thành công của nước Mỹ phải từng đọc qua trong đời. Cuốn sách nghiên cứu 500 người thành đạt nhất nước Mỹ và mất 20 năm để thực hiện. Đây chính là những triết lý được nghiên cứu từ thời kỳ bùng nổ của nước Mỹ và nó thật sự truyền nguồn cảm hứng vô tận cho bất kì ai có mong muốn tạo dựng sự nghiệp lớn. 
Tôi đã đọc cuốn sách này ít nhất là 5 lần và lần nào tôi cũng tràn đầy cảm hứng sau khi đọc xong. Nó còn giúp tôi phân tích bản thân mình, hiểu rõ mình đang ở đâu và cần phải làm gì để trở nên thành công hơn.
5
39844
2016-06-01 10:22:59
--------------------------
428850
10513
tuy sách đề cập đến các bước làm giàu nhưng thực sự còn ẩn chứa các bài học cuộc sống rất ý nghĩa. Rất rất nên đọc. Cách viết dễ hiểu, truyền cảm hứng rất nhiều. Nội dung thì bổ ích, không xa rời thực tế tẹo nào. Đương nhiên là không thể có chuyện ai đọc xong thực hiện theo là giàu có luôn được, nhưng áp dụng các phương pháp trong cuốn sách chắc chắn sẽ mang lại hiệu quả tích cực trong công việc, thậm chí trong quá trình thực hiện ước mơ.
Bạn nào có khả năng đọc được Tiếng Anh thì nên mua bản tiếng Anh về đọc, từ vựng và cách viết rất dễ hiểu, luyện khả năng đọc tiếng Anh nữa. 
5
1029837
2016-05-11 23:05:37
--------------------------
422378
10513
"Mua nó bạn có 1 quyển sách
Đọc nó bạn bạn có 1 kế hoạch làm giàu
Làm theo kế hoạch đó bạn có cả thế giới"
quả đúng như vậy, cuốn sách giá trị tới từng câu chữ. Những review trên mạng  và những trang mở đầu làm cho mình cực kỳ tò mò về cuốn sách. Mua về đọc thực sự không uổng phí chút nào. Tác giả đã mất đến 20 năm cuộc đời để nghiên cứu và hoàn thành cuốn sách nên khó có thể bắt bẻ được lỗi nào trong cách hành văn cũng như những lập luận của ông về vấn đề làm giàu. Cuốn sách là công trình tỉ mỉ, đầy ý nghĩa và cực kỳ đáng có trên kệ sách mỗi người.
Hà lòng về dịch vụ Bookcare của Tiki. Trông cúôn sách sáng và đẹp hơn hẳn.
4
459321
2016-04-27 07:36:44
--------------------------
399718
10513
Napoleon Hill đã giúp chúng ta nhận ra rằng mọi thứ đều xuất phát từ suy nghĩ. Nếu bạn dám nghĩ lớn kiên trì với mục tiêu của mình thì sẽ làm nên chuyện. Đây không chỉ là một cuốn sách dạy làm giàu mà còn phù hợp cho những ai nung nấu một hoài bão lớn trong mình. Tác giả đề ra những ví dụ điển hình và phương pháp cụ thể xác thực giúp ta dễ hình dung và thực hiện. Tôi rất hài lòng về cuốn sách này. Chất lượng và khổ giấy rất tốt, giá không cao nhưng nội dung sâu sắc.
5
1063122
2016-03-18 10:19:13
--------------------------
399155
10513
Một quyển sách hay đề cập đến hầu như tất cả nguyên tắc cần thiết và quan trọng nhất cho thành công. Mỗi nguyên tắc là một hướng dẫn chi tiết và khá cụ thể và sâu sắc. Đọc sách này như truyền cho ta một nguồn sức mạnh để giúp ta đạt được thành công. Ngoài ra các nguyên tắc trong sách khá đơn giản, không quá phức tạp để có thể vận dụng ngay những nguyên tắc này vào thực tế.
Nhược điểm duy nhất theo tôi là các nguyên tắc này ban đầu khá lạ lẫm và trông có vẻ kì quặc, nhiều lúc chưa phù hợp hoàn toàn với suy nghĩ của người Việt. Tuy nhiên nhìn chung đây là cuốn sách đáng mua, với cách viết đơn giàn, dễ hiểu
4
62072
2016-03-17 12:30:54
--------------------------
396532
10513
Đến tận thời điểm này tôi mới mua sách , quá muộn so với sự thành công mà nó mang lại . Cũng đã có rất nhiều người review về sách rồi nên chỉ còn đưa ra ít ý kiến cá nhân thôi : khi đọc sách những chương đầu đọc thì liên tục thấy nội dung nhắc cho ta liên tưởng đến cuốn sách " người nam châm " . Sức mạnh của bộ não từ : ước muốn , niềm tin , ý tưởng ... này  không chỉ áp dụng cho làm giàu , mà còn trong nhiều công việc khác và còn tạo ra được cuộc  sống hạnh phúc hơn .
5
1201559
2016-03-13 17:01:41
--------------------------
391600
10513
Tôi nghĩ việc cuốn sách này lại được in ấn có lẽ là do anh hưởng của phim the secret nói về suy nghĩ hay luật hấp dẫn, tôi mua về, nó thật sự không như toi mong đợi, cuốn sách chỉ nói lên nhưng cấp độ cơ bản, nếu bạn mới tiêp xúc sach tôi nghĩ bạn nên đọc cuốn sách này, vì nó khá cơ bản và dễ dang tiếp thu, nếu đã lên trình cao hơn thì bạn nên đọc Đánh thức con người phi thường trong bạn của anthoni robin, năm trong thăng 1...đó là 1 lộ trình phù hợp với bạn
4
860827
2016-03-05 17:09:17
--------------------------
388929
10513
13 Nguyên Tắc Nghĩ Giàu Làm Giàu - Think And Grow Rich là cuốn sách chắc chắn sẽ làm hài lòng bạn. Sách không chỉ giúp bạn giàu về vật chất mà còn cả về mọi lĩnh vực trong cuộc sống. Sẽ có những nguyên tắc, kế hoạch giúp bạn trở nên giàu có với tất cả mọi thứ. Cả thế giới như đang nắm trong tầm tay bạn.  Tôi đã thử áp dụng những nguyên tắc đó, và nhiều lúc đã có những kết quả không ngờ. Cuốn sách dày đôi khi sẽ khiến bạn phát chán nhưng nếu kiên nhẫn bạn sẽ tìm được một món quà vô giá.
5
586122
2016-02-29 22:57:35
--------------------------
383092
10513
Vê phần nổi tiếng và quan trọng của cuốn sách này thì quá rõ ràng,quyển sách thật sự đã đồng hành cùng bao người trong chặn đường đời.

Tác giả đã hy sinh những năm tháng tuổi trẻ cua mình để tìm hiểu xem đâu là công thức cuả thành công,đâu là điều giúp những người rất đỗi binh thường nhưng lại làm được những điều phi thường.Qua năm tháng dày công tìm kiếm,ông đã đưa ra được 13 nguyên tắc.Chắn chắn không ai có thể học hết 13 nguyên tắc nhưng cái quan trọng là những bài học thực tiễn mà do chính tác giả trải nghiệm mà viết vào,giúp người đọc như đang được trò chuyện trực tiếp với ông và nhưng vĩ nhân của ông

Sách:giấy vàng,gáy bằng,
4
93846
2016-02-20 09:12:20
--------------------------
382004
10513
Đọc sách cảm thấy cực kỳ khâm phục tác giả vì sự nghiên cứu kỹ lưỡng của ông về những người nổi tiếng trong lịch sử. Bản thân mình cũng rút ra được nhiều bài học thông qua sách. 
Bài học mình rút ra từ cuốn này là làm việc gì cũng phải có tâm huyết, đầu tư và nghiên cứu. Luôn lên kế hoạch cho bản thân. ngắn hạn, dài hạn. Đặt ra các mục tiêu nhất định để hoàn thiện. 
Cách làm khoa học sẽ giúp mình thực hiện tốt các kế hoạch đã đề ra.
Chúc các bạn thấy bổ ích từ cuốn sách.
5
553752
2016-02-18 13:54:59
--------------------------
377131
10513
Mình vừa hoàn thành xong cuốn sách và hoàn toàn tuyệt vời. Không chỉ viết về làm giàu đơn thuần mà còn viết về những tiềm thức, ý thức và trí thức, khả năng điều khiển nó của con người. MÌnh không thể nào dùng nhiều từ để mô tả vì điều đó được minh chứng qua hàng ngàn lần xuất bản và tái xuất bản. 
Sức mạnh nhận thức, mong muốn cháy bỏng, tư duy để thành công, quyết định kiên nhẫn để chờ đợi cho đến khi nhận được điều anh tìm kiếm, mục đích rõ ràng, biết điều mình muốn và quyết tâm theo đuổi theo đuổi mong ước đó đến cùng. Nếu đây là điều bạn tìm kiếm thì đây là cuốn sách cho bạn
5
383240
2016-02-01 18:15:13
--------------------------
373834
10513
-Nó không chỉ là 1 cuốn sách hay mà đấy chính là bảo bối cho những ai muốn làm giàu. Chỉ cần áp dụng theo công thức có sẵn trong cuốn sách, bạn sẽ là 1 người thành công trong tương lai :))))))))))).
-Sách hấp dẫn ngay từ những trang đầu, nhưng mà tôi khuyên các bạn 1 điều như thế này, nếu ai có quyết tâm thay đổi thì hãy sử dụng sách này nhé, còn không muốn hay không sẵn sàng thì t khuyên nên từ bỏ ý định đọc cuốn sách bổ ích này đi. 
-Sách này không chỉ áp dụng để kiếm tiền mà mọi công thức của nó cũng có thể áp dụng mọi mặt trong đời sống này, bạn muốn bạn áp dụng, bạn thành công
5
719986
2016-01-24 20:33:06
--------------------------
357585
10513
Tôi biết đến cuốn sách này qua một người thầy. Và phải nói rằng: Cuốn sách thật sự rất hay. Những nguyên tắc lạ kì tưởng chừng chỉ có trong những bộ phim giả tưởng, những câu chuyện dường như vô lý...tất cả đều trở thành hiện thực. Và khi đọc nó, bạn sẽ thấy một thế giới mới đang mở ra trước mắt. Thành công không phải dựa trên sự xô bồ của xã hội, không phải dựa trên sự bóc lột người yếu thế, càng không phải dựa trên những yếu tố bên ngoài. Hãy đóng máy lại, ngưng lướt web rồi thở dài ngao ngán đi, hãy thử đọc nó và rồi bạn sẽ nhận ra rằng: bí quyết thành công, nó nằm ngay trong con người bạn! 
5
870896
2015-12-23 20:41:51
--------------------------
352632
10513
Một bước ngoặt lớn khi tham gia vào các công tác trọng nghĩa như làm giàu qua sách giảng giải của nhà kinh tế thế giới , hướng đi đầy sự bảo thủ và quyết đoán , không trộn lẫn hay giống các phương pháp khác của nhà lãnh đạo tài ba , có lối tư duy mạch lạc đầy khôn khéo , ít sư gò bó , mang một ý nghĩa tầm cao mới đầy cải cách , tác giả có nhiều điều sáng suốt khiến mình học ra lỗi căn bản nhất mà vướng phải đều phản lại tác dụng .
4
402468
2015-12-14 20:39:28
--------------------------
340495
10513
Lúc đầu mua sách cũng vì thấy sách được review nhiều, và được bạn bè giới thiệu. Cảm nhận ban đầu khi cầm sách trên tay, bìa đẹp, lướt qua thì hình thức rất ổn. Đọc tới trang cuối, các nguyên tắc được sắp xếp và trình bày rõ ràng. Thật sự, đọc xong thì với riêng bản thân kêu vận dụng để làm giàu thì chắc không được rồi nhưng lại giúp ích rất nhiều trong công việc hiện tại, cải thiện đáng kể suy nghĩ, thái độ đối với công việc, tăng thêm nhiều kiến thức, kỹ năng cũng tốt.
4
350180
2015-11-20 00:14:57
--------------------------
339984
10513
Cuốn sách được thiết kế hài hòa với sự làm việc chuyên nghiệp của Tiki nên rất có hứng thú khi đọc.Đọc cuốn sách này mình thấy rất hay và ý nghĩa giúp mình nhiều trong lĩnh vững học tập cũng như tư duy,nhận thức về kinh doanh. Với 25 năm nghiên cứu tác giả đã đưa ra 13 nguyên tắc như Mong muốn,Niềm tin, Tự ám thị,Kiến thức chuyên sâu....đặc biệt là phần kết"loại bỏ sáu bóng ma sợ hãi" những nỗi sợ cơ bản của con người như nỗi sợ chết,sợ mất tiền,sợ tuổi già.... Thực sự đây là cuốn sách nên đọc. Cuốn sách không chỉ có hiệu quả trong lĩnh vực kinh doanh mà bất cứ ngành nghề nào cũng có thể đọc .
5
622617
2015-11-18 23:50:21
--------------------------
339509
10513
sự thật thì , tôi mới đọc tới trang 299 , nhưng mỗi ngày tôi đều đọc lại chương "TỰ ÁM THỊ" , tuy là mất nhiều thời gian , nhưng sự thật là mỗi lần đọc chương đó tôi lại cảm thấy hừng hực khí thế , sẵn sàng cho 1 ngày làm việc , cám ơn tác giả rất nhiều , và thực sự rất cám ơn nhóm dịch , vì mình thấy quyển sách này hơi thiên về Triết học  nhung dịch từ bản Anh sang Việt như vậy thật quá hay và giỏi, dichj hay , trơn tru , tuy nhiên vì nó hơi triết lí nên khi đọc cũng hơi khó hiểu vài chỗ , nhưng như tác giả nói , HÃY ĐỌC ÍT NHẤT 3 LẦN thì cũng thấm thôi.
 
5
900036
2015-11-18 09:34:39
--------------------------
337805
10513
Mình đã bắt đầu đọc ngay sau khi nhận được sách. Ngay từ lời mở đầu đã cuốn hút tò mò của mình, và mình đã đọc hết chương đầu tiên và cũng là nguyên tắc đầu tiên của THINK AND GROW RICH thì cảm nhận của mình chính là quá tuyệt.
 Tác giả viết ' không có gì là không thể, khi con người có ước muốn và tiền tin bền bỉ ' thôi thúc mình phải nuôi giữ ước muốn tới cùng. Mong muốn mãnh liệt sẽ mang đến thành công ^^. 
Cô giáo mình đã giới thiệu cuốn sách này cho mình đọc và mình cảm thấy không hề lãng phí tí nào mà còn ngược lại rất tốt cho suy nghĩ và lý tưởng của mình. Cô cứ bảo: người ta đã bỏ ra biết bao hiểu biết, kinh nghiệm,,, của biết bao nhiêu năm kết thành sách tại sao chúng ta không đọc chúng chứ?. Qủa thật điều này nên và rất phải khi chúng ta làm vậy. 
5
940348
2015-11-14 19:26:54
--------------------------
332459
10513
Trước tiên mình nhận xét về cách bảo quản sách của tiki cuốn sách của mình tuy là sách mới nhưng phần bị sao có rất nhiều vết trầy xước và nhìn rất cũ mình nghĩ tiki nên lưu ý về điều này. Cuốn sách đem lại cho mình rất nhiều trải nghiệm thú vị thật không hội hận khi mua cuốn sách này, theo quan điểm của mình không nhất thiết cuốn sách này chỉ dành cho những nhà kinh doanh nếu bạn muốn thay đổi bản thân và chứng minh khả năng của mình mình nghĩ đây là một cuốn sách rất đáng để thử. Đây sẽ là cuốn sách gối đầu giường của mình!
5
83343
2015-11-06 13:13:14
--------------------------
332174
10513
Mình biết cuốn sách này qua một người thầy của mình, quả thật cuốn sách rất hay, mỗi chương trong cuốn sách đều đề cập đến bí quyết kiếm tiền và kĩ năng ứng xử phù hợp trong cuộc sống. cuốn sách như một công thức để đạt được thành công trong công việc cũng như trên các lĩnh vực trong cuộc sống. cách viết sách của Napoleon Hill rất logic, mạch lạc, dễ hiểu, dễ áp dụng cho thực tiễn. tóm lại mình khuyên các bạn đang muốn làm giàu hoặc thành công thì không thể thiếu quyển sách bảo bối này được.
¨ THINK AND GROW RICH...MUA NÓ...BẠN CÓ MỘT CUỐN SÁCH. ĐỌC NÓ...BẠN CÓ MỘT KẾ HOẠCH LÀM GIÀU. LÀM THEO KẾ HOẠCH ĐÓ...BẠN CÓ CẢ THẾ GIỚI!¨
5
744062
2015-11-05 20:55:38
--------------------------
331812
10513
Đây là 1 trong những cuốn sách hay nhất mà tôi đã từng đọc. 
Tỉ mỉ, sâu sắc, chi tiết và hoàn toàn biến giấc mơ làm giàu của bạn thành có thể. Đây là một cuốn sách tuyệt vời.
13 nguyên tắc làm giàu của tác giả  giúp mình có được tư duy để trở lên giàu có trong bất kì lĩnh vực nào của cuộc sống. nếu bạn đang bế tắc tìm phương hướng để thay đổi bản thân thì đây chính là kim chỉ nan của bạn. Hãy hành động để sở hữu kim chỉ nan và thay đổi bản thân. chúc bạn thành công 
5
721433
2015-11-05 09:26:39
--------------------------
330912
10513
Bản thân mình đã đọc nó hơn 3 lần, cứ tầm 3 tháng mình lại đọc lại nó; phải nói rằng giá trị tinh thần mang lại luôn cao ngất. Nhiều khi thấy mình hơi quên mục tiêu, hơi lạc hướng; lại lôi sách ra đọc.

Để thấm nhuần và có thể triển khai được, mình tin chắc bạn cũng phải đọc đi đọc lại nhiều lần. Cuốn này và "đắc nhân tâm" là 2 cuốn gối đầu giường của mình. Mình đã từng khuyên 1 đứa nhóc trong công ty khi bạn đó hỏi nên bắt đầu đọc từ cuốn. Và giờ thì em ấy có thói quen đọc sách

Như bao bạn khác, mình đặc biệt gởi lời cảm ơn đến tác giả vì giá trị mà ông mang lại đến tận bây giờ. Bạn có thể hối hận hay dễ nhàm chán ở cuốn khác, nhưng mình tin rằng ở cuốn này sẽ không xảy ra trường hợp ấy.
5
86876
2015-11-03 16:33:42
--------------------------
330115
10513
Đây là lần thứ hai tôi được đọc cuốn sách này. Lần đầu là phải đọc trên điện thoại và khi đọc xong tôi quyết định phải mua nó. Một tâm huyết của tác giả. Nếu muốn giàu có trước tiên ta phải có một mong muốn mãnh liệt. Mong muốn đó giúp ta có quyết tâm để thực hiện. Tác giả đã dành hơn hai mươi năm để cho ra đời một tác phẩm mà ai trong chúng ta cũng đều mơ ước đạt được. Với những nguyên tắc làm giàu trên góp phần cho sự thành công của biết bao người. Đây thực sự là tác phẩm kinh điển nhất trong những tác phẩm kinh điển!
5
702724
2015-11-01 23:50:29
--------------------------
329956
10513
Ban đầu rất phân vân mua cuốn này vì có nhiều sách đề tựa na ná Think and Grow Rich. Chính việc này làm tôi ban đầu cũng rối không biết cuốn nào mới chính xác nhất.

Khi cầm cuốn sách trên tay, tôi rất ngạc nhiên về kích cỡ và trọng lượng khá dày của nó. Do  ít để ý thông số kỹ thuật mà ra.

Càng đọc tôi càng bị lôi cuốn và đến nay tôi sẽ quyết tâm đó là cuốn sách để mình đọc đi đọc lại nhiều lần. Có những vấn đề sách nêu ra vẫn còn nguyên giá trị cho những cuốn sách nội dung tương tự như vậy sau này. Và có nhiều nội dung sách ra đời 1937 mà tôi liên tưởng lại giống Việt Nam bây giờ, đơn cử ông nói về phong cách lãnh đạo mới, con người làm việc mới,....

Những vấn đề ông đưa ra thật cần thiết cho mỗi con người chúng ta. Quan trọng là chúng ta đọc xong để đó hay quyết tâm học hỏi theo.

Muốn làm giàu thì hãy thay đổi con người mình đầu tiên. Kiểm soát cảm xúc, tiềm thức của mình....

Chỉ tiếc là phần bố cục sách nên tách ra những đoạn riêng biệt của tác giả sẽ dễ đọc hơn, chất lượng giấy nên tốt hơn nữa.
5
781642
2015-11-01 19:18:33
--------------------------
329588
10513
Tác giả có cách viết rất chân thật và miêu tả sâu sắc thực tế từng vấn đề 1, ngoài ra ông còn cho thấy được để đi đến thành công phải thông qua nhiều khía cạnh như: giao tiếp, phép đối nhân xử thế, lòng tin và ý chí không gục ngã. Napoleon Hill có 1 đầu óc chiến lược vĩ đại, có tầm nhìn xa trông rộng, cuốn sách của ông đã thay đổi cách tư duy làm giàu của biết bao nhiêu người, giúp họ thành công trong cuộc sống của mình. Tôi rất thích cuốn sách này. 
5
792632
2015-11-01 00:58:08
--------------------------
328670
10513
Những câu chuyện, bài học trong cuốn sách thực sự rất bổ ích cho bất cứ ai muốn làm giàu nhưng cảm thấy đang bế tắc. Những nguyên tắc được trình bày trong cuốn sách sẽ làm bạn phải ngạc nhiên vì độ hiệu quả của nó. Áp dụng triệt để những gì cuốn sách muốn truyền đạt cho bạn sẽ hỗ trợ bạn vô cùng đắc lực để con đường thành công của bạn được phần nào dễ dàng hơn. Nếu bạn muốn thay đổi bản thân,  trở nên giàu có hơn, hãy đọc ngay cuốn sách này nhé.
5
642968
2015-10-30 10:50:24
--------------------------
325473
10513
Cuốn sách nói về các nguyên tắc biến ước mơ làm giàu (kiếm được số tiền trong mơ) nhưng tác giả Napoleon Hill đã không thôi nhấn mạnh rằng đây cũng là các nguyên tắc cơ bản nhất, hoàn hảo nhất, và là những nguyên tắc duy nhất có thể biến mọi mong ước cả về vật chất lẫn tinh thần trong bất cứ lĩnh vực, khía cạnh nào trong cuộc sống thành hiện thực, để những ước mơ không mãi chỉ là mơ ước. Với riêng mình, cuốn sách đã tạo dựng hình hài bước đi dẫn đến mong ước, thay đổi nhận thức trong bản thân, tiếp thêm niềm tin và sức mạnh trên con đường tiến đến ước mơ. Giờ đây, mỗi khi nản lòng, chán nản, cảm giác bất lực mình lại lấy sách ra đọc và lấy lại niềm tin. đúng là: 
" MUA NÓ BẠN CÓ MỘT CUỐN SÁCH, 
ĐỌC NÓ BẠN CÓ MỘT KẾ HOẠCH LÀM GIÀU, 
LÀM THEO KẾ HOẠCH ĐÓ BẠN CÓ CẢ THẾ GIỚI"
5
600542
2015-10-23 17:14:15
--------------------------
324475
10513
13 Nguyên Tắc Nghĩ Giàu Làm Giàu - Think And Grow Rich là một cuốn sách tuyệt vời, cuốn sách chính là thứ tôi đã kiếm tìm bấy lâu.
Cuốn sách là tập hợp những câu chuyện về những nhà kinh doanh hàng đầu- đó có thể là những thất bại họ đã một thời trải qua, cũng có khi là những kinh nghiệm để đời của bao thế hệ.
Cuốn sách như một người thầy tâm huyết cho bao thế hệ, đặc biệt là cho những ai đang trăn trở nỗi lo làm giàu...Phải bắt đầu từ đâu? Phải làm sao? Làm như thế nào? Và cần những gì?
Nói tóm lại,,, tôi nghĩ tác giả Napoleon Hill và cuốn sách đã thực sự thành công khi đã đốt cháy ngọn lửa niềm tin, nhiệt huyết làm giàu trong tôi.
5
702741
2015-10-21 11:18:28
--------------------------
323445
10513
Mình đã từng nghe nhiều lời ca ngợi về những lợi ích của quyển sách này, đồng thời ở những trang đầu cũng có phần nhận xét của các nhà lãnh đạo, doanh nhân thành đạt về việc những nguyên tắc trong đó đã giúp họ thế nào. Tuy nhiên không biết có phải do xuất bản đã lâu và những nguyên tắc đó đã được truyền đạt lại bằng nhiều quyển sách khác hay không nên mình cảm thấy nó cũng bình thường ( cũng có thể mình "đầu đất" chưa hiểu hết giá trị của nó ) Nhưng mình sẽ đọc lại nó vài lần nữa....
3
815542
2015-10-18 20:19:10
--------------------------
323357
10513
1. Bìa sách và giấy in thì khá ổn
2. Napoleon Hill có những cuốn sách rất là hay và cực kì ý nghĩa. Là người từng trải và tiếp thu kiến thức từ những người thành công, nên ông đã đúc kết lại những cuốn sách làm Kim chỉ nam cho thế hệ trẻ chúng ta học tập và trau dồi kiến thức. Cuốn sách là những cái cơ bản nhất về các bước làm giàu mà ông đã đúc kết từ những người thành công! Vì thế ai muốn làm giàu và tìm hiểu thì nên mua cuốn sách này!
5
608283
2015-10-18 15:02:36
--------------------------
321560
10513
Quyển này đọc hơi có vẻ khó hiểu, khi đọc sách này hơi buồn ngủ, thích hợp đọc trước khi đi ngủ. Tuy nhiên khi đọc quyển này tôi cũng rút ra một số điều hay trong cuộc sống. Điều hay nhất trong quyển sách là những điều phi thường mà tác giả viết ra mang tính thời đại như bàn về những quan niệm quản lý nhóm, dịch vụ chăm sóc khách hàng hoàn hảo, những công cụ hữu hình, trí tuệ tập thể và mục tiêu cần được viết ra trước khi hành động. Sách này có thể thay đổi suy nghĩ của nhiều người.


4
812657
2015-10-14 11:14:08
--------------------------
319394
10513
Trung Nguyên tặng mình cuốn này. Phải nói là những cuốn Trung Nguyên tặng phải nói rất hay, mình đọc hết rồi, còn mỗi cuốn Khuyến học chưa đọc thôi.
Có thể nói đây là cuốn sách bắt đầu sự nghiệp đọc sách của mình: Một buổi tối buồn chán, thất vọng vì sự vô tài của bản thân, stesss vì công việc thì mình lật cuốn này ra đọc, may mắn thay mình tạo lập được thói quen đọc sách vì mỗi ngày phải đọc cuốn này rồi phát triển lên )
Một bài học xuyên suốt cuốn sách mà mình cảm nhận được là: Khi bản thân mình muốn làm việc gì đó thực sự, thì tự bản thân sẽ '"bốc ra'" tâm huyết, ý chí để đạt được mục tiêu và ảnh hưởng tới người khác.
đây chính là cuốn sách để thay đổi suy nghĩ, suy nghĩ tích cực hơn, có chí hướng hơn và THINK BIG.
Một trong những cuốn sách ưa thích của mình, động lực của mình để có thể mơ lớn, và thực hiện nó.
Cảm ơn Trung Nguyên, cảm ơn Nghĩ Giàu Làm Giàu
4
80996
2015-10-08 16:42:11
--------------------------
319152
10513
Cuốn sách rất hay, nó là những gì chắt lọc ở một tác giả, dành cả cuộc đời mình để tìm hiểu những nguyên tắc thành công. Đây cũng là cuốn sách đầu tiên về khoa học thành công, khoa học làm giàu, những cuốn sách sau này, những tác giả sau này viết về tư duy thành công đều chịu ảnh hưởng ít nhiều từ đây.
Đọc được cuốn sách là một điều tuyệt vời vì bạn là một trong 1% dân số thế giới được đọc những cuốn sách như thế này, nhưng áp dụng được nó là cả một quá trình, và nếu không quyết tâm áp dụng thì tất cả chỉ là sự hão huyền.
5
818208
2015-10-07 23:43:39
--------------------------
313340
10513
Bất cứ khi làm việc gì trong cuộc sống chúng ta đều cần niềm tin. 13 nguyên tắc nghĩ giàu và làm giàu giúp bạn định hướng và có thêm động lực để vươn lên làm giàu. Tuy nhiên, theo quan điểm cá nhân của tôi, khi đọc quyển sách cần phải suy nghĩ thật sâu sắc mới có thể hiểu hết được nội dung mà tác giả muốn truyền đạt tới người đọc. Nội dung khá hay và ý nghĩa, xứng đáng là 1 trong những cuốn sách học làm giàu của bất kỳ ai đặc biệt là giới trẻ.
4
468287
2015-09-23 13:27:01
--------------------------
311111
10513
Mình nghĩ đây là cuốn sách gối đầu giường của rất nhiều bạn vì đây thực sự là một cuốn sách có bổ ích cho người trẻ. 13 nguyên tắc nghĩ giàu và làm giàu là những chắt lọc của tác giả trong suốt 20 năm của tác giả, sách lại có trật tự trình bày rất chặt chẽ, lần lượt đề ra 13 nguyên tắc quan trọng của một người thành công. Hơn nữa sách lại tập hợp rất nhiều câu chuyện có thật của những người thành công nên sẽ tạo cảm hứng hành động cho người đọc.
4
105510
2015-09-19 21:33:19
--------------------------
310076
10513
THINK AND GROW RICH là một quyển sách tuyệt vời. Mỗi người chúng ta có những niềm đam mê riêng , có những sở thích riêng sống với niềm đam mê, không  ngừng nâng cao giá trị bản thân. Nếu chúng ta nắm vững 13 nguyên tắc làm giàu, có ý chí quyết tâm cao độ thì hoàn toàn có thể là một triệu phú tiếp theo sau những triệu phú đã làm giàu sau khi đọc quyển sách này.Cá nhân tôi thấy quyển sách có nội dung tuyệt vời,sâu sắc và phải suy ngẫm thật lâu mới hiểu hết được ý nghĩa của nó,ngoài ra chất lượng giấy và bìa cũng khá tốt.Thank TIKI
5
720449
2015-09-19 12:05:47
--------------------------
309135
10513
Chào các bạn. Một năm trước tôi là người..chẳng bao giờ đọc sách nhưng chẳng biết cơ duyên nào mà tôi lại được đọc những quyển sách hay như Tôi thành công và bạn cũng thế, 13 nguyên tắc làm giàu, Khuyến học,.. Tất cả những quyển trên thật sự rất hay mà tác giả muốn gửi đến mọi người. 
Riêng về 13 nguyên tắc làm giàu thì tôi phải khen vì nó quá là khó hiểu, khó hiểu đến mức tôi phải đọc vấn đề này lại đôi ba lần mới hiểu. Nhưng nó hay! Chỉ vậy thôi. Từ một con người chưa định hướng về tương lai, tôi đã mạnh dạng lên vào có hoài bảo cho riêng mình. Các bạn nếu là sinh viên thì phải đọc, đọc không hiểu thì đọc lại, tin tôi đi, bạn không uổng công sức đâu.
5
498043
2015-09-18 22:24:49
--------------------------
308379
10513
Cuối cùng cũng mua em nó,nghe giang hồ đồn hơi bị ghê mà đúng thiệt, đã đọc gần nữa cuốn rồi hơi bị hay ,cảm nhận được sự tích cực trong suy nghĩ nhưng chắc cũng  mang hơi hướng của phương tây quá,nội dung thì rất OK nhưng sách lần này hình như in hơi bị lem với hơi ố nên nhìn không được mới gì hết hix , tiki lần sau xem kỹ giúp khách nha.Dù sao thì giao hàng nhanh với bao bì kỹ rất thích phong cách đó ,cảm ơn phát huy cho những bộ sách này nhiều nhiều nha ad:D
4
701850
2015-09-18 17:21:49
--------------------------
307991
10513
Từ lúc là sinh viên năm 2, mình đã được 1 anh rất tài giỏi giới thiệu đọc cuốn sách này, nhưng chần chừ mãi đến 2 năm sau mới mua đọc. Và mình nghĩ cơ duyên này đến ngay lúc mình sẵn sàng để đón nhận nó nhất.
Mọi thành công trong cuộc sống không là gì nếu như chính bạn không trở nên thành công trong cuộc chiến với bản thân mình.
Mình nói điều này nghĩa là Cuốn sách thật sự vô cùng xuất sắc nhưng bạn phải thực hành, phải áp dụng chứ không phải đọc xong rồi hứng khởi được vài ngay và chấm hết, trở lại cuộc sống thường ngày.
Cuốn sách sẽ giúp bạn tự trui rèn bản thân, mở ra những tầm nhìn sâu rộng và nỗi khao khát, ước muốn cháy bỏng phải hành động để có được thành công.
Cảm ơn tiki đã mang những tác phẩm kinh điển xuất sắc đến với độc giả.

5
525378
2015-09-18 13:51:58
--------------------------
303164
10513
Tôi được giới thiệu mua cuốn sách này là từ một người anh đang học cùng trường với tôi, một người anh rất tài rất giỏi. Là một sinh viên kinh tế nên tôi luôn muốn tìm tòi đọc những cuốn sách kỹ năng sống, sách kinh tế để bồi bổ cho kho tàng kiến thức của riêng  bản thân mình. Cuốn sách không hề làm tôi thất vộng với những giá trị nó mang lại, mở ra cho tôi một tầm nhìn mới, xa hơn, rộng hơn. Cuốn sách rèn luyện cho tôi một ý chí kiên cường, không bỏ cuộc trước mọi thứ. Cuốn sách chính là kim chỉ nam của sự thành công.
5
126861
2015-09-15 18:14:27
--------------------------
299981
10513
Think And Grow Rich là một cuốn sách được viết và nổi tiếng từ lâu, đã truyền cảm hứng cho rất nhiều người thực hiện thành công ước mơ của mình. Sách không chỉ dạy riêng cách kiếm tiền làm giàu mà mục đích chính là khuyến khích thực hiện điều bạn mong muốn. Sách đẹp, giấy tốt. Nhưng có điều mình không hiểu là nó cứ lặp đi lặp lại mà ít khi nói vào vấn đề chính, có lẽ đó là cách để não bộ dễ tiếp thu chăng. Mình không hi vọng kiếm được nhiều tiền, nhưng hi vọng làm theo cuốn sách này sẽ đạt được ước mơ của mình hehe.
4
169755
2015-09-13 17:01:32
--------------------------
298134
10513
Minh đã biết đến quyển sách này vì được một người anh giới thiệu , và mình đã tìm thấy nó trên tiki . Mình rất ấn tượng với quyển sách này , cả về hình thức lần nội dung . Về hình thức , sách có trang bìa rất bắt mắt , còn bên trong thì chất liệu giấy rất tốt . Về nội dung thì không cần bàn cãi nữa , đây là một quyển sách nổi tiếng của N. Hill , nội dung của nó đã được bạn đọc trên khắp thế giới đánh giá cao , và mình cũng thế  . Sách rất thích hợp cho các bạn học sinh , sinh viên như mình . Giá ngoài nhà sách khá cao , nhưng nếu mua ở tiki thì mức giá rất mềm . Cảm ơn Tiki vì quyển sách này . Mình sẽ tiếp tục ủng hộ tiki . 


5
650543
2015-09-12 14:16:48
--------------------------
297257
10513
Là sinh viên kinh tế thì mình thấy quyển sách rất đáng đọc , là động lực cũng như tâm đắc của tác giả trên con đường thành công . Sau khi nắm vững 13 nguyên tắc , chúng ta – hoàn toàn không mê tín – sẽ nhận thấy rằng: Với sự trợ giúp của giác quan thứ sáu, chúng ta sẽ được cảnh báo kịp thời về những hiểm nguy sắp xảy ra để kịp thời né tránh, cũng như được thông báo về những cơ hội để nắm bắt và làm giàu.Tuy nhiên việc làm giàu được hay không thì cũng còn tuỳ khả năng mỗi người.
5
477813
2015-09-11 18:17:11
--------------------------
294566
10513
Tôi mua nó qua lời giới thiệu của một người anh hiện đang rất thành công. Anh ấy nói thành công là nhờ quyển sách này. Anh ấy đọc quyển sách này từ 5 năm trước và đến giờ vẩn đọc. Anh ấy nói nó là liều thuốc mỗi ngày để giúp anh ấy thành công. Ban đầu tôi không tin, nhưng khi tôi thử mua và đọc quyển sách này, tôi thấy thật sự nó rất hay, nó giúp những người đang bế tắc trong con đường lựa chon tương lao để có được thành công. Càng đọc càng cuốn hút. Tôi thấy nó đã giúp ích tôi rất nhiều, tôi sẽ áp dụng cách đọc của anh tôi. Tôi hy vong đạt được kết quả như mong muốn. Rất cám ơn tác giả đã cho ra đời 1 tác phẩm như thế
5
225624
2015-09-09 14:36:36
--------------------------
293854
10513
13 Nguyên Tắc Nghĩ Giàu Làm Giàu - Think And Grow Rich là cuốn sách hay và cần thiết cho nhiều bạn. Đặc biệt những bạn trẻ đang cần tìm kiếm động lực sống, hướng đi, cũng như là con đường lập nghiệp cho chính bản thân. Và mình - một người trẻ sau khi được đọc cuốn sách này thì đã nhận ra được nhiều điều hay, nhiều bài học ý nghĩa cho cuộc sống hiện tại. Nhận ra được đâu là lối đi chính xác cho bản thân. Nói chung nội dung sách rất hoàn hảo, còn xét về hình thức thì hoàn hảo hơn. Nào là chất lượng mực in tốt, bìa dày, trang trí đẹp ..v.v
5
702247
2015-09-08 19:53:14
--------------------------
293520
10513
Thật sự thì nếu bạn có thể chi tiền cho những cuốn sách khác, nhưng đối với mình, để tìm kiếm được những nguyên tắc thành công trong cuốn sách này thì rất khó. Vì nó là cả một quá trình nghiên cứu mấy chục năm, của mấy trăm doanh nghiệp, công ty hàng đầu thế giới.
Nói vậy chứ, mình đã đọc bản gốc, giờ bản chỉnh sửa này có thay đổi đôi chút nhưng bìa sách vẫn vậy, nội dung vẫn xoanh quanh những vấn đề cũ - của những con người thành công. Sách in chất lượng tốt, không bị lem chữ.
Cuốn sách thật sự đáng để mọi người muốn làm giàu, làm chủ sự nghiệp nên đọc.
5
420871
2015-09-08 13:43:31
--------------------------
293505
10513
Mình đã đọc rất nhiều sách của Napoleon Hill và hầu hết đều là những cuốn cẩm nang làm giàu xuất sắc, cuốn sách này là 1 trong 4 cuốn sách được mệnh danh là "kinh Thánh để thành công". Tác giả đã rất khéo léo trong việc tổng hợp tất cả các kiến thức về thành công và làm giàu của cả sự nghiệp để đúc kết thành tuyệt tác "Think and grow rich", cuốn sách này giống như là bản thu gọn của tất cả các cuốn sách dạy về nghệ thuật làm giàu và cách để thành công trong công việc, cuộc sống - quyển sách giới thiệu và phân tích cực kì hợp lý, chặt chẽ đến mức khó tin làm cho người đọc bị thu hút cực kì. Tuy sách rất hay nhưng lần này Tiki giao hàng hơi muộn (hơn 1 tuần) và phần bìa sách hơi bị nhăn, mong Tiki sẽ sớm khắc phục để hoàn thiện hơn.
5
644564
2015-09-08 13:34:06
--------------------------
293004
10513
nếu bạn đang tự hỏi tại sao mình đã đọc rất nhiều sách, tham gia rất nhiều khóa học nhưng đâu lại vào đấy, chưa đạt được những thành công như mình mong muốn? đây sẽ là câu trả lời  hữu ích nhất dành cho bạn. Cuốn sách "13 nguyên tắc nghĩ giàu & làm giàu" này đúc kết bởi 25 năm nghiên cứu hơn 500 cá nhân tập đoàn thành công tại Mỹ, đưa ra cho nhân loại những công thức làm giàu khôn ngoan mà hiệu quả nhất. vậy bạn đã sẵn sàng để trả giá để đầu tư cho sự thành công của bản thân mình???
5
715394
2015-09-07 21:30:01
--------------------------
290974
10513
Chắc hẳn sẽ có rất nhiều người khi đọc quyển sách này sẽ cảm thấy hơi khó hiểu và không mấy gì đặc sắc .Nhưng đó là do họ chưa đủ thông thái để "hấp thu" và cũng là câu nói đó:"Bạn cảm thấy quyển sách này không mấy gì đặc biệt , vì những qui tắc trong cuốn sách này đã quá dõi quen thuộc với mỗi chúng ta rồi, bởi vì đây chính là 13 nguyên tắc quan trọng của hầu hết tất cả những người thành công.Và nó được chúng ta biết đến khi đọc những cuốn sách nói đến thành công khác, tác giả đã nghiên cứu và đúc kết lại cho chúng ta."Điều này không quan trọng , quan trọng chính là khi đọc cuốn sách này , tôi như được khơi dậy nguồn cảm hứng.Khi đọc cuốn sách này tôi không chỉ được biết đến những nguyên tắc thành công mà còn biết được những điều khiến cho mình thất bại.Hơn nữa , cuốn sách thật sự hấp dẫn tôi vì nó rất thuyết phục , ngoài những dẫn chứng thực tế ra tác giả còn lấy mình làm dẫn chứng ,nghĩa là tác giả đã áp dụng chính nguyên tắc của mình để minh chứng rằng ông không hề bịa đặt ,bất cứ thứ gì ông đề cập đến điều là thực và ông cũng là người từng áp dụng những nguyên tắc này nên ông thấu hiểu chúng, và chỉ cho ta cách tốt nhất để khắc phục và phát huy những điểm yếu cũng như những yếu điểm của mình.Tôi thích quyển sách này cũng chính là ở điểm này.
P/s:Và chỉ với 600000 mà bạn mua được "thành công" thì đây quả là quá hời rồi.:))
5
22795
2015-09-05 22:25:56
--------------------------
289848
10513
Sách là cả tâm huyết cả đời của tác giả. Sự thông thái kết hợp với sự tìm hiểu hàng loạt các nhà triệu phú tỉ phú mĩ đã được tác giả tổng hợp nên các nguyên tắc làm giàu cơ bản được mọi người thành công thường sử dụng. Thời đại có thể thay đổi nhưng bản chất của quá trình làm giàu thì không thay đổi. Cuốn sách cần phải được đọc đi đọc lại nhiều lần như chính lời tác giả để có thể thấm nhuần các nguyên tắc của ông. Cuốn sách xứng đáng là một trong những quyển gối đầu giường cho ai muốn làm giàu.
5
641403
2015-09-04 22:09:52
--------------------------
284295
10513
Đây là tác phẩm gối đầu giường số một của tôi.Từ khi mua nó đến bây giờ, tôi luôn mê mẩn với nó mỗi ngày, tôi luôn đọc nó mỗi ngày và không thể dừng lại tôi đã đọc đi đọc lại rất nhiều lượt rồi, không thể ngừng đọc nó.Một tác phẩm kinh điển thực sự thay đổi cuộc đời tôi, hãy đọc thật nhiều lượt vào để hiểu, thấm nhuần kiến thức sâu sắc và áp dụng nó với sự kiên trì.Bạn hãy đọc, nghiền ngẫm, thực sự hiểu và áp dụng nghiêm túc nó, để thay đổi cuộc đời.
5
532836
2015-08-30 20:38:36
--------------------------
283719
10513
Đây là cuốn sách mà trang Business Insider khuyên đọc nếu bạn có ý định muốn làm giàu hay muốn khởi nghiệp. Thật ra thì kể cả những ai chưa có ý định hay đam mê gì về kinh doanh cũng có thể đọc thử.
Cuộc sống hàng ngày của chúng ta diễn ra như thế nào đều bắt nguồn từ nhận thức và suy nghĩ của chúng ta, thế nên muốn làm việc lớn thì phải thay đổi suy nghĩ nhỏ bé của bản thân. Trước khi học cách làm giàu thì hãy học cách "nghĩ giàu". Đó chính là điều mà cuốn sách này đem lại cho người đọc.
5
723262
2015-08-30 10:47:36
--------------------------
283007
10513
Đây là một quyển sách khá là bổ ích với tôi. 
Lúc đầu đọc mấy chương đầu nói về tự kỷ ám thị và một số nguyên tắc khác tôi cho nó là nhảm nhí và không thiết thực. Nhưng càng đọc càng suy ngẫm về những điều được tác giả nhắc tới ở những chương sau thì tôi nhận ra nhiều điều thật sự bổ ích và thấy những phương pháp tác giả nêu ra thật sự rất hiệu quả.
Tôi đã lao vào và đọc hết trong vòng 1 tuần và chắc chắn sẽ đọc lại nhiều lần nữa. 
Nếu có thể áp dụng hết những nguyên tắc này vào cuộc sống thì thật tuyệt vời.
5
708628
2015-08-29 17:02:09
--------------------------
282957
10513
Một cuốn sách hay đến bất ngờ. Hay vì nó dễ  hiểu, cách viết lôi cuốn và đặc sắc. Đó là kinh nghiệm mà cả một đời người đúc kết được chứ không chỉ dựa trên lý thuyết suông, bởi vậy khi đọc tự bân thân cảm thấy như có sự thay đổi rất nhiều trong tư duy và nhận thức. Dù quyển sách được viết cách đây khá lâu nhưng vẫn rất phù hợp với xu thế hiện đại và là sách gối đầu giường cho những ai ôm hoài bão lớn. Và tất nhiên đây không phải cuốn sách chỉ để đọc một lần, chắc chắn tôi sẽ đọc lại rất nhiều lần và chắt lọc những gì phù hợp nhất để thực hiện ước mơ của bản thân :)
5
676159
2015-08-29 16:21:37
--------------------------
281523
10513
Trước đây tôi đã từng đọc rất nhiều cuốn sách của Napoleon Hill. Nhưng tôi không hiểu tại sao tôi lại bỏ sót một cuốn sách hay đến vậy. Từ những chương đầu tiên, cuốn sách đã lôi cuốn tôi rất nhiều. Đền bây giờ sau khi đã đọc hết toàn bộ cuốn sách. Tôi chiêm nghiệm ra rằng những gì mình đọc qua đều là những gì mà tôi thực sự muốn làm nhưng lại không dám làm. Và cuốn sách này đã cho tôi một niềm tin mãnh liệt vào những gì tôi đang bước đi. Một lần nữa, cảm ơn ông, Napoleon Hill.
5
535060
2015-08-28 14:32:45
--------------------------
279414
10513
Sách quả thật đã làm thay đổi mọi nhận thức trong mình.Suy nghĩ đúng thì mới có thể thành công, mới có thể có cuộc sống tốt hơn.Trước đây khi gặp mỗi trở ngại mình đều lùi bước vì thế mình luôn tự giới hạn mình trong những vòng tròn định kiến.Thất bại là điều hiển nhiên nếu như mình không cố gắng, nhưng đâu phải dễ dàng gì có suy nghĩ tích cực khi gặp thất bại.Quyển sách đã chỉ ra cho mình những giải pháp và lời khuyên thật sự rất hữu ích.Sách hay cùng với chất lượng giấy tốt, đây thực sự là một quyển sách tuyệt vời.
5
368991
2015-08-26 19:39:59
--------------------------
272055
10513
Theo cảm nhận riêng tôi: đây là một cuốn sách có tầm ảnh hưởng lớn, làm thay đổi cách nghĩ và tư duy của người đọc, qua cuốn sách nhỏ này, tác giả đã cung cấp rất nhiều kiến thức bổ ích giúp sức cho chúng ta trên con đường chinh phục thành công. Một lần nữa Napoleon Hill lại cho ta thấy ông chính là bậc thấy trong việc định hướng con đường dẫn đến thành công cho rất nhiều người trên thế giới qua những cuốn sách và tạp chí do ông dày công nghiên cứu và để lại cho đời.  Một cuốn sách quý và đáng trân trọng.
5
310872
2015-08-19 18:35:59
--------------------------
271040
10513
Ngay khi đọc lời tựa của tác giả tôi thấy một cảm giác lôi cuốn vô cùng.Càng đọc tôi càng thấy nghiện sách.Sách viết rất logic và thuyết phục người đọc với những dẫn chứng, những câu chuyện thực tế khắp nơi trên thế giới.Tôi đã tặng sách cho chị gái mình và đặt mua lại quyển mới. Tôi hi vọng chị tôi cũng có cảm nhận như tôi, nhận ra rằng suy nghĩ của mình quyết định mình là ai và sẽ trở nên giàu có nếu có suy nghĩ thành công và đôi tay hành động.Đây sẽ là một trong những quyển sách bạn nên đọc một lần trong đời và đối với tôi sẽ là quyển sách theo tôi suốt đời.
5
665322
2015-08-18 20:18:31
--------------------------
268627
10513
Mình đã được một thầy giáo tiếng Anh giới thiệu về quyển sách này. Người thầy đáng quý và đã thay đổi bản thân mình rất nhiều. Thầy từng bảo :"Các em không thích kinh tế nhưng hiểu biết về kinh tế sẽ đưa các em đến thành công. Cũng như biết về tiếng Anh vậy." Trước lúc mua mình nghĩ :" Quyển sách này hẳn có nhiều kinh nghiệm quý báu lắm đây. Bởi ngay cả người thầy mình kính trọng cũng khuyên học trò của mình đọc kia mà". Vậy là mình quyết định mua nó để đọc, để có nhiều kiến thức hơn về kinh tế và hơn hết là áp dụng những nguyên tắc hay vào cuộc sống của mình. Không hẳn để làm giàu thực sự theo nghĩa đen của nó,mà đúng hơn là để làm giàu cho vốn kiến thức bản thân và trang bị tốt hơn cho kiế thức nghề nghiệp mà mình yêu thích. Cuốn sách có ý nghĩa rất lớn đối với những bạn theo học kinh tế và có đam mê kinh doanh.
4
341449
2015-08-16 17:34:13
--------------------------
264634
10513
Đáng để gối đầu giường và để đọc sâu. Thật ra nguyên tắc thì rất nhiều sách có. Tuy nhiên điểm đáng đọc là có khá nhiều nguyên tắc mà bản thân tôi cảm thấy chưa đủ đầy khi đọc những quyển khác, vì vậy cần bồi đắp thêm nhờ quyển này. Quan trọng là bạn phải thực hành những điều mà tác giả đưa ra. Mình không thích đọc ví dụ trong sách vì một số điều khá dễ hiểu, không cần rườm rà. Những tư tưởng cũ lẫn mới đều được đem ra bàn ở góc độ mới, rất đáng học hỏi. Điểm khó chịu duy nhất là sách dày và to, chỉ vậy thôi.
5
59633
2015-08-13 12:10:12
--------------------------
261087
10513
Đây là một trong những quyển sách gối đầu của tôi. Thực sự 13 nguyên tắc của Napoleon Hill đã đánh thức cuộc sống tôi rất nhiều. Với cái tên rất thu hút và nội dung cực kì hấp dẫn, những nguyên tắc ấy có thể áp dụng vào mọi khía cạnh trong đời sống chứ không chỉ là việc làm giàu. Tôi tin rằng chỉ cần luyện tập thành thạo từng nguyên tắc trong 13 nguyên tắc ấy, chúng ta có thể đạt được bất cứ điều gì, chỉ cần chúng ta thực sự mong muốn, chúng ta sẽ làm được!!!!
5
330505
2015-08-10 21:12:13
--------------------------
260890
10513
Đây là một cuốn sách mà bạn nên đọc qua dù bạn làm bất cứ công việc nào. Vì cuốn sách đưa ra những nguyên tắc cơ bản và tinh túy nhất để bạn có thể áp dụng ở bất cứ mặt nào của đời sống. Đó là những nguyên tắc để thay đổi tư duy và cách suy nghĩ, nên nó ảnh hưởng đến hầu như toàn bộ cuộc sống của chúng ta. Hãy đọc và cảm nhận, bạn sẽ rút ra được nhiều bài học cho bản thân mình để làm giàu cũng như thành công trong cuộc sống.
5
253168
2015-08-10 19:01:31
--------------------------
254319
10513
Quan điểm cá nhân: điều cốt lõi của sách là khuyên chúng ta hãy có niềm tin vững chắc thì sẽ đạt được bất kỳ mục tiêu nào, cụ thể là trong việc làm giàu. Tạo niềm tin nhưng lại không cho thấy những yếu tố quan trọng như sự chăm chỉ, cần cù, kiên trì, tư duy nhạy bén trong con đường tới thành công, những yếu tố có thể thấy rõ khi đọc câu chuyện thực tế như tự truyện của Chung Yu Jung, hay sách của chủ tịch tập đoàn Daewoo. Thiết nghĩ những bạn định mua sách nên đi mượn đọc sơ qua đã.
2
81607
2015-08-05 10:04:13
--------------------------
253795
10513
Đây là cuốn sách tôi yêu nhất. Nó đã thay đổi cuộc đời tôi. Tôi nghĩ nó cũng sẽ thay đổi cuộc đời bạn, nếu bạn đọc nó. Tôi không chỉ đọc 1 lần, tôi đã đọc 4 lần rồi, nhưng mỗi lần tôi đọc lại tôi lại phát hiện ra những điều mới mẻ mà trước đó tôi không "thấy". Càng đọc, càng thấm, càng đi sâu vào tiềm thức, và cuộc đời bạn sẽ dần thay đổi theo chiều hướng tốt đẹp hơn. Nếu bạn chỉ có thể đọc duy nhất 1 cuốn sách trong cả cuộc đời bạn, thì đây là cuốn sách duy nhất bạn cần đọc.
5
85228
2015-08-04 19:18:44
--------------------------
252409
10513
Khi cầm trên tay quyển sách này và đọc lướt qua 1 lượt, mình hiểu rằng bước đầu tiên để đạt được mong muốn làm giàu và thực hiện thành công 13 nguyên tắc đó chính là sự KIÊN TRÌ. Phải kiên trì, kiên trì thực hiện mọi bước đi được nhắc đến trong mỗi nguyên tắc đến cùng vì không phải điều gì là dễ dàng cả. Tuy nhiên, không phải là không đạt được. Mình khẳng định vậy khi đọc quyển sách này, đó là nhờ nguyên tắc tự kỷ ám thị, khi mình thực sự mong muốn 1 thứ gì đó đến mức bị ám ảnh,làm gì cũng nghĩ đến nó, thậm chí cả nằm mơ cũng mơ về nó, thì bạn chắc chắn đã thành công 1 nửa, và bước kê tiếp là bạn phải thực hiện, hành động ngay lập tức dù ngay lúc đó bạn chưa hề có 1 ý tưởng gì, nhưng chỉ cần có thế và bạn sẽ gặp được nó ngay sau đó,rất nhanh chóng. Và cuối cùng, bạn kiên trì với nó, liên tục thay đổi phương pháp nếu thất bại và bền chí đến cùng. Thành công và giàu có đến rất nhanh sau đó. Bạn nên tin điều đó. Thành công không đến với kẻ lười suy nghĩ và không hành động gì. Nghe có vẻ lý thuyết nhỉ, nhưng cũng nên thử nếu bạn muốn làm giàu, trong sách có đầy đủ các bước để bạn làm theo và giàu có đấy. Nhưng phải tin tưởng và kiên trì đến cùng nhé! Cùng cố gắng nào :)
4
281150
2015-08-03 17:12:45
--------------------------
249046
10513
13 Nguyên tắc Nghĩ Giàu Làm Giàu- cuốn sách giúp chúng ta suy nghĩ một cách chín chắn về việc làm giàu. Tiền không phải là tất cả, giàu không phải là có nhiều tiền mà khi chúng ta nghĩ giàu và làm giàu một cách đúng nghĩa, đó mới thực là mục đính của việc làm giàu. Khi đọc cuốn sách này như là bạn đọc một cuốn truyện có hàng trăm chương và mỗi khi đọc lại một lần nữa hàng trăm chương khác lại xuất hiện. Vì lẽ đó một khi bạn đọc thì sẽ phải đọc hết, nếu bạn không thể kiên trì đọc hết thì có lẽ bạn sẽ không đủ kiên nhẫn để "nghĩ giàu'' và "làm giàu" đâu.
5
209291
2015-07-31 12:20:58
--------------------------
247942
10513
13 Nguyên Tắc Nghĩ Giàu Làm Giàu, nội dung cuốn sách đúng như tên của tác giả đặt cho nó. Nếu bạn thiếu động lực và đang loay hoay trên con đường tương lai của mình, bạn muốn tìm một định hướng để thành công trong cuộc sống. Tôi khuyên bạn nên đọc cuốn sách này. Với cách viết đơn giản cùng những mẫu chuyện đáng giá và đằng sau đó là những bài học ý nghĩa về làm giàu mà tác giả đã chọn lọc thì tôi đã không lãng phí một chút thời gian nào khi đọc cuốn sách đến 3 lần. Cảm nhận cầm trên tay cuốn sách này là rất tuyệt vời. Bìa rất đẹp, ấn tượng bởi chiếc chìa khóa và hình ảnh tờ $ trên chữ của cuốn sách 
5
170262
2015-07-30 17:00:56
--------------------------
246620
10513
Cuốn sách với nội dung ngắn gọn nhưng lại có ma lực thần kì, rất cô đọng và đầy ý tưởng mạnh mẽ, Với một mong muốn thực sự, một niềm tin mạnh mẽ là nấc thang đầu tiên để biến tất cả những ước mơ, hoài bão thành hiện thực. Tác giả đã nói chỉ cần trí não có thể tưởng tượng ra thì có nghĩa rằng ta có thể thực hiện được nó. Tôi tin là tác giả nói đúng, sách đã truyền cho tôi động lực để tin rằng tôi có thể vượt qua tất cả để thành công. Một cuốn sách về làm giàu nhưng bất cứ ai cũng nên đọc để mạnh mẽ hơn, xây dựng cuộc sống tốt đẹp hơn.
5
544333
2015-07-29 18:19:01
--------------------------
245446
10513
Đối với mình, đây là một quyển sách rất hay của Napoleon Hill. Ông là một tác giả nổi tiếng trong lĩnh vực viết sách làm giàu. Quyển sách này cho mình nhiều lời khuyên, bài học quý giá. Mình cảm giác như quyển sách đã được tác giả chắt lọc kinh nghiệm rất kĩ lưỡng. Chính điều này đã  tạo cho người đọc cảm giác chân thành, thuyết phục, thực tế và cho người ta thấy rằng mỗi người đều có thể thành công. Quyển sách này sẽ làm giàu thêm kinh nghiệm, tiếp thêm niềm tin làm giàu cho bạn đọc. Quyển sách này sẽ không làm bạn thất vọng
5
528600
2015-07-28 22:17:11
--------------------------
243858
10513
Tôi mua cuốn “Chiến Thắng Con Quỷ Trong Bạn” trước khi quyết định mua thêm cuốn này bởi vì tôi ấn tượng với hình tượng con quỷ hơn. Nhưng, phải nói, nếu “Chiến Thắng Con Quỷ Trong Bạn” đưa tôi tìm hiểu và khám phá “bản ngã” của mình, thì cuốn “13 Nguyên Tắc Nghĩ Giàu Làm Giàu - Think And Grow Rich (Bản Gốc, Được Phục Hồi Và Chỉnh Sửa)” là sự bức phá và thay đổi để tôi thành công trong công việc sau khi xác định được điều mình cần. Tác giả Napoleon Hill thì quá nổi tiếng và có tầm ảnh hưởng trong lĩnh vực” thành công học”. Nội dung cuốn sách hay nhưng phải có sự kiên trì thì mới đọc và thấu hiểu được những vấn đề được đề cập.
5
276840
2015-07-27 20:13:36
--------------------------
241407
10513
Trước khi nhận xét mình xin phép được so sánh một chút:
Ban đầu mình phân vân không biết nên mua cuốn 13 Nguyên Tắc Nghĩ Giàu Làm Giàu - Think And Grow Rich do ThaiHaBooks hay cuốn Cách Nghĩ Để Thành Công - Think & Grow Rich do First News phát hành. Sau một thời gian tìm hiểu mình không tìm được câu trả lời thỏa đáng nên quyết định mua cả 2, khi đã đọc xong 2 cuốn mình xin phép được làm phép so sánh nho nhỏ cho những bạn đang phân vân giống mình như sau: nội dung cốt lõi của 2 quyển là giống nhau, chỉ có điều văn phong, cách diễn đạt hơi khác một chút, ví dụ: ở cuốn "First News trang 120 có đoạn: < Những người mắc sai lầm này không hiểu đúng nghĩa của từ "học vấn". Từ này được bắt nguồn từ chữ "educo" trong tiếng Latin, có nghĩa là suy luận, rút ra, nghiệm ra.> còn trong cuốn ThaiHaBooks trang 116: <Thực ra, chính họ mới hoàn toàn không hiểu bản chất của từ "giáo dục". Từ này bắt nguồn từ "educo" trong tiếng Latin, có nghĩa là "rút ra", "chiết xuất", tức là phát triển từ bên trong>. Mình không chỉ cho bạn nên chon cuốn nào mà chỉ muốn cho bạn thấy cách diễn đạt của 2 cuốn, còn tùy bạn lựa chon. Về cá nhân thì mình thích First News vì nó dễ hiểu  còn ThaiHaBooks lại chau truốt khá kỹ như Ctrl+B một số ý chính - từ - hay đoạn văn cần nhấn mạnh. Đây là một quyển sách hay, nó đưa ra những nguyên tắc thực tế, nhưng phải thú nhận là khi đọc đến 1/3 quyển sách mình có ý định bỏ dỡ bởi cảm giác lang mang, dài dòng thiếu xúc tích, khó hiểu. Nhưng khi đọc hết bạn sẽ cảm nhận được giá trị của nó, mình khuyên bạn nên đọc lướt qua một lần để nắm được bố cục - nội dung, sau đó đọc kỹ lại từng nguyên tắc trong lần đọc thứ 2 sẽ giúp bạn nắm được điều tác giả muốn gửi gắm. Cảm ơn vì đã đọc nhận xét này ! Thân
5
709449
2015-07-25 14:03:51
--------------------------
240321
10513
13 Nguyên Tắc Nghĩ Giàu Làm Giàu, tôi viết đánh giá này khi đã đọc xong cuốn sách này lần thứ 2, quả thật như tác giả đã nói, mỗi lần đọc bạn lại đúc kết và có được một bài học khác nhau. Cách suy nghĩ của Napoleon về thành công và làm giàu chỉ có một việc rất đơn giản, nhưng lại chẳng mấy ai tin hay có thể họ biết mà vẫn chưa tin, với những gì mà tác giả đã làm được, và sự thuyết phục mà cuốn sách mang lại, tôi tin nếu bạn Nghĩ giàu bạn có thể làm giàu.
5
109789
2015-07-24 15:24:06
--------------------------
239697
10513
Quyển sách được chắt lọc tinh hoa những bí quyết làm giàu qua bao thế hệ, bao con người thành công. Những bài học trường lớp không dạy bạn, trường đời và cả thương trường ngày một ngày hai không thể dạy bạn. Thế tại sao không cầm liền trên tay để ta tự tin học hỏi ngay những điều ấy và là thế hệ thành công kế tiếp.
Ngôn từ dễ đọc, dễ cảm nhận động lực, tràn đầy động lực, những bài học đầy niềm tin, ý nghĩa. Bạn sẽ không phí tiền, rất xứng đáng để tích vào vốn học hỏi cho chính mình. Thành công không chần chờ!
Các bạn sẽ vô cùng hài lòng với quyển sách trên tay giống như tôi!
5
107985
2015-07-24 01:22:15
--------------------------
237059
10513
Cuốn sách làm thay đổi toàn bộ suy nghĩ của mình về những quyển sách self-help. Ban đầu mình nghĩ người ta đánh giá hơi quá, vì thành công đâu có thể quy thành công thức mà áp dụng cho hàng triệu người? Nhưng không, công thưc ấy tốn tại, đơn giản đến mức không ngờ. Quyến sách nêu ra những vấn đề cũ cùng phương pháp mới. Vấn đề chỉ có vậy, nhưng khi bạn càng trưởnh thành, bạn sẽ thấy nó theo nhiều khía cạnh sâu hơn. Quyến sách đã vạch ra chi tiết hết mức những bước để hoàn thành mục tiêu của bạn. Điều mình vô cùng muốn khuyên bạn lúc này là: hãy mua quyển sách, đọc nó thật kĩ và PHẢI tin hoàn toàn những gì trong sách( thực ra dưới lời lẽ vô cùng thuyết phục và chân thành của N.Hill, bạn cũng không thể không tin). Chúc bạn có một cái máy lọc tốt những triết lí đơn giản mà tuyệt vời của cuốn sách này.
5
256191
2015-07-22 10:05:17
--------------------------
229845
10513
khi đọc quyển sách này xong một lần bạn sẽ thấy được những nguyên tắc trong quyển sách đều rất đơn giản đến mức bạn không thể ngờ, bạn cứ ngỡ nó phức tạp, phải thông minh mới hiểu ra, thật ra chỉ cần đọc lần thứ 2 bạn sẽ nhận ra được những nguyên tắc làm giàu hầu như đi ngược lại với tât cả những gì bạn được biết, và có thể áp dụng vào tất cả lĩnh vực trong cuộc sống, chỉ cần KIÊN TRÌ, KHÔNG BỎ CUỘC , thì không có gì mà bạn không thể làm được .
5
611069
2015-07-17 09:15:38
--------------------------
226442
10513
Đây là tựa sách khá phổ biến mà cho đến tay tôi mới có cơ hội được đọc, khổ sách lớn, chất lượng giấy in rất tốt, con chữ to rõ, nét đẹp, cuốn sách khá chất lượng về hình thức. Về nội dung, vốn là một người quan tâm đến những vấn đề chi tiêu, tiết kiệm nên tôi đã tìm mua cuốn sách này. Những bí quyết, những nguyên lý căn bản nhất trong đời sống về cách thức làm ra và nhân bội số tiền được phân tích và dẫn chứng kỹ lưỡng và rất dễ hiểu, không cần các kiến thức chuyên ngành quá sâu xa. Mặc dù chỉ đọc được phân nửa cuốn sách nhưng tôi đánh giá rất cao giá trị nội dung của nó. Mong rằng các bạn trẻ ngày nay nên tìm đọc và áp dụng những tựa sách như thế này để có một tư duy sống tốt hơn. Xin cám ơn tác giả. 
5
532979
2015-07-12 10:51:39
--------------------------
220030
10513
Ngay từ tựa đề cuốn sách đã lôi cuốn phải không? 
ngay từ phần giới thiệu của  tác giả, tôi đã bị rất phấn khích, tại sao? tác giả luôn nhắc tới bí kíp nào mà đưa đến sự thành công, và tới khoảng 10 trang đầu của cuốn sách thì tôi đã hiểu
tôi không cần nhận xét nhiều về quyển sách này, trong quyển sách nói lên tất cả mà tác giả mong muốn người đọc và truyền tải những kinh nghiệm sống , thực tế trải nghiệm mang lại thành công cho ai đã và đang đi tìm sự thành công
1 cụm từ tôi rất đánh giá cao, đó là sự kiên nhẫn đối với mọi vấn đề mà mình theo đuổi ,cảm ơn tác giả và tiki mang quyển sách này đến với tôi
5
535941
2015-07-02 10:24:42
--------------------------
219231
10513
Thực sự đây là một "vĩ nhân" trong các cuốn sách bạn nên đọc để thay đổi cuộc đời. Nó đã thay đổi hoàn toàn một con người như tôi, nó giúp mấy trăm cuốn sách khác tôi từng đọc phát huy hết tác dụng của nó. 

Nhưng nó chỉ phát huy hết tác dụng của nó nếu bạn đọc nó thật kỹ ít nhất 3 lần. Bạn đọc đến khi nào bạn có đủ năng lực để giảng cho người khác nghe về nó. 13 bước, tôi gọi là 13 tầng "công lực" bạn phải luyện. Hầu hết các khoá học làm giàu chỉ nói đến bước 3, các sinh viên cũng chỉ đọc đến bước 3 nên rất hay bỏ học. bước 4 vô cùng quan trọng và bạn không thể thành công nếu bạn không thuộc và thực hiện đầy đủ 13 bước. Những bước từ bước 9 đến bước 13 là những bước khó hiểu và khó thực hiện nhất vì nó thực sự đề cập đến nhiều lĩnh vực khoa học khác nhau. Nhưng đó mới chính là khoa học làm giàu. Tôi yêu cuốn sách này, và tôi sẽ mở các khoá học làm giàu khi tôi đã có nhiều triệu đô là. Nếu bạn muốn thành công và giàu có nhưng lại chưa biết bắt đầu thế nào thì đây là bước đầu tiên bạn nên làm, đọc nó, hiểu nó và làm theo nó. Thân mến
5
673260
2015-07-01 11:38:37
--------------------------
218847
10513
Napoleon Hill là một tác gia nổi tiếng về lĩnh vưc kinh tế, xã hội và tâm lí con người. Mỗi cuốn sách của ông đều có một sức hút kì lạ. 13 Nguyên Tắc Nghĩ Giàu Làm Giàu là cuốn sách mà khi đã lật trang đầu tiên là bạn sẽ phải lật trang tiếp theo. Từng lĩnh vực, vấn đề được nói ra hay đề cập tới có thể là những điều gần gũi mà ta không để ý tới chúng trong cuộc sống hàng ngày. Hoặc là những vấn đề mới mẻ mà ít ai nghĩ tới ... 
Khi đã mua cuốn sách này hay một cuốn sách nào khác của Napoleon Hill bạn sẽ không phải lo lắng vì đã mua nhầm loại sách vì các tác phẩm của ông không phải chỉ cho những người ham mê kinh tế, đó còn là những cuốn sách có ích cho mỗi người trong cuộn sống. Đó là cái tài trong viết lách mà ít ai làm được.
4
576680
2015-06-30 22:01:32
--------------------------
214913
10513
Napoleon Hill, với tôi, ông đến từ hành tinh khác, trí tưởng tượng tuyệt vời của ông đã tạo ra hàng triệu triệu phú.
Tôi đã đọc Think and Grow Rich ở 2 phiên bản.
1 là của NXB Lao Động Xã Hội và 1 là của Trung Nguyên
Cá nhân tôi thì thích phiên bản ngắn gọn và xúc tích của Trung Nguyên hơn.
Lời văn trong sách này hơi quá chi tiết nên đôi khi hơi thừa.
Tuy nhiên, tuyệt vời nhất là đọc kết hợp cả 2 cuốn, có thể thấy những điểm mà sách này ko có, nhưng sách kia có. 
Mọi người nên đọc sách này, sẽ ko hối hận đâu.
5
355396
2015-06-25 16:49:17
--------------------------
214063
10513
Bạn có muốn một quyển sách chứa đựng những nội dung đầy năng lựợng, giúp bạn có một ngày mới đầy sức sống? Một quyển sách chứa đựng chìa khóa giúp các bạn ngày càng đi tới thành công hơn?

Nếu như bạn muốn một quyển sách như vậy, vậy đây chính là quyển sách bạn cần. Tuy đã được viết cách đây mấy chục năm, nhưng cuốn sách này lại luôn là quyển sách đầu giường của hàng triệu người trên thế giới, chứa đựng những nội dung và kiến thức sẽ mãi mãi trường tồn với thời gian.

Thật hạnh phúc và hứng khởi khi có thể đọc từng trang sách của Napoleon về cách làm người, về cách làm sao để thành công, làm sao trở thành một con nguời tốt.
5
140922
2015-06-24 14:53:59
--------------------------
210496
10513
Tuy đã đọc nhiều quyển sách về cách làm giàu khác của nhiều tác giả nhưng quyển sách " Think rich and grow rich" của Napoleon Hill này lại giúp mình  khai sáng được rất nhiều vấn đề. Ban đầu nói thật mình đọc nhưng chẳng hiểu gì cả thế rồi mình ngồi đọc lại lần nữa rồi lần nữa thì mình đã ngộ ra rất nhiều điều có lẽ ban đầu mình chưa quen với cách viết của ông. Đọc sách mình rút ra một điều muốn làm giàu  mình phải hoàn toàn tập trung tất cả mọi suy nghĩ tinh thần và nguồn lực vào mục tiêu đó và trong đầu mình phải nghĩ rằng mình thành công thì mình sẽ thành công.
4
324101
2015-06-19 16:05:11
--------------------------
208807
10513
Phải nói là lúc mới nhìn vào tên ấn phẩm, tôi chưa có nhiều suy nghĩ về thế nào là việc làm giàu? tôi chỉ mua nó theo sự giới thiệu của một người bạn. Tuy nhiên khi đọc cuốn sách này, tôi mới nhận ra rằng việc làm giàu không đơn giản và cũng không khó như vậy. Đơn giản là tất cả những điều mà tôi cần đều đã có ở cuốn sách này. Còn khó, chính là khi tôi phải thực hiện nó. Chính nhờ những kiến thức cơ bản trong cuốn sách này đã giúp ích cho tôi trong việc khởi nghiệp rất nhiều. Tôi chỉ biết cám ơn cuốn sách đã đến bên tôi đúng lúc.
5
32372
2015-06-16 10:01:57
--------------------------
206862
10513
Như tiêu đề thì mình vẫn không thẩm thấu nỗi cuốn này. Mặc dù mua luôn tù tì 2 tác phẩm của ông này, nhưng mình nghĩ mình đoc của Adam Khoo thích hợp hơn. Có lẽ vì tác giả viết quá lâu nên mình không thích nghi được với lỗi viết ngày xưa của ông. Nhưng dù sao cuốn này cũng làm cho mình ngộ ra nhiều điều hay lắm. Nhiều lúc nghĩ vu vơ làm giàu cũng bình thường. Hihi. Nói chung mấy thể loại sách này các bạn cũng nên đầu tư để phát triển bản thân nhé! Vì nó có ích cho các doanh nhân tương lai như chúng ta. Kệ sách có 1 em này thì cũng không thừa xíu nào đâu ạ!
3
378481
2015-06-10 21:41:29
--------------------------
202125
10513
Bằng những ví dụ cụ thể,truyền cảm ,đúc kết từ sự nghiên cứu,sự phân tích rõ ràng nguyên nhân dẫn đến thành công và thất bại của 500 người. Napoleon Hill đã đưa ra 13 nguyên tắc chung cho mọi sự thành công . Những triết lý đó đã giúp hàng triệu người tìm được con đường đi đến sự giàu có không những trong vấn đề tài chính mà còn trong đời sống tinh thần.Những câu nói hay mà mình tâm đắc nhất trong cuốn sách "Giới hạn duy nhất chính là những thứ mà con người tạo ra trong suy nghĩ của họ" ;" Thành công sẽ đến với ai có suy nghĩ thành công", thất bại sẽ đến với những ai thờ ơ với bản thân và cho phép mình trở thành người có suy nghĩ thất bại". Một cuốn sách không thể thiếu trong tủ sách làm giàu của bạn
5
542608
2015-05-28 21:10:52
--------------------------
198820
10513
Chắc cũng không cần phải nói nhiều về cuốn sách này. Cùng với cuốn Đắc Nhân Tâm, là hai cuốn sách tuyeetjr vời nhất mọi thời đại. Những nguyên lí trong cuốn sách cực kì đơn giản, và thực chất chúng ta và riêng bản thân tôi đã từng vận dụng một cách vô tình. Tuy nhiên, những cách thức sử dụng đấy không được nêu thành khái niệm nên khá khó để vận dụng được cho những lần khác. Tôi thích những nguyên lí trong đấy, nguyên tắc ám thị và tự ám thị. Quy luật hấp dẫn....Thực sự ở cái thuở đầu thế kỉ 19, một người đã phát hiện ra được những quy luật tuyệt vời đấy và những giá trị của chúng còn tận đến ngày nay thì cuốn sách này thật là tuyệt vời. Tôi thích câu: "Bạn là chủ của tâm trí, là thuyền trưởng của con tàu ước mơ". Mỗi chúng ta là người quyết định cho cuộc sống của chính mình chứ không phải ai khác. Đúng vậy, hãy chịu trách nhiệm hoàn toàn cho cuộc sống của mình là những gì tôi học được ở cuốn sách này! :D cám ơn nhiều !
5
636713
2015-05-20 21:23:31
--------------------------
198570
10513
Giống như Đắc Nhân Tâm, cuốn sách Nghĩ giàu làm giàu cũng nằm trong những cuốn sách kinh điển mọi thời đại, nó được dịch ra nhiều thứ tiếng và được xuất bản trên hàng trăm nước trên thế giới. Đây là cuốn sách cần thiết có cho những bạn trẻ ôm mộng làm kinh tế. Cuốn sách bàn ra 2 vấn đề: Nghĩ và Làm. Để có thể thành công cần có định hướng, suy nghĩ đúng và sau đó là bắt tay hành động. Tất cả những điều tác giả viết đều rất hữu ích, thực tế. Mình mua cuốn này cùng cuốn Đắc nhân tâm, và đều cảm thấy đó không phải là 1 lựa chọn sai lầm. Mối cuốn đều viết trên 1 phương diện khác nhau và đều hướng đến giúp bạn thành công.
5
560820
2015-05-20 11:45:04
--------------------------
189979
10513
Cuốn sách là một trong những cẩm nang của nhiều người trẻ, nhiều người thành công. Cho đến khi bạn đọc nó, bạn sẽ bị thuyết phục một cách mạnh mẽ. Một trong những điều tôi ghi chép lại được từ cuốn sách đó là: "Chỉ bằng cách mong muốn và phấn đấu đạt được điều gì đó có ích cho cộng đồng thì những suy nghĩ tiêu cực của bạn mới tiêu tan. Những người bận rộn thường không nghĩ về cái chết. Họ thấy cuộc sống còn nhiều thứ đáng là hơn là cứ lo lắng...". Và, bằng sự từng trải, vốn sống phong phú của mình, Napoleno Hill đã chỉ ra 6 nỗi sợ hãi cơ bản của con người và 13 nhân tố làm nên sụ Giàu Có. Giàu có cả về vật chất lẫn tinh thần. Tất nhiên, không phải cứ đọc cuốn sách này là bạn Giàu, điều đó còn tùy thuộc vào khả năng thấm nhuần và vận dụng cuốn sách quý giá này!
5
415064
2015-04-28 14:38:51
--------------------------
189831
10513
Thật sự rất khó để chê một điểm nào trong cuốn sách này. Cuốn sách quá hay, quá toàn diện, quá sâu sắc về các triết lý thành công. Tôi nghĩ bất kì ai khi đọc cuốn sách này đều có thể quên và có quyền quên những cuốn sách viết về thành công khác. Khi tôi mua nó, đọc nó, tôi đã tự trách mình là tại sao đã không mua nó đọc sớm hơn mặc dù đã nghe đến nó khá lâu trước khi mua. Càng trải nghiệm nhiều, chúng ta sẽ càng sung sướng khi đọc sách. 

Chương mà tôi thích nhất trong cuốn sách là chương thứ 11: Bí mật của sự chuyển hóa tình dục. Tôi mua cuốn sách này chỉ một tuần sau khi tôi lần đầu tiên làm “chuyện ấy”. Tôi còn nhớ rất rõ cái ngày làm việc sau khi làm “chuyện ấy”, tôi như được tiêm kích thích, làm việc hăng say và yêu đời hẳn lên, hiệu quả công việc cao hơn hẳn. Khi đọc đến chương thứ  11, dường như tôi đã được tác giả gãi đúng chỗ ngứa.

Đây thật sự là một tuyệt tác phải đọc !
5
594760
2015-04-28 09:04:54
--------------------------
187575
10513
Cuốn sách này là 1 trong những cuốn bán chạy nhất toàn thế giới, được dịch ra nhiều thứ tiếng, rất hay....
Tôi đã được giới thiệu như vậy từ một người bạn đã đọc cuốn sách này từ rất lâu, là cẩm nang gối đầu giường, tôi đã tò mò  mua và đọc thử, quả đúng thật, cuốn sách cực kỳ hay, cực kỳ thâm thuý, bàn về 13 cách nghĩ giàu làm giàu, rất dễ thấm vào tư tưởng, dễ hiểu, đây cũng là những suy nghĩ để dẫn tới những con người vĩ đại, những tỷ phú, triệu phú trên khắp thế giới. Napoleon Hill có 1 đầu óc chiến lược vĩ đại, có tầm nhìn xa trông rộng, cuốn sách của ông đã thay đổi cách tư duy làm giàu của biết bao nhiêu người, giúp họ thành công trong cuộc sống của mình. Tôi rất thích cuốn sách này.
5
425604
2015-04-23 15:45:21
--------------------------
180367
10513
Napoleon Hill có cách viết rất chân thật và miêu tả sâu sắc thực tế từng vấn đề 1, ngoài ra ông còn cho thấy được để đi đến thành công phải thông qua nhiều khía cạnh như giao tiếp, đối nhân xử thế, lòng tin và ý chí không gục ngã. Nếu đạt được việc tự điều khiển tâm trí và bản thân mình tự do thì lúc đó đạt đến thành công như mong đợi. Cái gì mà quá lúc nào cũng hại đến bản thân do vậy ông chỉ cách cho chúng ta cân bằng mọi việc trong cuộc sống tránh những cái quá mức ảnh hưởng xấu đến tinh thần, sức khỏe và tư duy. Hay
5
87029
2015-04-09 11:31:40
--------------------------
173532
10513
Quyển sách viết về những nguyên tắc làm giàu được tác giả nghiên cứu toàn diện nhất. Mình cũng đọc khá nhiều sách làm giàu và mình nhận ra hầu hết đều được phát triển rông ra từ những nguyên tắc của Napoleon Hill. Từ mong muốn đến niềm tin...cho đến sử dụng giác quan thứ 6 tất cả là một chuổi dẫn đến thành công của một người. Trong sách tác giả lấy những người cực kỳ nổi tiếng nghiên cứu, những nhà phát mình, chính trị vĩ đại rất thuyết phục. Nhưng mình nghĩ chúng ta không cần phải thực hiện tất cả những nguyên tắc ấy mà hãy chịn những cái mình cảm thấy thích và nên làm để thực hiện trước, nhưng vậy thì sẽ dễ thực hiện hơn dù tất cả những nguyên tắc đều rất đúng. Sách rất hay :)
5
464912
2015-03-26 13:22:37
--------------------------
167171
10513
Mình vừa đọc xong cuốn này hôm qua nên giờ mới dám vào viết bình luận.
Quả thật rất đáng để đọc, nó khác hoàn toàn so với những cuốn sách khác của mình. Cuốn sách được viết với toàn bộ tâm huyết của tác giả, là mục đích trọn đời của ông: muốn tìm hiểu bí quyết làm giàu.
Đặc biệt mình rất thích chương "Bí ẩn của sự chuyển hóa tình dục", nó cho ta một cách thức để phát triển tư duy, kích thích bộ não làm việc.
 Tuy lần đầu đọc còn nhiều chỗ chưa hiều hết nhưng chắc chắn nếu đọc thêm vài lần nữa, tôi và các bạn sẽ nhận ra những thứ mình cần.
Và cám ơn tác giả rất nhiều khi đã công hiến cả cuộc đời để viết cuốn sách này!
5
37970
2015-03-14 08:35:37
--------------------------
165131
10513
Thích nhất là các chương về mô thức thành công: mục tiêu, tự kỉ ám thị, niềm tin, và hành động. Các mô thức căn bản này là nhân tố chính trong mọi công thức thành công mà hầu hết các sách động lực tâm lí đều có.
Kinh thánh này đặc biệt hữu ích cho nghề bán hàng, kinh doanh. Một người kinh doanh thành công, dù không biết đến các mô thức này, cũng đều phải sử dụng nó mà bản thân không hề nhận thức được. Điển hình như cậu chuyện bộ đội cụ Hồ vượt dãy Trường Sơn.
5
558456
2015-03-09 20:05:04
--------------------------
163784
10513
Theo cảm nhận của mình thì cuốn sách này xứng đáng để trở thành quyển sách gối đầu giường cho bất kỳ ai muốn sống 1 cuộc sống ý nghĩa và hạnh phúc. Sách được cấu trúc thành 13 chương tương ứng với 13 nguyên tắc, trong đó tác giả đều đưa ra ví dụ minh hoạ từ rất nhiều người đã thất bại hoặc đã thành công.  Từ đó, sách trích lược ra thành các bước thực hiện từ dễ đến khó, vô cùng chi tiết và dễ hiểu. Tuy nhiên, mình nghĩ đối với những ai lần đầu đọc quyển này sẽ có chút khó khăn trong việc cảm thụ hết ý nghĩa của sách. Đọc vài lần sẽ thấm và thấy từng câu đều là những giá trị tinh tuý mà 1 con người vĩ đại như Napoleon Hill đã viết nên.
5
66279
2015-03-05 21:47:30
--------------------------
156246
10513
Quyển sách này là tác phẩm đầu tiên tôi đọc của tác giả Napoleon Hill. Và từ đó, suy nghĩ của tôi dần thay đổi và từng bước, từng bước một bước lên những nấc thang của sự giàu có. Quyển sách là những gì tinh túy nhất mà tác giả có được thông qua việc phân tích hàng trăm cong người thành công. Những kiến thức trong sách chứng tỏ tác giả đã đi trước thời đại của mình. Cụ thể đó là chương sách thứ 10: Bí mật của sự chuyển hóa tình dục. Qua các chương sách, độc giả sẽ hiểu thế nào là mong muốn, niềm tin, tự ám thị,...Theo quy luật của tự nhiên, bạn sẽ phải trả giá khi áp dụng nội dung được tác giả sẻ chia trong quyển sách này. Nhưng cái giá phải trả sẽ thấp hơn rất nhiều so với giá trị bạn sẽ nhận được khi đọc và làm theo những gì đã chia sẻ trong sách.
5
387632
2015-02-03 20:44:33
--------------------------
145452
10513
Mình viết review này như một lời tri ân tác giả đã dành 25 năm cuộc đời ông để tìm hiểu, nghiên cứu những con người vĩ đại và cho ra đời tác phẩm giá trị đến vậy.
Quyển sách này không chỉ dạy bạn cách làm giàu, nó giáo dục bạn cách tư duy để trở nên "giàu có" trong bất kỳ lĩnh vực nào của cuộc sống. Và nếu bạn luôn khao khát thay đổi bản thân mình, mong muốn khẳng định năng lực cá nhân hay thậm chí thay đổi thế giới. Hãy một lần đọc nó!
"Mua nó bạn có 1 quyển sách
Đọc nó bạn bạn có 1 kế hoạch làm giàu
Làm theo kế hoạch đó bạn có cả thế giới"
5
454919
2014-12-30 16:06:02
--------------------------
142439
10513
Đây là cuốn sách mà mình thích nhất trong tất cả các cuốn sách dạy về làm giàu. Nếu như những cuốn sách khác là những kinh nghiệm, những con số thực tế thì cuốn sách này viết dưới góc độ khách quan, bởi vì nó là sự quan sát, đúc rút từ kinh nghiệm và cuộc đời của những người giàu nhất, thành công nhất nước Mỹ. Hơn nữa sách cũng tập trung sâu hơn vào sức mạnh tư duy nên khá là trừu tượng. Đây là cuốn sách đầu tiên trên thế giới viết về nguyên lý làm giàu, nó là kim chỉ nam cho hàng triệu người trên thế giới dám ước mơ và dám thành công. Mình rất thích cuốn sách này nên đã mua thêm một cuốn tặng bạn trai, nếu sau này có tiền, mình sẽ mua tặng mỗi đứa bạn mình một cuốn và hi vọng bạn mình cũng sẽ thành công.
5
445353
2014-12-18 17:55:33
--------------------------
138354
10513
Đã gần 1 tháng kể từ khi tôi mua quyển sách này , tôi đang đọc lại nó lần thứ 2 cảm giác thực sự quá tuyệt vời , nó cho tôi những Triết lý sống đúng đắn , những bản kế hoạch hoàn hảo để biến " mong muốn " thành giá trị vật chất tương đương , những câu hỏi giúp tôi " biết mình đang ở đâu , còn thiếu những yếu tố nền tảng gì để thành công " .

Nếu cả đời bạn chỉ đọc một muốn sách , hãy đọc Think And Grow Rich !
5
440196
2014-12-02 12:23:16
--------------------------
130642
10513
Đây là một trong những cuốn sách kinh điển về làm giàu. Ai có tham vọng làm giàu thật thiếu sót khi bỏ lỡ cuốn sách này. Nếu đọc lần đầu tiên có thể bạn sẽ không hiểu hết những gì tác giả muốn thể hiện trong cuốn sách, nhưng sau vài lần đọc nó ( ít nhất 3 lần ), bạn sẽ có một ham muốn mãnh liệt . Đây là cuốn sách đã ảnh hưởng rất nhiều người trên thế giới trong đó có Adam Khoo - triệu phú trẻ tuổi nhất Singapore
5
431220
2014-10-19 10:28:30
--------------------------
129949
10513
cuốn sách này rất hay, bạn sẽ nhận ra những nguồn lực bạn phải có để thành công, giúp bạn trở nên giàu có, làm giàu cho cuộc sống của bạn trên tất cả các phương diện của cuộc sống chứ không chỉ về tài chính và vật chất. Điều đầu tiên tôi đánh giá cao ở cuốn sách là bìa ngoài được thiết kế rất ấn tượng, bắt mắt người xem, tiếp đó chất lượng giấy và in ấn tốt. Về nội dung, cuốn sách có bố cục rõ ràng đi kèm với đó là các ví dụ, trích dẫn hay và hợp lý,... Mỗi chương trong cuốn sách đều đề cập đến bí quyết kiếm tiền, từ việc có niềm tin, có mong muốn cho đến những kiến thức chuyên sâu, những ý tưởng , những kế hoạch, những cách đưa ra quyết định,... Tuy nhiên, có một điều tôi thắc mắc là không biết do bản thân tôi chưa đủ khả năng để tiếp thu những gì tác giả viết trong cuốn sách hay là cuốn sách khá khó hiểu và trừu tượng. Đó là cảm nhận của cá nhân tôi, còn với mọi người khi đọc nó thì cũng có thể có những cảm nhận khác. Và nếu bạn thực sự sẵn sàng đón nhận cuốn sách, nó sẽ đưa bạn đến thành công
5
414919
2014-10-13 21:08:37
--------------------------
128031
10513
Mình đươc nghe giới thiệu rất nhiều về Napoleon Hill và 13 Nguyên tắc Nghĩ Giàu - Làm Giàu. Sau rốt vì cũng muốn biết thực hư nên đã mua cho được bản in của cuốn này.

Cuốn đầu tiên mình đọc cùng tác giả là Chiến Thắng Con Quỷ Trong Bạn, và thực tình mình không đánh giá cao lắm cuốn sách về khía cạnh phong cách hành văn. Tuy nhiên cuốn sách này mình đáng giá cao hơn hẳn.
Trước hết cuốn sách này khá là rõ ràng về mặt bố cục, các nguyên tắc được lí giải ngày ở phần đầu mỗi chương. Các ví dụ, trích dẫn hay và hợp lí. Cuốn sách có độ dài vừa phải, không làm người đọc thấy "thừa" như cuốn Chiến Thắng Con Quỷ Trong Bạn. 
Nhưng cuốn sách này vẫn còn khó hiểu với mình bắt đầu từ nguyên tắc thứ 6 trở đi, vì từ đây, mình chưa thực sự hiểu Napoleon Hill đang hướng dẫn chúng ta làm giàu với tinh thần doan chủ hay tình thần đi làm công ăn lương? 

Có lẽ do cá nhân mình chưa đủ tầm để hiểu hết những gì tác giả chia sẻ trong cuốn sách này. Tuy nhiên mình sẽ còn đọc lại ngay khi đã áp dụng được chương 1 của cuốn sách này một cách nhuần nhuyễn.
4
104777
2014-09-28 14:29:33
--------------------------
122381
10513
Napoleon Hill chính là cha đẻ của môn khoa học thành công. Những đứa con tinh thần của ông có giá trị rất lớn đối với những người đã được đọc nó. Tôi sưu tầm đọc hầu hết các tác phẩm của ông. Quả thật, với công sức 25 năm nghiên cứu về sự thành công của 500 người trêm khắp nước Mỹ, ông đã cho ra đời những kiệt tác màn con người đến đỉnh cao của thành công
   Trước hết về hình thức: giấy trắng, mịn, dày; thiết kế bìa bắt mắt, ấn tượng rất lôi cuốn người đọc. Trong môic chương, những từ khóa quan trọng đều được làm nổi bật và đều có bố cục: lý thuyết ➕cách thức thực hiện rất chi tiết, ngôn từ đơn giản, dễ hiểu.
    Về nội dung: 13 nguyên tắc nghĩ giàu làm giàu chính là 13 nguyên tắc chủ chốt, quan trọng nhất. Những quyển sách làm giàu của tác giả khác chỉ là sự kế thừa và tiếp nối những nguyên tắc trên mà thôi.
    Tôi đã đọc rất nhiều sách kinh tế của các tác giả: Mark victor Hasen, Robert Allen, T. Harv Eker,... nhưng đây chính là quyển hay nhất tôi đã từng đọc!
5
381173
2014-08-25 16:49:36
--------------------------
117957
10513
Đây là bản tái bản do Thái Hà thực hiện nhìn bắt mắt và bố cục tốt hơn của First News dù nội dung phần lớn giống nhau. 
Tôi đã đọc nhiều các cuốn sách dạy về thành công và kinh doanh và nhận thấy hầu hết đều có những điểm tương đồng trong nội dung với cuốn sách của Napoleon Hill. 
Những mẹo nhỏ ta thực hiện hàng ngày sẽ có thể mang lại những kết quả to lớn hay một ý chí sắt đá sẽ mang lại một tương lai tươi đẹp. Tất cả đều được miêu tả rất rõ ràng và hấp dẫn trong quyển sách này. 
Nội dung không chỉ áp dụng trong kinh doanh mà tất cả các lĩnh vực trong cuộc sống, phù hợp cho mọi người ở mọi lứa tuổi.
5
288528
2014-07-24 21:24:23
--------------------------
90823
10513
Dù bạn đang là ai và đã đọc bao nhiêu sách làm giàu trước đó đi nữa, tôi khuyên bạn hãy mua cuốn sách này.

Lần đầu tiên khi đọc cuốn sách, điều tôi vô cùng ngạc nhiên là sự kỹ lưỡng của nó: một dọc những con người nổi tiếng và thành công khẳng định là sự giàu có của mình thông qua việc thực hành những bước trong sách, lời tựa mở đầu được chia làm hai phần cho những người đã từng đọc và chưa từng đọc sách của tác giả…. Và xuyêt suốt cuốn sách, những phương pháp làm giàu dù không mới như suy nghĩ tích cực, hành động hiệu quả…nhưng được phân tích vô cùng tỷ mỉ (một công trình thực sự công phu với 20 năm nghiên cứu của ông). Tôi dám cá rằng, khi đọc cuốn sách, dù bạn đang đứng ở vị trí nào trong cuộc sống thì vẫn có thể tìm thấy được giải pháp vượt qua được đề cập trong cuốn sách.

Tỉ mỉ, sâu sắc, chi tiết và hoàn toàn biến giấc mơ làm giàu của bạn thành có thể. Đây là một cuốn sách tuyệt vời.

5
40504
2013-08-13 15:57:44
--------------------------
85151
10513
Tôi đã kỳ vọng cuốn sách sẽ "thật sự" chỉ cho người ta cách kiếm tiền và trở nên giàu có, như lời hứa trong tựa đề... Tôi đã lầm. Tuy nhiên, sau đó lại học được hiệu quả đáng kể của việc "hình dung ra kết quả mong muốn đạt được". Trong đó, nếu mỗi ngày chúng ta đều tưởng tượng, hình dung ra cái đích mà ta mong muốn, thay vì chỉ sống cho qua ngày, khả năng ta cán đích thật sẽ tăng cao.

Một điều khác mà tôi học được đó là cửa chỉ mở khi ta bắt đầu gõ, bất kể đó là cánh cửa dẫn ta đến nơi đâu (tiền của, hạnh phúc, tình bạn, tình yêu, gia đình...)
5
62250
2013-07-03 21:27:38
--------------------------
80573
10513
Napoleon Hill có lẽ là tác giả bậc thầy trong dạy cách làm giàu. Lí do là vì ông đã dành hơn 20 năm cuộc đời để tiếp xúc , tìm hiểu rất nhiều người thành công và ấp ủ để viết ra cuốn sách này. 
Dĩ nhiên 13 quy tắc trên là đúc kết sau 20 năm của nhiều người đã từng thành công, vậy mà những quy tắc này rất đơn giản , rất dễ thực hiện đến không ngờ, vấn đề ở đây chỉ là bản thân ta phải kiên trì, tin tưởng và hành động đều đặn , kiên trì để đạt được kết quả mà thôi. Tôi rất biết ơn anh trai tôi vì đã cho tôi đọc cuốn sách này . 
4
22174
2013-06-13 11:38:41
--------------------------
67588
10513
Bạn không thể tưởng tượng tôi đã thay đổi như thế nào kể từ khi tôi đọc cuốn sách này đâu. Tôi nghe rất nhiều về cuốn sách kỳ diệu này nhưng bản thân vẫn chưa tin tưởng lắm, tuy vậy cuối cùng tôi vẫn chọn nó, bởi vì ai cũng thích GIÀU CÓ! 
Ấn tượng đầu tiên là khi nhận được đơn hàng là sách được bọc plastic dày cẩn thận, tôi đặc biệt thích Tiki ở điểm này. Sau đó, tôi rất tò mò và mở ngay sách để xem. Đọc qua mục "Những lời khen tặng" cộng với những hiểu biết của mình về tác giả, tôi bắt đầu có hy vọng hơn rằng đây sẽ là 1 cuốn sáh hay. Và giờ, tôi hoàng toàn tin tưởng rằng: cuốn sách thật sự bổ ích. Tôi phải thừa nhận rặng đến giwof tôi vẫn chưa đọc hết cuốn sách, nhưng giờ tôi đã thay đổi rất nhiều. Tôi bắt đầu hình thành những suy nghĩ tích cực, chủ động, tự tin. Tôi cũng tạo được cho mình thói quen làm việc, học tập có kế hoạch, đặt mục tiêu và kế hoạch hành động (ngắn hạn, trung hạn và dài hạn). Dù tôi thậm chí còn chưa bước vào cánh cổng đại học nhưng bây giờ tôi nhận ra rằng mình đã là người giàu có. Nhờ những nguyên tắc của Napoleon Hill, tôi đã biết cách ứng xử thông minh, được mọi người yêu quý, cha mẹ không còn phàn nàn, những lỗi trước kia đã được khắc phục. Tôi nghĩ rằng, những điều này sẽ là bàn đạp để tôi trở thành 1 người thật sự thành công, giàu có trong tương lai. 
Tôi thạt lòng khuyên bạn hãy chọn mua trọn bộ 3 cuốn Grow rich của tác giả lừng danh này. Tôi biết, nó cần thiết cho bạn!
5
36378
2013-04-07 20:28:46
--------------------------
22174
10513
Tôi luôn mang trong mình một khát khao cháy bỏng muốn làm giàu từ chính hai bàn tay trắng của mình. Vì vậy tôi đã tìm đến rất nhiều cuốn sách để biến những ước mơ làm giàu thành hiện thực. Và rồi tôi đã may mắn tìm thấy 'Think and grow rich!', một cuốn sách tôi đã nghe ca ngợi rất nhiều nhưng phải đọc tôi mới cảm nhận được hết giá tri mà nó mang lại. Nó tạo cho tôi một động lực mạnh mẽ để viết ra những kế hoạch, nghĩ về nó hằng ngày và đang từng bước biến nó thành hiện thực. Nó đã xóa bỏ mọi rào cản ngăn cách tôi đến với con đương thành công mà tôi đã từng mơ ước. Hãy đọc nó và cảm nhận! Bạn sẽ khám phá ra những điều mà có người phải mất cả đời ngườ mới nghiệm ra. Không bao giờ là quá muộn nhưng sớm vẫn tốt  hơn bạn ạ! 

"THINK AND GROW RICH...
MUA NÓ...
BẠN CÓ MỘT CUỐN SÁCH...
ĐỌC NÓ...
BẠN CÓ CẢ MỘT KẾ HOẠCH LÀM GIÀU...
LÀM THEO NÓ...
BẠN CÓ CẢ THẾ GIỚI."
(Cactus Jack Barringer, doanh nhân, nhà phát minh)

Tôi rất hài lòng về chất lượng sách ở TIKI.VN , giá cả cũng rẻ hơn so với ở ngoài và còn tặng cả bao sách, điều mà tôi chỉ thấy ở đây!


5
25073
2012-03-20 19:59:06
--------------------------
15283
10513
Sau khi đọc xong cuốn sách này, tôi nhận ra một điều: “Tất cả những việc làm, những hành động, cách nhìn nhận sự việc của chúng ta trong cuộc sống đều bắt đầu từ SUY NGHĨ”. Suy nghĩ quyết định hành động, hành động quyết định kết quả của công việc. Nếu bạn tỏa ra những năng lượng tích cực thì kết quả bạn nhận được là tích cực và ngược lại. Đây là bí mật của luật hấp dẫn. Chính trong suy nghĩ của chúng ta sinh ra năng lượng quyết định sự thành hay bại của công việc và quyết định tư duy tích cực hay tiêu cực trong cảm xúc của mỗi con người. Hãy suy nghĩ tích cực, hành động tích cực để tạo nên thói quen tích cực, từ đó bạn sẽ nhận kết quả tích cực. Hãy đọc và áp dụng 13 nguyên tắc nghĩ giàu, làm giàu để học được cách thành công nhé!
5
2485
2011-12-02 17:13:51
--------------------------
