494318
10551
Bìa sách đẹp, nhưng khi lật bên trong thì có vết ố vàng, rỉ sét. Nội dung cũng không được phong phú. Cả quyển sách chỉ có 4 trang (luôn bìa) nên giá thành sách như thế mình thấy hơi mắc. 
2
835087
2016-12-06 13:02:38
--------------------------
