5190
10876
Bộ sách này gồm nhiều câu chuyện ý nghĩa theo các chủ đề. 
Các bé phải tự rút ra bài học sau mỗi câu chuyện. Người lớn khi đọc cũng thấy khá thú vị. Bộ sách giúp các bé trưởng thành, suy nghĩ chín chắn, có tính giáo dục cao. 
Tuy nhiên bộ này thích hợp cho các bé đã vào cấp 1 , cấp 2 . Ngoài ra sách không có nhiều hình ảnh màu .  
3
3859
2011-05-28 16:47:06
--------------------------
