574613
1387
Sách dễ thương, nhưng thiết kế cơ học không được tốt nên vài lần kéo đẩy là bong tróc. Nhìn chung sản phẩm ổn so với giá.

Tiki giao hàng tốt. Mình rất thích dịch vụ giao hàng, đóng gói của Tiki.
4
810246
2017-04-16 11:20:00
--------------------------
