542397
1738
Mình đã mua cuốn này, giao hàng đúng hẹn. Thái độ nhân viên lịch sự. Bao bì sản phẩm tốt. Giá rẻ hơn ngoài Fahasa. Đó cũng chính là lý do mình chọn mua sách trên TIWI. Nói chung rất hài lòng.
5
2134127
2017-03-15 06:56:19
--------------------------
