567121
2036
Cuốn sách như là 1 biển từ vựng, cụm từ vậy, mới lật ra đọc có 3 trang mà vốn từ không thể dịch hết được, nào là từ điển, bạn bè, thầy cô nữa, say mê với việc dịch đến nỗi hôm rồi mình được nghỉ hết 1 tiết av ( tăng tiết ) chỉ để dịch vài câu bọ
Nguyên nhân là vừa cung cấp được từ vựng, nội dung hay, sách đẹp quá trời luôn, lâu lâu có hình minh hoạ nữa :3
5
1386855
2017-04-08 00:07:35
--------------------------
