558849
2038
Bọc sách và hộp đôi chỗ còn bị rách, kể cả sách cũng bị bong tróc, nội dung thì không nói làm gì. Tiki giao hàng nhanh, chị giao hàng rất tử tế( và xinh gái nữa), nói chung là mình hài lòng :D
4
2117196
2017-03-30 09:29:21
--------------------------
