575233
4891
Mình rất thích mua những loại sách thế này cho bé nhà mình (18 tháng)

Bé rất thích vì màu sắc đẹp, nhiều bài đồng dao hay, dễ đọc, dễ nhớ.

Bé nhà mình nhờ đọc những quyển thế này mà đã thuộc được rất nhìêu ca dao, vè, thơ cho trẻ em.
5
65672
2017-04-17 09:35:28
--------------------------
