503165
5834
Tôi mua quyển này cho con tôi luyện thi Toefl Primary step 2. Con tôi rất thích quyển sách vì có nhiều từ vựng và cấu trúc ngữ pháp mới phù hợp với bài thi. Bài nghe và bài đọc là một bài giúp bé dễ học hơn. 

Con tôi rất thích!
4
1384584
2016-12-31 16:15:36
--------------------------
