577597
6108
Trời ơi phải chi mh biết cuốn sách này sớm hơn
Rất bổ ích đúng thứ mh cần
5
5198088
2017-04-19 15:19:20
--------------------------
572165
6108
Đọc giới thiệu và mục lục rất hay nhưng đến lúc đọc nội dung thì lộn xộn như kiểu đang đọc mấy posts trên các diễn đàn. Phần chia sẻ và ví dụ quá nhiều gây rối. Giọng văn 1 chiều và hơi áp đặt lí tưởng về một "em bé ngoan". Phần về ăn dặm hữu ích với mình nên mới kéo lại được 2 sao.
2
592909
2017-04-13 14:13:17
--------------------------
554665
6108
Cuốn sách này rất hữu ích với những ng lần đầu làm mẹ như mình. Nhà sách giao hàng rất nhah, đóg gói bao bì đẹp, mình rất hài lòg. Mình sẽ ủng hộ lâu dài
5
2210970
2017-03-26 09:08:24
--------------------------
553989
6108
mình phải đọc đi đọc lại và rất tập trung mới nắm được 1 phần về ý đồ mà tác giả muốn thể hiện, bản thân mình không tán thành việc luyện ngủ cho con từ quá sớm và tách con ko cho ngủ cụng mẹ, phương pháp ăn dặm chủ yếu mà cuốn sách nói đến là ăn dặm bé chỉ huy, mình nghĩ cũng khó mà áp dụng được vào môi trường sinh hoạt ở việt nam
3
5100207
2017-03-25 14:21:22
--------------------------
552773
6108
Điều khiến mình không hài lòng về cuốn sách này là dù có tới 3 đồng tác giả và đã tái bản lần thứ 11 nhưng vẫn đầy lỗi chính tả, đếm sơ qua chắc phải đến hơn 20 lỗi. Một cuốn sách được biên soạn cẩu thả như vậy khiến mình đặt câu hỏi liệu nội dung của nó, những phương pháp, kinh nghiệm mà tác giả đưa ra có đáng tin cậy hay không. Đọc cuốn này rồi mình chắc chắn sẽ không mua thêm cuốn Ăn dặm không phải là cuộc chiến của nhóm tác giả này.
2
360668
2017-03-24 11:15:22
--------------------------
548409
6108
Cũng hay mà không biết có áp dụng đc với con mình k nữa
4
5093753
2017-03-20 15:12:26
--------------------------
545329
6108
Cuốn sách cung cấp các kiến thức cần thiết cho các bà mẹ trẻ. Các vấn đề nêu trong sách rất thực tế, thường gặp và cách xử lý cũng  đơn giản dễ hiểu
5
471300
2017-03-16 22:13:06
--------------------------
500649
6108
Cuốn sách này có những thông tin hữu ích nhưng cách viết lặp đi lặp lại và đọc có vẻ lũng cũng. Đôi khi việc hướng dẫn phương pháp thực hiện không rõ ràng.
3
257670
2016-12-27 10:39:18
--------------------------
490784
6108
Với một người lần đầu làm mẹ như mình thì quyển sách này thực sự rất hữu ích. Từ khi đọc nó mình cảm thấy nuôi con nhẹ nhàng và nhiều niềm vui hơn. Hiện giờ mình đang rất háo hức để chuẩn bị cho bé thực hành BLW :)
4
168569
2016-11-14 16:59:52
--------------------------
490742
6108
Khi đọc quyển sách này xong, tôi chỉ tiếc là không mua sớm hơn. Một cuốn sách vô cùng thiết thực, bổ ích đối với các bà mẹ nuôi con nhỏ; tôi đã áp dụng thành công easy và luyện ngủ cho con mình. Sau này sẽ tiếp tục vớii các phương pháp bé ăn dặm chỉ huy
2
100825
2016-11-14 14:17:10
--------------------------
486860
6108
Lần đầu làm mẹ với rất nhiều bỡ ngỡ. Mình đã tìm đọc quyển sách này và nhờ đó đã hiểu hơn nhiều thứ về con trẻ. Nhờ nó mà mình có thể tạo nếp sinh hoạt tốt cho con và sách giải đáp cho mình nhiều thắc mắc mà trong quá trình nuôi con mình gặp phải. Không mang nặng tính lý thuyết, toàn bộ nội dung sách như những lời chia sẻ rất thực tế từ những người từng làm mẹ. Quyển sách còn tổng hợp kiến thức các bà mẹ góp nhặt được từ các sách khác và kinh nghiệm áp dụng các kiến thức đó lên con mình. Các mẹ nên đọc từ khi mang bầu để hiểu và áp dụng tốt nhất cho con kể từ khi vừa sinh bé ra.
5
75130
2016-10-17 17:34:39
--------------------------
480285
6108
Điều khiến mình không hài lòng về cuốn sách này là dù có tới 3 đồng tác giả và đã tái bản lần thứ 11 nhưng vẫn đầy lỗi chính tả, đếm sơ qua chắc phải đến hơn 20 lỗi. Một cuốn sách được biên soạn cẩu thả như vậy khiến mình đặt câu hỏi liệu nội dung của nó, những phương pháp, kinh nghiệm mà tác giả đưa ra có đáng tin cậy hay không. Đọc cuốn này rồi mình chắc chắn sẽ không mua thêm cuốn Ăn dặm không phải là cuộc chiến của nhóm tác giả này.
2
891523
2016-08-16 16:44:47
--------------------------
475811
6108
Thật băn khoăn lo lắng khi làm mẹ lần đầu. Vs quyển sách này tôi có thể hiểu được tâm lí,  nhu cầu của con để đáp ứng. Khi nào con cần ăn. Con cần ngủ bao nhiêu tiếng trong 1 ngày. Giai đoạn nào con trở chứng... đều được giải đáp trong sách..
Nhờ đọc sách này mà mình có thể luyện con ăn ngủ sinh hoạt theo nếp phù hợp vs lứa tuổi của trẻ Theo một cách khoa học và đúng nhu cầu của con

  Rất bổ ích cho các mẹ sinh con đầu lòng. 
Đây là quyển sách nên đọc các mẹ ạ.
5
902673
2016-07-16 15:41:43
--------------------------
474968
6108
1 - Nội dung sách rất phù hợp các các mẹ mới có con đầu lòng - gia đình mình đã áp dụng và thấy rất thành công trong 1 số lĩnh vực như: 
 * giờ ăn 
 * giờ ngủ
 Lưu ý: những cặp vợ chồng trẻ sống tách biệt với ông bà thì sẽ dễ dàng áp dụng hơn vì có 1 số quan điểm cách thức ăn và dạy trẻ trái ngược với phong tục của người Việt mình nên khá khó khăn khi ở cùng với ÔNg Bà

2 - Về giao nhận hàng của TIKI mình rất ưng ý vì được bọc gói cẩn thận và giao đúng ngày được hẹn trước                                                                     
5
840148
2016-07-12 12:50:39
--------------------------
470034
6108
Nuôi con không phải là cuộc chiến là cuốn sách hữu ích dành cho các bà mẹ bỉm sữa. Tác giả đưa ra một số phương pháp và kinh nghiểm nuôi trẻ sơ sinh. Mỗi bà mẹ đều có cách dạy con khác nhau, không thể áp dụng hết được những phương pháp vì còn tuỳ điều kiện mỗi gia đình. Nên đọc sách này có thể chọn lọc được những phương pháp phù hợp với điều kiện hoàn cảnh với từng gia đình. Trẻ con cần được dạy tính tự lập từ bé, không nên quá bao bọc chúng. Một cuốn sách bổ ích!
4
309333
2016-07-07 08:48:58
--------------------------
469097
6108
Nuôi con quả thực là cuộc chiến, mình đã tìm đến cuốn sách với mong muốn tìm được hướng đi đúng trong việc nuôi dạy con. Sách đưa ra khá nhiều kinh nghiệm và kiến thức. Tuy nhiên, phương pháp quả thực tôi không thể đồng tình, nếu có ai đã đọc các cuốn sách nuôi dạy con của Nhật hay cuốn Mẹ Việt dạy con bước cùng toàn cầu sẽ thấy cách rèn con tự ngủ một mình trong phòng, hay bỏ đói để bú bình quả thực sẽ mang tới những tổn thương không gì đong đếm được cho đứa trẻ, đây có lẽ là một sự ích kỷ của người mẹ khi mong muốn được nhàn nhã. Tôi vẫn thấy không nên tước đi quyền được gần mẹ, được ôm ấp vỗ về của trẻ.
2
6753
2016-07-05 23:09:55
--------------------------
466847
6108
Lúc mang bầu mình đã đọc và nghiền ngẫm quyển sách này rất nhiều lần, highlight các mục và quyết tâm cao là sẽ áp dụng được cho con mình. Sách nêu lên cách dạy con theo phương pháp EASY - mẹ nhàn, con ngoan. Tuy nhiên, phương pháp này rất khó áp dụng nếu ở chung với ông bà theo kiểu truyền thống, và vợ hoặc chồng không đồng tâm hiệp lực, quyết tâm thực hiện. Mình đã thất bại khi không áp dụng được phương pháp này nhưng mình vẫn thấy đây là 1 quyển sách rất hay và đáng đọc.
4
438329
2016-07-02 22:58:10
--------------------------
465520
6108
 Đây là quyển sách gối đầu cho Bất kì bà mẹ nào... Nó giúp giải quyết các thắc mắc ,những trăn trở mà không ai đã và đnag là mẹ k mắc phải...
Con bạn khóc tại sao?
Con bạn không bú thành bữa?
Con bạn ngủ không ngon?
Tất cả đều khiến các mẹ mệt mỏi,vì cố gắng vì không hiểu con mình
Tất cả đều có trong cuốn sách này!!

Đó là lí do vì sao mình đã từng bạn đọc xong vẫn phải kiếm 1 cuốn để đầu giường!
Cảm ơn tác giả về cuốn sách hay!

5
1407460
2016-07-01 09:05:12
--------------------------
460736
6108
Mình đã có con gái 9 tuổi, song đọc cuốn sách Nuôi con không phải là cuộc chiến vẫn thấy thực sự thú vị và bổ ích. Rút kinh nghiệm từ bé trước, vừa ăn vừa chơi, có bữa ăn đến gần 1 tiếng :-) Lần này, mình đang tập cho bé thứ 2 phương pháp ăn dặm bé chỉ huy. Hy vọng bé sẽ tự khám phá mùi vị, màu sắc và hứng thú với các bữa ăn, đồng thời phát triển tính tự lập và quyết định ăn theo nhu cầu của chính mình. Giống như tác giả cuốn sách: Hãy tin tưởng ở bé và trao cho bé quyền được tự quyết định ăn gì, ăn như thế nào và ăn bao nhiêu. Cảm ơn Tiki.vn đã giới thiệu cuốn sách rất bổ ích.
5
1424738
2016-06-27 11:33:55
--------------------------
453978
6108
Cuốn sách xoay quanh vấn đề ăn ngủ chơi của 1 đứa trẻ. Cái hay ở chỗ tôi biết được cái giai đoạn phát triển khó ở của con để an lòng, tập cho con bú no, ăn dặm tốt. Nhưng cái dở là tập ngủ tôi không làm được, mặc dù bản thân tôi là 1 bà mẹ khá phát xít. Áp dụng mọi cách, nhưng khi nhìn con khóc um tỏi, nức nở 1 mình trong cũi vẫn không ngủ được thì tôi chịu thua. Các bà mẹ vẫn nên mua cuốn sách này, mặc dù nó hơi Tây, vẫn có nhiều điều đáng học hỏi.
3
36964
2016-06-21 17:07:50
--------------------------
435286
6108
Mình đã biết và đọc quyển này trên ebook, tuy nhiên vì sự phù hợp của sách, mình quyết định phải có 1 quyển trong kệ sách nhà mình.
Và thật sự sách giúp ích cho mình rất nhiều khi lần đầu nuôi con. Để việc nuôi con không phải là cuộc chiến thật không đơn giản. Mình đã đọc sách trước khi sinh, nhưng đến khi nuôi con thì phải lật lại từng trang sách, nghiêng cứu từng chữ, tìm hiểu từng kinh nghiệm của người đi trước được viết trong sách để giải quyết vấn đề gặp phải khi nuôi con.
Rất cảm ơn nhóm tác giả đã tổng hợp kiến thức nuôi con của mình để viết ra quuen63 sách này
4
1307339
2016-05-24 21:11:53
--------------------------
434070
6108
Mình đã rất lúng túng không biết phải làm gì với bé con trước khi đọc được cuốn sách này. Tuy chưa đọc hết nhưng theo cảm nhận của mình thì đây là cuốn sách các ông bố bà mẹ chắc chắn phải đọc để công việc "làm bố mẹ" không còn cực nhọc, stress nữa. Sách hướng dẫn một cách chi tiết cách nuôi dạy giúp các bé phát triển toàn diện phù hợp với từng giai đoạn phát triên, dựa trên những kiến thức khoa học. Ngoài ra sách được trình bày đẹp, dễ hiểu nên khiến người đọc thấy vô cùng cuốn hút. Cảm ơn Tiki vì đã giới thiệu những quyển sách hay như thế.
5
1175020
2016-05-22 11:02:27
--------------------------
432699
6108
Vợ chồng mình đang đự định có em bé nhưng chưa có kinh nghiệm nhiều trong vấn đề này, mặc dù biết luôn có mẹ hỗ trợ khi sanh và nuôi con, dù vậy 2 vợ chồng vẫn thấy thật lúng túng khi hầu hết các kiến thức 2 vợ chồng có được không phải đến từ thực tiễn. Vì vậy vợ chồng mình quyết định gia tăng thêm kiến thức nền bằng việc đặt mua vài cuốn sách liên quan đến việc chăm sóc sau sinh nở lần đầu và chăm con, một trong số đó là cuốn “Nuôi con không phải là cuộc chiến”. Đọc xong mới thấy cuốn sách này rất hữu ích và thiết thực trong quá trình nuôi dạy con trưởng thành.
Và với dân mọt sách như mình thì đây là 1 trong những tựa sách không thể thiếu trên kệ sách gia đình và thật sẽ hối hận nếu không chọn mua.
5
929376
2016-05-19 16:15:04
--------------------------
426660
6108
Mình mua cuốn sách này khi còn đang bầu bí, cũng nghiên cứu trước để chuẩn bị cho bé ra đời một cách hoàn hảo nhất. Tuy nhiên với cá nhân mình thấy thì chỉ nên tham khảo phần nào thôi. Bởi mỗi bé mỗi tính, và hoàn cảnh gia đình lại khác nhau nữa. 

Chồng mình khi thấy con cứ lèo nhèo cả ngày thì nhìn cuốn sách và nói đùa là "nuôi con không phải cuộc chiến mà là cuộc đại chiến". Tuy nhiên nếu như mẹ nào áp dụng được như sách hướng dẫn thì công nhận sẽ nhàn mẹ nhàn con lắm đó!
3
394969
2016-05-07 12:25:44
--------------------------
423301
6108
Tôi thấy quyển sách này sẽ phù hợp cho mẹ nào chưa từng đọc bất cứ quyển sách nào về phương pháp EASY và ăn dặm chỉ huy. Nếu đã đọc quyển " Đọc vị mọi vấn đề của trẻ" của Trancy Hogg thì sẽ thấy quyển sách "Nuôi con không phải là cuộc chiến" như 1 bản sao phong cách Việt Nam, với những sơ đồ, bản biểu và hình ảnh dễ thương, dễ hiểu hơn nhưng không được sâu về chuyên môn. Nếu bạn là người ít đọc sách, không có kiên nhẫn để đọc nhiều quyển thì nên mua " nuôi con không phải là cuộc chiến" để tham khảo, còn muốn biết rõ về EASY thì nên mua " Đọc vị mọi vấn đề của trẻ" và" Nghệ thuật chăm con" của Trancy Hogg, biết về BLW thì nên mua quyển" Phương pháp ăn dặm bé chỉ huy" của Gill Rapley & Tracey Murkett để coi thì hay và chuyên sâu hơn.
3
576276
2016-04-28 23:51:15
--------------------------
418400
6108
Mình đã rất đắn đo khi đặt mua quyển sách này. Vì lời nhận xét cho nó quá hay quá nhiều nên cuối cùng mình cũng mua. Đổi với những kiến thức trong sách, mình ủng hộ. Tuy nhiên cách viết sách của tác giả chưa thật thuyết phục, đúng phù hợp với nguồn gốc là blogger, quyển sách chỉ là chuỗi những câu chuyện mẹ và con. Những kiến thức trong sách không mới với các mẹ đã chịu khó tìm hiểu thông tin trên mạng về BLW, về nuôi con khoa học,... 
Tuy nhiên các mẹ chưa từng tiếp xúc với các kiến thức này nên mua để tham khảo :)
3
471267
2016-04-19 09:44:04
--------------------------
408084
6108
Mình mua quyển sách này khi đang chuẩn bị nhưng điều tốt nhất cho bé chào đời. Lần đầu làm mẹ nên khá bỡ ngỡ khi tiếp cận với các phương pháp trong quyển sách. Mình nghĩ rằng việc rèn luyện cho bé theo các nội dung trong sách thực sự không phải là dễ, đặc biệt khi ở cùng với gia đình. Việc áp dụng các phương pháp này tùy thuộc vào tính cách, sức khỏe của mỗi bé. Tuy nhiên mình đã nắm thật kỹ các phương thức của tác giả, hy vọng mẹ con mình sẽ đồng hành vượt qua cuộc chiến này.
4
306966
2016-03-31 08:43:01
--------------------------
406438
6108
Tôi rất tâm đắc khi mua được cuốn sách này. Cuốn sách hướng dẫn chi tiết việc chăm bé từ giấc ngủ, miếng ăn, cách chơi và an toàn cho trẻ. Bà mẹ trong cuốn sách quả thật rất giỏi, đã nghiên cứu nhiều phương pháp và đã đúc kết cho riêng mình 1 phương pháp phù hợp và chia sẻ rất chi tiết trong sách. Mặc dù mỗi đứa trẻ có sự phát triển và tâm sinh lí khác nhau, nhưng cuốn sách đã mô tả rõ nét quá trình nuôi con, và vạch ra 1 hướng nuôi dạy con khoa học, rất thiết thực cho nhữnh người lần đầu làm mẹ.
Tôi rất thích mua sách của tiki, giá cả phải nói là rẻ nhất, giao hàng nhanh và được đóng gói cẩn thận, rất đẹp.
5
616843
2016-03-28 12:05:19
--------------------------
386157
6108
Lần đầu làm mẹ bao giờ cũng sẽ gặp rất nhiều bối rối, nhiều đến nỗi chúng cứ xếp chồng lên nhau và chất thành núi. Tôi cũng không ngoại lệ! 
Tôi luôn thắc mắc rằng tại sao có những đứa trẻ rất ngoan, bú no, chơi vui rồi lăn ra ngủ. Lại có những đứa trẻ hết bà hò đến mẹ ru, bế đu trên tay, đưa trên võng mà vẫn không chịu yên. Tôi thắc mắc trong bụng mẹ trẻ có được nằm võng hay bế trên tay mới ngủ được đâu, sao sanh ra lại thế?
Rồi có trẻ để ăn một phần ăn là cả xóm phải đóng vai ác "không ăn là ông Bảy/ bà Ba rầy", lại có trẻ tự chén sạch phần ăn của mình!
Tôi tìm đến quyển "Nuôi con không phải là cuộc chiến" với hi vọng không phải vật lộn từng ngày với con của mình. Và tôi biết được phương pháp EASY rèn con sinh hoạt theo nếp từ bé, cách đọc vị tiếng khóc của con, giá trị của sự chờ đợi khi chăm con và cách biến mỗi bữa ăn thành một giờ vui vẻ và no bụng...

4
574683
2016-02-25 09:38:17
--------------------------
372471
6108
Tôi đã mua cuốn sách tại tiki với giá khá rẻ so với tại các của hàng. Tôi thấy đây là một cuốn sách rất hay và bổ ích mà các bà mẹ nên có trong tủ sách nuôi con của mình. Cuốn sách đưa ta deens tưt những bất ngờ này đến bất ngờ khác ,cảm thấy như tác giả cuốn sách đang ngôi ngay tại trong nhà bạn nhìn con bạn từng ngày phát triển vậy. Tuy nhiên để áp dụng được vào cuộc sống của bạn cần phải rất kiên trì và là một và mẹ dũng cảm, nếu những ai sống với bố mẹ chồng thì khó thực hiện được theo sách vì các cụ hay cổ hủ và thương cháu mà. Nhưng chúc các bà mẹ tương lai đủ bản lĩnh tự tin làm theo sách.
3
922058
2016-01-21 18:14:05
--------------------------
355686
6108
Đúng như tựa sách đã nói - Nuôi con không phải là cuộc chiến . Khi bạn áp dụng được các phương pháp EASY , BLW cho con minh thì bạn chăm con rất nhàn ha mà con lại duoc tự lập được từ nhỏ. Tự ăn , tự ngủ , tự chơi .
Tuy nhiên bạn cần phải thật kiên trì mới co thể thành công được. Đặc biệt trong gia đình có nhiều thế hệ thì bạn phải làm công tác tư tưởng that kheo để mọi người ( nhất là ông bà ) hỗ trợ giúp bạn trong khi rèn luyện cho con . Neu bỏ cuoc giua chưng thi bạn lại trở về nuôi dạy con tuỳ tiện
4
655911
2015-12-20 14:47:01
--------------------------
354683
6108
Cá nhân tôi thì thấy cuốn sách này chỉ để tham khảo cho vui thôi.
Cuốn sách như "bom tấn" được rất nhiều mẹ bỉm ca ngợi này làm mình rất hào hứng chờ đợi nhận được sách. Nhưng thú thực khi đọc thì mình không áp dụng được là bao nhiêu.
Sách nói về cách ăn, cách ngủ, cách bé ăn dặm, cách dạy bé,... Nói chung là cũng đầy đủ nhưng không thiết thực với con tôi, không biết con các mẹ khác thì như thế nào ạ. Nên nếu thích các mẹ nên đọc online trước rồi hãy quyết định mua thì sẽ đỡ phí tiền hơn.
2
821288
2015-12-18 13:13:17
--------------------------
327558
6108
Được em gái giới thiệu mình đã mua cuốn sách này. Trước đây bé nhà mình quấy khóc ngủ ko ngon giấc. Mình đã tập cho bé ngủ theo phương pháp trong sách, ban đầu dù vất vả nhưng mình cũng cố gắng theo đến cùng, sau bao ngày vất vả thì kết quả thật bất ngờ bé nhà mình giờ ngủ ngon và sâu giấc hơn không còn quấy khóc nữa. Cảm ơn Tiki vì cuốn sách rất bổ ích. Tiki giao hàng rất nhanh đóng gói hàng rất cẩn thận. Chúc Tiki ngày càng phát triển hơn nữa.
5
856506
2015-10-28 02:31:10
--------------------------
322974
6108
Trước đây, bé nhà mình khó ăn khó ngủ và mãi không tăng cân. Mình đã rất đau đầu về việc này. Được chị bạn giới thiệu, mình đã đặt mua sách Nuôi con không phải là cuộc chiến. Và kể từ đó, "cuộc chiến" ở nhà mình bớt căng thẳng hơn nhiều. Mình đã biết đọc tín hiệu từ bé, đáp ứng nhu cầu của bé và cũng vì thế việc ăn ngủ của bé trở nên đơn giản hơn rất nhiều. 1 cuốn sách rất bổ ích và cần thiết cho những bà mẹ hay sắp làm mẹ!!!
5
819922
2015-10-17 14:55:57
--------------------------
319527
6108
Mua cuốn sách để tặng cho đồng nghiệp đang mang bầu, nhưng khi đọc thử tôi lại bị các phương pháp nuôi dạy trẻ kiểu hiện đại hấp dẫn. Cuối cùng tôi quyết định giữ cuốn sách cho mình. Bạn gọi cuốn sách này là cẩm nang cũng được, bí kíp cũng được, cuốn sách sẽ cho bạn cái nhìn mới về vấn về nuôi dạy trẻ. Bạn sẽ bất ngờ khi biết rằng các bà mẹ nước ngoài dạy bé từ khi bé biết nhìn nhận về thế giới quan, đó là thời gian tốt nhất để não bé học hỏi và phát triển. Nuôi dạy trẻ cũng như ươm trồng một mầm cây, chứ không phải là cuộc chạy đua trên đường băng.
5
816965
2015-10-08 22:19:52
--------------------------
317319
6108
Đây là tác phẩm rất hữu ích đối với các ông bố bà mẹ trong việc nuôi con. Tôi đã từng rất khủng hoảng với việc ăn ngủ của con. Nhờ đọc sách tôi biết được những khó khăn của con để thích nghi với cuộc sống mới mẻ, những tuần wonder weeks con bỏ ăn bỏ bú... Nhờ thế mà tôi không phát hoảng với những thay đổi của con. Sách viết rất tỉ mỉ và lôi cuốn. Rất đáng có trong tủ sách nuôi dạy con cái của các bậc cha mẹ chúng mình.  Hay và hấp dẫn.
5
389169
2015-10-03 05:50:10
--------------------------
316260
6108
Cuốn sách hay và hữu ích với những ông bố bà mẹ nuôi con nhỏ. Nội dung sách viết khá tỉ mỉ với những câu chuyện là trải nghiệm của người viết trong quá trình nuôi con từ sơ sinh đến lứa tuổi mẫu giáo. Mình thích nhất phần luyện con tự ngủ, bởi có con hay gắt ngủ mình mới hiểu được nếu con biết tự ngủ sẽ nhàn biết bao. Về phương pháp ăn dặm BLW cũng khá mới mẻ và thú vị. Mình hoàn toàn ủng hộ các tác giả đánh giá cao việc rèn con tự lập sớm.
4
622106
2015-09-30 15:50:11
--------------------------
315744
6108
Trong cơn khủng hoảng vì tình trạng ăn ngủ lung tung và hay quấy khóc của con, mình đã tìm đến cuốn sách này theo lời giới thiệu của một người bạn mới sinh con trước đó. Suy nghĩ đầu tiên của mình khi đọc những thông tin trong sách đó là “trời ơi, sao mình không tìm mua cuốn sách này sớm hơn để có thể luyện cho con một nếp ăn ngủ tốt ngay từ những ngày đầu mới sinh”. May mắn là mọi chuyện vẫn chưa quá muộn để có thể bắt đầu lại từ đầu, dù là khó khăn hơn. Cũng nhờ cuốn sách này mà  mình được biết thêm nhiều tài liệu hữu ích khác về nuôi con nữa. Nếu bạn đang có ý định sinh em bé, nên đọc cuốn này từ trước để có sự chuẩn bị tốt nhất cho hành trang làm cha mẹ của mình.
5
110939
2015-09-29 12:03:33
--------------------------
315624
6108
"Nuôi con không phải là cuộc chiến" là cuốn sách kinh nghiệm, kỹ năng dành cho những ai đang và chuẩn bị làm mẹ. Mỗi giai đoạn của con đều có thể tìm thấy trong cuốn sách này, rất chi tiết và dễ hiểu. Cuốn sách này là hành trang cần thiết cho các bố mẹ để có thể tìm ra cách nuôi dạy và chăm sóc con một cách khoa học, là các kinh nghiệm thực tế được đúc rút với từng giai đoạn của con, để có thể tìm ra cách nuôi con dễ dàng hơn.  Mình thấy rất bổ ích !
5
820431
2015-09-29 08:45:01
--------------------------
314161
6108
Bạn đã đọc nhiều cách chăm con kiểu Tây, kiểu Nhật ... thì đây là cách chăm con của mẹ Việt, nhưng không phải theo cách truyền thống là mẹ con hò hét nhau từ đầu làng đến cuối xóm để ăn xong bát cháo. Nó là đúc kết kinh nghiệm nuôi con của chính các tác giả khi tham khảo các kiểu Tây, Nhật ... và rút ra cách phù hợp với trẻ em Việt nhất. Đọc sách bạn sẽ hiểu được tại sao có những lúc con lại trở nên cáu gắt, khó ở.... đó là WW và đó là điều bình thường, mẹ cứ yên tâm. Và còn rất nhiều kiến thức bổ ích khác nữa. Sách cũng đính kèm quà tặng của tác giả là thực đơn ăn dặm 7 ngày trong tuần cho con rất phong phú, đa dạng. Tuy có một số hướng dẫn mình không làm theo được nhưng mình khá là hài lòng với nội dung và cách trình bày của cuốn sách, giúp mình tự tin nuôi con.
5
587603
2015-09-25 15:06:44
--------------------------
313040
6108
"Nuôi con không phải là cuộc chiến" là cuốn sách có nhiều thông tin bổ ích, chỉ dẫn tỷ mỷ những kiến thức, kỹ năng nuôi dạy con.Cuốn sách giúp mình xây dựng một hệ thống kiến thức về quá trình phát triển của con, những biểu hiện cũng như cách xử lý tình huống với con hàng ngày. Là một ông bố trẻ đây là những kiến thức rất hữu ích vì trước giờ mình chưa hình dung ra phải làm bố và chăm con như nào. Không phải tất cả những điều viết trong sách là chuẩn 100% nhưng mình vẫn hài lòng về cuốn sách. 
4
456116
2015-09-22 18:41:20
--------------------------
312745
6108
Mình vô tình biết được sách thông qua bạn bè. Nó thật sự rất có ích cho những bà mẹ trẻ, phải nói là giảm phần nào áp lực nuôi dạy và chăm sóc con, điều mà những bà mẹ có con đầu lòng luôn bối rối. Thời buổi hiện đại, các ông bố bà mẹ thường ít có thời gian chăm sóc con cái, làm ảnh hưởng đến tâm lý của con rất nhiều. Nhưng cuốn sách này hầu như đều dẫn dắt bố mẹ đến những phương pháp, cách thức đúng đắn, để họ có thể vừa làm kinh tế, vừa có thể nuôi dạy con thật tốt mà vẫn cho con cảm nhận được tình cảm gia đình. Với lối văn rất Việt Nam, mình thật sự cảm ơn các tác giả đã cho mình những kiến thức sâu sát hơn mà vẫn cảm thấy gần gũi, không quá xa rời thực tế. Đó là tất cả hành trang mình cần mang theo khi chuẩn bị đón chào thành viên mới
5
79469
2015-09-21 22:52:47
--------------------------
311971
6108
Mình chưa có em bé, đặt mua cuốn sách này theo yêu cầu của cô em họ. Em mình nghiền ngẫm cuốn sách và tư vấn cho cô bạn hàng xóm cùng mua theo, theo đánh giá của em mình, đây là một cuốn sách rất có ích cho các bà mẹ trẻ, giải tỏa áp lực của lần đầu làm mẹ và có những phương thức chăm sóc trẻ rất hay và hiện đại.
Riêng mình rất ấn tượng về tựa sách, và chuẩn bị được "hưởng sái" cuốn sách từ cô em. Các chị, các mẹ cũng như Tiki có thể tư vấn cho những bà mẹ trẻ những cuốn sách với nội dung bổ ích và thực tế như thế này được không ạ?
4
616195
2015-09-20 15:10:21
--------------------------
310185
6108
Cuốn sách Nuôi con không phải là cuộc chiến đúng là rất đáng đọc. Lần đầu làm mẹ tôi rất lo lắng và căng thẳng. Lang thang trên Tiki thấy các mẹ đánh giá cuốn sách hay mình đã mua. Cuốn sách đã giúp mình biết được con đang ở giai đoạn nào canh giờ ăn ngủ ra sao để bé vui khoẻ không quấy khóc. Mình đang tập cho con bú bình theo cách trong sách nhưng bé chưa chịu hợp tác.Bên cạnh đó còn hướng dẫn dinh dưỡng cho bé và các cách chăm con mà nước ngoài hay áp dụng.
5
437659
2015-09-19 13:05:18
--------------------------
308237
6108
Sách là một con đường mới, hiện đại nhưng cũng rất khuôn khổ, chỉn chu. Phương pháp E.A.S.Y luôn là cách chăm con tốt, hiệu quả, thiết thực giúp ích rất nhiều cho cả mẹ lẫn con, giúp mẹ dễ hiểu các dấu hiệu khó ở của con trong tuần khủng hoảng. Mình đang tập áp dụng, tuy khó nhưng đỡ cho mẹ rất nhiều vì con chơi ngoan, ngủ dễ, bú đúng cữ, ít mẹ nheo hơn trước nhiều. Ngoài ra sách còn dẫn chứng nhiều trường hợp của các mẹ gặp phải, cũng tự mình dẫn con đi lại vào khuôn khổ với nhiều tình huống dở khóc dở cười, với hàng ngàn câu hỏi sẽ ổn chứ, con chịu không, còn có khóc quấy nữa không. Và thêm điều nữa, yếu tố môi trường bé tiếp xúc ảnh hưởng vô cùng mật thiết nếu bạn muốn rèn con theo ý mình khi con đang ở tuổi khám phá, vui đùa hơn bị bắt ép.
5
777071
2015-09-18 16:02:56
--------------------------
307434
6108
Vì nhà mình mới có em bé, mình đã mua hết cả 3 quyển Chờ đến mẫu giáo thì đã muộn, Trẻ em Pháp không ném thức ăn và quyển này. Có lẽ 2 quyển kia được các giáo sư viết hơi cao siêu =D, mình thấy quyển Nuôi con không phải là cuộc chiến này là thiết thực và bổ ích nhất. Sách hợp cho phong cách của người Việt mình hơn 2 quyển kia, những mẹo và cách thức thực hiện rõ ràng cụ thể, hợp lý. Do mình mới đọc ít ngày thôi, sẽ thử áp dụng cho cháu mình, hy vọng bé và mẹ có thể vui khỏe cùng lớn, hehe. Và tất nhiên là dùng kết hợp mấy quyển sách kia, chọn ra những gì thích hợp nhất mà dùng rồi
5
197238
2015-09-18 08:26:35
--------------------------
307074
6108
mình đã mua 2 cuốn là cuốn này và cuốn ăn dặm ko nước mắt, trong cuốn này còn giới thiệu thêm phương pháp ăn dặm chỉ huy (cho con ăn thô luôn, củ quả luộc chín chứ ko phải xay nghiền như ăn dặm nhật mình nghĩ sau khi đọc xong cả 2 cuốn cách nào phù họep sẽ áp dụng. Sách này có những điều mà 1 bà mẹ hiện đại, thông minh cần biết, dù có áp dụng đc theo sách hay ko thì ổn định tinh thần nuôi con theo cách hiện đại cũng là điêu tốt, khi mà những điều mà các cụ cho là đúng nhưng mình ko cho là đúng thì đọc xong càng củng cố niềm tin vào bản thân mình ;)
4
787673
2015-09-17 22:37:32
--------------------------
304916
6108
Là người lần đầu được làm mẹ của một đứa con, mình thật sự có rất nhiều băn khoăn và lo sợ. Nhưng sau khi tìm hiểu và mua cuốn sách này, đọc từng trang từng trang sách, mình sáng tỏ: "À thì ra nuôi con không phải là một cuộc chiến. Đó là một cuộc trải nghiệm vô cùng tuyệt vời của đời người mà người phụ nữ nào trên đời này cũng nên trải qua". Được làm mẹ, được chăm sóc nâng niu con thơ, được dạy dỗ con, được nhìn con ngày một trưởng thành, sống mạnh khỏe, ngoan ngoãn lễ phép .... Người mẹ nào lại không mong vậy?
5
514119
2015-09-16 18:48:19
--------------------------
304778
6108
khi gia đình nhỏ có thêm thành viên mới,mình vừa mừng vừa lo.lo không biết sẽ giáo dục con ra sao,những tình huống khó xử sẽ phải giải quyết thế nào.mình vô tình biết đến quyển sách này trên tiki.quyết định đặt về tham khảo.điều đầu tiên khi cầm trên tay quyển sách đó là sách khá nặng , dày, mình đã nghĩ sẽ rất lâu mới đọc xong mất,nhưng càng đọc càng lôi cuốn,cách sắp xếp bố cục của tác giả cũng hợp lí, dễ tra cứu thông tin. mình sẽ giữ gìn sách cẩn thận đến những lần sinh sau nữa
5
708673
2015-09-16 17:15:17
--------------------------
301317
6108
Cuốn này như là một cuốn cẩm nang vậy. Hôm mới mua về cầm lên thấy có vẻ rất dày, to, nặng, cũng băn khoăn không biết bao giờ mới đọc cho xong. Vậy mà rồi từ từ cũng tiếp cận được các thông tin trong sách thôi. Cách bố cục cuốn sách này rất khoa học, thuận lợi cho việc tra cứu. Thông tin đầy đủ, rõ ràng nên nếu gia đình nào mới có em bé đầu lòng cũng có thể tìm mua một cuốn cho tủ sách gia đình để xem lâu dài về sau. Những phần ví dụ trong cuốn sách này thực tế và sinh động nên người đọc cũng dễ dàng áp dụng. 
4
531312
2015-09-14 16:22:50
--------------------------
300577
6108
Cuốn sách mang lại rất nhiều kiến thức cần thiết và hữu ích về quá trình nuôi dạy trẻ, đây thật sự là cuốn sách cần thiết cho những bà mẹ trẻ. Nuôi con không phải là cuộc chiến mang đến nhiều thông tin về quá trình phát triển tâm sinh lý, sức khoẻ dinh dưỡng của trẻ con, và cả những kinh nghiệm làm mẹ rất hữu ích. Phần mình cũng thích trong quyển sách là phần hỏi đáp, rất thực tế, cảm ơn tác giả đã mang lại cho những bà mẹ những kiến thức vô cùng quý báo về cách nuôi dạy trẻ. Đây thực sự là cuốn sách nên đọc cho cho những ai sắp được và đang làm mẹ để có thể dạy và chăm sóc trẻ tốt hơn.
4
342197
2015-09-14 01:13:13
--------------------------
297111
6108
Mình vừa nhận được sách ngày hôm nay đã phải mở ra đọc luôn và nhận thấy cuốn sách rất hữu ích. Có ví dụ minh họa và hướng dẫn cụ thể chứ không phải chỉ là lý thuyết chung chung. Sách có những chỉ dẫn cụ thể cho các mẹ chăm sóc bé từ khi bé chào đời đến khi bé đi nhà trẻ. Điều mình thích nhất là những lý thuyết đều không phải máy móc mà đều có thể linh hoạt áp dụng trong từng điều kiện hoàn cảnh và tính cách của từng bé. Mình đang có bầu em bé 7 tháng và rất mong đến lúc được áp dụng những lý thuyết này cho bé yêu của mình.
5
192776
2015-09-11 16:23:31
--------------------------
295570
6108
Trước khi mua một cuốn sách, mình thường xem qua phụ lục để nắm nội dung cuốn sách. Nhưng với cuốn sách này, xem qua là không đủ, phải đọc kỹ, đọc đi đọc lại từng nội dung để nhớ và áp dụng khi chăm con. Giá như mình biết đến các khái niệm, nội dung trong sách sớm hơn để nuôi con đầu được tốt hơn. Đọc sách mới thấy nuôi con không đơn giản là chỉ cho ăn, ngủ đầy đủ, mà còn phải hiểu tâm lý từng giai đoạn phát triển của con. Cám ơn các tác giả và tiki (vì dịch vụ và đóng gói rất đẹp). 
5
113374
2015-09-10 13:58:47
--------------------------
295485
6108
Một quyển sách hay được đúc kết từ những kinh nghiệm thực tế của các bà mẹ đã áp dụng thành công các phương pháp dạy trẻ từ khi lọt lòng. Sách truyền đạt cách nhận biết các vấn đề của trẻ trong những năm tháng đầu đời- giai đoạn được xem là khó khăn nhất của trẻ và cũng là lúc mẹ bỡ ngỡ nhất, cũng như dạy cách ăn dăm hợp lý...Sách viết súc tích, dễ đọc, dễ hiểu,kèm theo những hình ảnh sinh động.Có thể nói đây là 1 cuốn sách đầu tiên viết bài bản và rõ ràng nhất về cách mẹ Việt nuôi con và dạy con kiểu Tây 1 cách khoa học. Cám ơn tác giả đã mang đến  cho độc giả 1 cuốn sách được xem như 1 cẩm nang cho các bà mẹ.
4
512701
2015-09-10 12:07:07
--------------------------
293183
6108
Mình biết đến cuốn sách trong những ngày đầu tiên khi nuôi con, lần đầu làm mẹ nên mình có nhiều bỡ ngỡ lắm, nhưng thật may mắn khi mua cuốn sách tại tiki mình đã hiểu được phần nào việc chăm con, tại sao con khóc, sao có thời gian con ngoan thế mà có lúc lại quấy thế.. Nhờ đọc sách mình biết được cách cho con bú, những tuần phát triển kĩ năng, cách dạy con tránh xa những nguy hiểm ..  Cảm ơn cuốn sách đã giúp mình khỏi bỡ ngỡ trong lần đầu làm mẹ.                                                                      
5
122573
2015-09-08 07:42:34
--------------------------
288008
6108
Có thể nói, nếu bạn đã đọc quển Nghệ thuật chăm con của Tracy Hogg mà vẫn chưa mường tượng ra hết cách áp dụng easy thì có thể đọc quyển này để hiểu thêm. Các tác giả trong sách đã áp dụng thành công và mô tả rõ ràng cho người đọc thấy cách áp dụng giờ giấc ăn ngủ chơi của em bé theo easy như thế nào. Nhờ cuốn này mình đã áp dụng cho em bé mình ngủ buổi tối được rất ngoan. Ngoài ra phần wonder weeks của sách đối với mình là rất mới mẻ và thú vị. Phần trả lời câu hỏi cũng rất hữu ích.
4
64085
2015-09-03 10:42:16
--------------------------
278081
6108
Cuốn sách cung cấp rất nhiều thông tin hữu ích cho các bà mẹ trong việc nuôi con: các quy tắc ăn ngủ, tuần khủng hoảng wonder week, các phương pháp cho con ăn dặm, các cách luyện ngủ... Cuốn sách giúp các bà mẹ tự tin hơn trong việc chăm sóc con, làm chủ được các tình huống bất ngờ, hiểu con hơn và chăm sóc con tốt hơn. Một số phương pháp cần được chọn lọc để áp dụng cho phù hợp với hoàn cảnh. Dù sao thì đây là một cuốn sách hay dành cho các bà mẹ.
4
637515
2015-08-25 16:29:08
--------------------------
272057
6108
Đây là cuốn sách về nuôi dạy con đầu tiên mà mình mua, và quả thực nó cung cấp nhiều thông tin bổ ích và có hệ thống hơn hẳn việc chỉ đọc lang thang đọc báo trên mạng. Cách viết gần gũi, đầy ví dụ sinh động nhưng cũng k thiếu cơ sở thực tiễn, cung cấp cho các mẹ hệ thống kiến thức cơ bản để rèn luyện thói quen sinh hoạt khoa học từ lúc bé mới sinh (EASY), tới việc ăn dặm, dạy con tự lập... Lúc bé nhà mình 6 tháng, mình chuẩn bị đi làm nhưng bé k chịu bú bình. Nếu k nhờ đọc cuốn sách này chắc mình đã chiều theo bé, đút sữa bằng thìa và rơi vào cái vòng luẩn quẩn vừa mất thời gian, bé lại no hơi và dễ mất tập trung k uống được nhiều. Nhờ phương pháp quyết liệt trong sách, bé có khóc vật vã một ngày nhưng rồi đã hợp tác. Tiếp đó là phương pháp ăn dặm bé chỉ huy, dù k áp dụng được hoàn toàn nhưng sau khi đọc sách mình luôn nhớ cho bé tập tự ăn xen kẽ để tăng khả năng điều khiển tay mắt và chủ động trong ăn uống. Đây là những kinh nghiệm quý báu nhất mình có từ sách này. Tới nay bé đã hơn 1t nhưng mình vẫn còn áp dụng được nhiều kiến thức bổ ích từ sách.
4
450198
2015-08-19 18:36:36
--------------------------
266525
6108
Mình làm việc trong ngành Nhi khoa, nên hàng ngày ngoài việc khám bệnh cho các bé, còn phải giải đáp trăm ngàn thắc mắc của các bà mẹ về việc chăm sóc bé. Ngoài những kinh nghiệm y khoa, mình cần trang bị thêm kiến thức về các mảng khác để tư vấn cho các bà mẹ được tốt hơn nên mình tìm đọc quyển sách này.
Cách viết sách rất gần gũi, hiện đại, phù hợp với các bà mẹ 8X, 9X, sách giúp các bà mẹ chủ động và tự tin hơn trong việc chăm sóc, nuôi dạy con.
Với mình, sách giúp mình tìm được lời khuyên hữu ích, phù hợp với từng trường hợp của bệnh nhân của mình.
Sách hay và mình đã mua tặng cho vài người bạn sau khi đọc xong.
3
183284
2015-08-14 19:32:47
--------------------------
266287
6108
Quyển sách này có rất nhiều thông tin từ nhiều trường phái khác nhau và nhiều nội dung về nuôi con: quy tắc ăn ngủ, các cách luyện ngủ, tuần khủng hoảng wonder week, các pp cho con ăn dặm (truyền thống, Nhật, nhưng chủ yếu là bé chỉ huy,...) cùng nhiều nội dung khác. Đọc xong mình sẽ có hiểu biết tổng quan để tìm ra cách phù hợp với con (ko nhất thiết áp dụng y chang, ví dụ như cá nhân mình không tán thành việc luyện ngủ cho con nhưng lại lựa theo con để dần theo mẫu ngủ 3 giấc, rồi 2 giấc, rồi 1 giấc). Ngoài ra các bạn có thể join group Hội ăn dặm blw để hỏi kinh nghiệm trực tiếp các tác giả. Nói chung với người mới làm mẹ quyển này hữu ích ở chỗ là mình biết có những trường phái như thế, thông tin như thế, còn quyết định làm theo hay không thì cần cân nhắc.
3
727507
2015-08-14 15:43:01
--------------------------
265128
6108
Mình được bạn giới thiệu sách này lúc gần sinh để luyện nếp sinh hoạt cho con. Thời gian đầu mới sinh mình tranh thủ đọc, thấy hơi khó hiểu, nhưng cũng áp dụng cho con, mà không thành công. Sau một thời gian làm quen con, hiểu con hơn, mình đọc lại thì thấy hiểu hơn, và áp dụng lại thì thành công trong việc tạo nếp sinh hoạt và rèn con tự ngủ. Sách còn có các mục khác khá là hữu ích, mỗi khi cần, mình lấy ra đọc chi tiết, áp dụng được vào thực tế chăm con.
4
4476
2015-08-13 19:08:13
--------------------------
264430
6108
Quyển này mình thích chỉ sau quyển Nuôi Dạy Con Kiểu Nhật Bản, chỉ hơi tiếc là sách xuất bản lúc con trai đã được hơn 9 tháng. Tuy nhiên, ngoài việc hướng dẫn các mẹ cách xem giờ ngủ của con, tập con tự ngủ, còn rất hữu ích trong việc giúp mẹ cùng con có một "thời ăn dặm" đáng nhớ. Con trai mình ăn dặm theo kiểu BLW, quyển sách này hỗ trợ tốt cho các mẹ, các bà thêm thông tin về thức ăn, thức uống cho con. Đồng thời nêu lên quan niệm mới về việc chăm sóc bé. Mẹ nào cũng muốn con cái được điều tốt nhất,các mẹ hãy thử đọc, thực hiện và tiếp tục cải tiến để làm sao cho bé mình những thói quen ăn tốt, ngủ tốt mà mẹ vẫn nhàn.
Rất nên mua đọc, đọc những tài liệu sưu tầm online rất nhức mắt nha.
5
197056
2015-08-13 10:18:38
--------------------------
262455
6108
Mình sắp làm Mẹ, ban đầu đặt cuốn sách này giùm cho 1 chị đồng nghiệp, trước khi đưa cho chị ấy thì có đọc ké. Sau vài trang đọc ké quyết định đặt mua 1 cuốn sách cho riêng bản thân mình luôn, phải thừa nhận cuốn sách đưa ra những lời khuyên cực kỳ đơn giẩn, tác giả là người Việt nên viết khá dễ hiểu, k có gì là đao to búa lớn cả, nhưng nếu áp dụng được thì hiệu quả cực kỳ tốt ( cái này 1 chị đồng nghiệp đã ứng dụng thành công). Hy vọng khi con mình ra đời, mình có thể vận dụng những lời khuyên trong cuốn sách 1 cách tốt nhất
5
104897
2015-08-11 21:59:01
--------------------------
260249
6108
Mình đã đặt cuốn sách này khi đang mang bầu đứa thứ hai, mình đã sử dụng và thấy rất hữu ích khi bé chào đời. Hiện mình nuôi con thấy rất nhàn khi luyện được các khung giờ như sách đã nêu trong từng giai đoạn và thấy phù hợp với việt nam. Mình đã giới thiệu cho các bạn của mình. Mình hi vọng sẽ có nhiều đầu sách thú vị về phương pháp nuôi con hiện đại như vậy cho các bà mẹ trẻ. Mình rất hài lòng với các dịch vụ giao hàng và đóng gói, thanh toán của trang tiki.vn
5
292890
2015-08-10 11:21:19
--------------------------
255488
6108
Mình mua cuốn sách này khi em bé của mình được 10 ngày tuổi, lần đầu làm mẹ với chút xíu kinh nghiệm lượm lặt từ bạn bè và mẹ mình nhưng sau khi đọc cuốn sách mình thấy thật may mắn vì có đủ thời gian để thay đổi thói quen xấu của bé và quan trọng hơn hết là mình có thể chuẩn bị 1 tâm lý sẵn sàng đối diện với sự thay đổi của con trong từng giai đoạn phát triển... Cám ơn các tác giả đã mang tới cho những người mẹ những lời khuyên bổ ý như vậy <3
4
48679
2015-08-06 08:18:57
--------------------------
252989
6108
tôi bị thu hút bởi nhan đề cuốn sách, và tôi tò mò xem sách viết gì, với tôi, tôi luôn hào hứng với sách nuôi dạy trẻ em, và với cuốn này tôi rất hài lòng. Những việc đơn giản với trẻ em như ăn, ngủ, chơi nhưng không hề đơn giản tí nào trong việc nuôi con, bấy lâu nay nhiều người cứ nghĩ trẻ con mới sinh ra chỉ việc ngủ dậy, cho bú, rồi ngủ, rồi tè, rồi dậy, ăn ngủ, tè...chỉ có vậy. Cũng bởi nghĩ vậy mà nhiều người chỉ cho con mình thực hiện những hoạt động trên, còn mình làm việc mình. Sai lầm nhiều lắm các mẹ à, các mẹ, các bố, các ông bà nữa, hãy đọc cuốn này để nuôi và dạy trẻ tốt hơn nhé, tôi tin, với người quan tâm đến tương lai của con thì các bạn không thể bỏ qua cuốn sách này
5
362515
2015-08-04 08:05:20
--------------------------
248554
6108
Biết cuốn sách do giới thiệu của 1 vài người bạn, mình mới mua về để tặng bà chị vừa sinh em bé. Mua về rồi thì có coi ké chút chơi, ai ngờ nội dung rất hay và bổ ích đến nỗi mình xem hết cả cuốn sách. Sách có lối dẫn văn gần gũi và dễ đọc, có chỉ nhiều bí quyết và phương pháp bổ ích để chăm bé nhỏ. Rất thích hợp cho các bà mẹ trẻ vừa sinh con. Nó cho ta thấy "nuôi con không phải là cuộc chiến" và thật thiêng liêng biết bao khi có 1 sinh linh bé bỏng luôn ở cạnh ta. Đây là cuốn sách đáng đọc cho những ai là cha mẹ.
4
146474
2015-07-31 10:04:39
--------------------------
246898
6108
Một cuốn sách thật tuyệt vời. Đối với một người sắp làm mẹ như mình, rất mông lung, lúng túng trước một thế giới mới sắp mở ra, băn khoăn không hiểu con yêu của mình cảm thấy ra sao, có nhu cầu gì, bé muốn gì qua từng tiếng khóc, cử chỉ,... thì cuốn sách như một kim chỉ nam trên chặng đường dài đồng hành với con. Sau khi đọc xong cuốn sách, mình đã có thêm tự tin để nuôi con. Tất nhiên vì chưa được áp dụng nên mình không biết những điều trong sách sẽ đúng đến đâu trong thực tế, nhưng mình có niềm tin rằng quá trình nuôi con sẽ bớt nhọc nhằn hơn những gì mình tưởng tượng trước đây. Cám ơn ba bà mẹ đă viết nên cuốn sách tuyệt vời này.
4
623530
2015-07-30 09:31:38
--------------------------
243758
6108
Mình biết đến các tác giả cuốn sách này từ khi bắt đầu cho con ăn dặm, vì con mình ăn dặm theo phương pháp BLW. Và nhờ đó, biết đến sự ra đời cuốn sách. Nhìn chung, cuốn sách đã cung cấp được kiến thức chăm con mới - so với các quan niệm của ông bà xưa. Từ đó, các bà mẹ có thể tham khảo áp dụng, giúp cho bản thân các bà mẹ nuôi con nhàn hơn. Tuy nhiên, mình thiết nghĩ không phải cái gì trong sách cũng có thể áp dụng Ngoài ra, cách viết của sách còn chưa hấp dẫn, cung cấp thông tin nhiều chỗ có vẻ khó tiếp thu, rối rắm. Có lẽ vì các bạn không phải là người chuyên viết. Hy vọng các bạn sẽ sửa được vấn đề này trong những cuốn sách sau. 
3
362443
2015-07-27 17:59:56
--------------------------
239102
6108
Đối với các bà mẹ thì nuôi con thật sự là một cuộc chiến, hàng ngày, hàng giờ, từ đêm đến ngày, từ ăn đến ngủ, từ chuyện bé con cỏn như tè dầm 1 bãi hay chuyện to đùng như cho con đi học... Thế mà đọc xong cuốn sách thì cảm thấy sao mà nhẹ bẫng đi. 
Đối với mình, cuốn sách không chỉ là kim chỉ nam, mà còn là cuốn sách để mình tự tin hơn trong vai trò làm mẹ, và để "kệ" mọi ng xung quanh nữa. Những thứ mà mình đã được đọc, nghiên cứu, mình có thêm động lực để theo đuổi những phương pháp dạy con mà bị nói là "chẳng giống ai". Hiện tại, ngắm nhìn con mình đang dần khôn lớn và trưởng thành hơn, tự lập và khỏe mạnh, mình cảm thấy rất tự hào.
5
102292
2015-07-23 17:24:23
--------------------------
235202
6108
Khi bạn tôi sắp sinh em bé, tôi đã tặng bạn cuốn sách này, và phản hồi của bạn là "Không những hấp dẫn mà còn ý nghĩa". Bỏ qua hình thức đẹp và bắt mắt của cuốn sách, đây là cẩm nang cho những người lần đầu  làm mẹ bởi cung cấp những nội dung cần thiết cho việc chăm trẻ những tháng đầu đời - giai đoạn khó nhất của trẻ và cũng là khi người mẹ còn nhiều bỡ ngỡ. Tác phẩm truyền đạt cách nhận biết các vấn đề của trẻ trong giai đoạn này, dạy cách ăn dặm hợp lý, cách bảo vệ trẻ khi còn quá non nớt đối với môi trường xung quanh. Sách viết súc tích, kèm nhiều hình ảnh sinh động, in trên giấy tốt, còn có thể dùng để giải trí cho các bà mẹ.
5
24486
2015-07-20 22:14:19
--------------------------
226356
6108
Là người lần đầu làm Mẹ tôi đã tìm hiểu nhiều nguồn thông tin để có thể " tác chiến" với em bé của mình. Qua facebook và trang betibuti tôi đã lụm lặc nhiều  thông tin bổ ích về chăm sóc trẻ và cuốn sách này đáp ứng phần nào nhu cầu đó.     Bởi vì đây là cuốn sách viết bởi những bà Mẹ cũng rất trẻ nên khi đọc tôi thật sự dễ đọc, dễ thấm. Những kinh nghiệm, kiến thức trong cuốn sách rất bổ ích và giúp tôi bỏ qua  những bở ngỡ, phân vân, nghi ngờ. Áp dụng khái niệm mới về chăm sóc trẻ, thấu hiểu để chăm sóc trẻ tốt nhất có thể là điều mà tôi cảm nhận được từ cuốn sách. Hy vọng cuốn sách  cũng mang đến điều đó cho bạn và gia đình bạn. 
5
81232
2015-07-11 23:34:19
--------------------------
225442
6108
Mình nuôi bé thứ 2 mới biết đến quyển sách này, thật tiếc cho "cuộc chiến đầu tiên" nhiều nước mắt. Sách bao quát gần như toàn bộ vấn đề mẹ có thể gặp khi nuôi con cùng với mục hỏi đáp cụ thể cho những trường hợp điển hình. Ý kiến cá nhân mình thấy sách này không những cho mẹ các cơ sở khoa học để nuôi dạy con mà còn rất "tâm lý", tác giả cũng là các mẹ nên mình tìm thấy sự đồng cảm, chia sẻ với hững khó khăn của các mẹ thời nay. Đọc sách mình thêm tự tin, vững thực sự enjoy việc nuôi con. Chúc các mẹ và con đều vui.
4
487438
2015-07-10 13:48:18
--------------------------
224609
6108
Từ khi có con, mình cũng chăm chỉ đọc nhiều sách về chăm sóc, nuôi dạy trẻ nhỏ. Mỗi nước dường như lại có một phương pháp riêng, và mỗi phương pháp đều có điểm tốt lẫn chưa tốt. Cuốn sách này là của 3 bà mẹ Việt viết về những gì họ đã học được, tổng hợp từ nhiều phương pháp khác. Mình đọc và nhận ra có những thứ đã áp dụng cho con, có những thứ hay ho nên áp dụng, và có những thứ mình không áp dụng. Mỗi người mẹ là người hiểu con nhất mà, bằng cả kiến thức lẫn các giác quan và linh cảm người  mẹ. Nếu bạn đọc thấy những phương pháp hay mà không áp dụng thành công cũng đừng lo, hãy chọn lọc những gì hai mẹ con thấy vui vẻ thoải mái.
4
82774
2015-07-08 22:47:12
--------------------------
220885
6108
Cuốn sách này đã không làm tôi thất vọng. Sách có phần hỏi đáp rất thực tế và các mẹ có thể ứng dụng cho con mình. Bên cạnh đó, những kiến thức được trình bày rất rõ ràng, dễ hiểu. Theo tôi, đây là một cuốn sách rất đáng đọc dành cho những nguời mẹ hiện đại muốn nuôi con một cách khoa học . 
4
558225
2015-07-03 09:00:54
--------------------------
215248
6108
Bạn có thể thấy nhiều người đã chọn mua quyển sách này và đã đánh giá khá tốt về nó. Lời lẽ hoa mỹ có lẽ không cần thiết nữa, tôi chỉ xin kể câu chuyện nhỏ của tôi và con vùng quyển sách thú vị này.
Mấy hôm trước bé ngoan của mẹ khó chịu trong người, thật may mẹ đã được đọc sách nên vẫn rất vui vẻ, động viên con chứ không với tính cách như mẹ có lẽ đã mắng con dù con vẫn chưa hiểu chuyện. Tối nay, nằm chơi với ông bà ngoại, con lật và chụm miệng phun phì phì vào người ông ngoại. Ông ngoại:"Mẹ nó bảo con kìa, nó chơi bẩn quá". Mẹ nó lẳng lặng đi tìm quyển Nuôi con không phải là cuộc chiến đưa ông ngoại xem. Ông ngoại:"À, thì ra là thế à, là phát triển chứ không phải chơi bẩn à. À có cả mút tay , có cả ngẩng cao đầu và cả ê a nói chuyện nữa này. Vậy ra là cháu ông đến giai đoạn phát triển mới chứ không phải hư à. Ông xin lỗi nhé".
Đó chỉ là câu chuyện nhỏ trong muôn và những câu chuyện chăm con của tôi, mong các bố, các mẹ có thể hiểu con hơn nữa để mỗi ngày của tuổi thơ con đều là những ngày vui
4
437661
2015-06-26 07:25:01
--------------------------
209309
6108
Mình mua quyển sách này khi con được khoảng 2 tháng tuổi. Nhiều phần mình thấy có thể áp dụng được nhưng nhiều phần thì không.
Phần hay nhất của quyển sách đó là về Wonder weeks với các thông tin chi tiết, rõ ràng, biểu hiện, thời gian, các bước phát triển của con qua wonder weeks.
Về phần luyện ngủ cho con mình thấy chưa hợp lý với việc căn giờ quá tỉ mỉ và chi tiết trong khi đó trẻ con phát triển cần linh hoạt hơn.
Mình cũng không thể áp dụng phương pháp ăn cho bé theo sách bởi không phù hợp với hoàn cảnh gia đình và thói quen ăn uống của bé.
Sách mang tính chất tham khảo là chính, nhưng có thể giảm áp lực cho mẹ khi chăm sóc bé.
3
44934
2015-06-17 12:32:49
--------------------------
208476
6108
Cách viết dễ đọc, dễ hiểu. Tuy nhiên điều này không đồng nghĩa với việc ứng dụng dễ dàng các phương pháp trong sách.
Phần mình thấy hữu ích nhất là phần viết về Wonder week của bé. Đọc xong bớt stress hẳn ! Từ khi có sách, mỗi lần bé vào wonder week mới thì 2 vợ chồng đã chuẩn bị tinh thần sẵn và chăm sóc, cư xử với bé phù hợp hơn nên cả nhà đều vui vẻ lướt qua những ngày khó ở đó nhẹ nhàng hơn trước nhiều.
Phần luyện ăn, luyện ngủ xuyên đêm cho bé thì mình chưa thể và vẫn lưỡng lự không biết có nên áp dụng triệt để không. Vì mình biết có 1 hướng nghiên cứu khác đã cho thấy rằng việc cho bé vào khuôn khổ (cho sướng bố mẹ) sẽ hạn chế sự sáng tạo và sự tự tin của bé.
4
208287
2015-06-15 10:36:23
--------------------------
207209
6108
Nếu mình sinh bé thứ nhất mà mình được đọc quyển sách này thì nuôi bé sẽ nhàn đi rất nhiều. May quá mình đã mua được nó khi sinh bé thứ 2. So với bé thứ nhất bé thứ hai nhà mình nhờ được rèn luyện đã ngoan hơn hẳn. Mẹ nhàn con ngoan ngoãn thông minh. Cảm ơn các tác giả đã mang đến một cuốn sách phải gọi là cẩm nang cho các bà mẹ. Nhờ quyển sách các mẹ sẽ biết thêm rất nhiều kiến thức về nuôi con. Cho con ngủ, cho con ăn, chu kỳ của con. Những lúc con khó chịu là tại sao. Các mẹ sẽ phải luyện con như thế nào. Đây là cuốn sách rất thực tế để các mẹ mua về áp dụng.
5
501258
2015-06-11 18:04:06
--------------------------
200602
6108
Mình đã đọc khá nhiều sách về nuôi con nhưng mình thấy cuốn sách này khá thực tế, dễ áp dụng. Cuốn sách cũng có nhiều kiến thức về wonder week, grow spurt,... Theo quan điểm của mình thì một khi cha mẹ trang bị được nhiều tri thức thì sẽ không bị bỡ ngỡ khi chăm con và cũng sẽ mang được những điều tốt nhất cho con.
Tuy nhiên, trong cuốn sách, các bà mẹ trẻ (tác giả cuốn sách) đã liệt kê 1 vài câu hỏi của các ông bố bà mẹ trẻ khác nhưng mình thấy cách trả lời chưa thuyết phục, còn lạc đề và không đi vào trọng tâm.
Nói thật là khi mới đọc đến việc cho con ngủ, mình rất hoang mang vì có quá nhiều số liệu nên cũng phải so sánh với các cuốn sách, tài liệu khác đã đọc và "nghiền" lại vài lần. Theo mình thì cuốn sách này cũng nên coi là 1 tài liệu tham khảo quý và gối đầu giường để các mẹ có thể dễ dàng tham khảo.
4
72365
2015-05-25 14:49:02
--------------------------
195011
6108
Ngày xưa khi đọc những quyển sách về cách nuôi dạy con của nước ngoài thậm chí của các mẹ ở nước ngoài mình luôn thấy rất khó áp dụng ở việt nam. Vì ở nước ngoài thì nó có cả một môi trường làm background cho rồi nên mới có thể áp dụng được. Nhưng với quyển sách này, mình thấy mớ lý luận đó gần gũi hơn rất nhiều.
Nhưng với những người sinh bé thứ 2 như mình, và khi đọc được quyển sách này khi các thời điểm áp dụng cho con đã trượt mốc đi rất nhiều thì lại tiếc hùi hụi, không biết có thể áp dụng giữa chừng như thế nào để sửa lại những cái lỗi bắt đầu sai...
Dù sao thì vẫn thích quyển sách này bởi cách viết dễ đọc và gần gũi
4
471616
2015-05-12 15:29:26
--------------------------
172515
6108
Khi chuẩn bị sinh em bé, tôi có được một người bạn cho mượn cuốn sách này để tham khảo.
Thực sự, cuốn sách này đã đưa đến cho tôi rất nhiều kiến thức mới về các vấn đề liên quan đến các bé. Tôi thực sự thích nội dung về nhận biết ý muốn của con qua tiếng khóc, hay là thời gian, dấu hiệu và các kỹ năng liên quan của các giai đoạn khó ở của trẻ. Nó thật sự rất có ích cho người lần đầu làm mẹ như tôi.
Song cũng có một vài phần tôi thấy chưa thực sự thuyết phục như phần luyện ngủ cho con, sách có đưa ra nhiều phương pháp nhưng lại chưa hướng dẫn kỹ về các phương pháp đó, các ví dụ đưa ra có phần rối rắm và không mang tính “đại chúng”” – khó áp dụng cho phần đông trẻ, nên nhiều khi tôi có cảm giác “rối” và không biết nên áp dụng như thế nào với con mình.
Nhìn chung thì đây vẫn là một cuốn sách nên tham khảo để chăm sóc con tốt hơn!
3
194641
2015-03-24 09:49:41
--------------------------
171113
6108
Sách đưa ra rất nhiều tư tưởng tiến bộ và những phương pháp hiệu quả để chăm con dạy con 1 cách tích cực mà lại "khá nhàn". Tuy nhiên vì nội dung gồm nhiều phần với những nội dung khác nhau nên mỗi phần chưa thực sự chi tiết kỹ càng, và mỗi đứa trẻ lại là 1 cá thể riêng biệt, chúng khác nhau ngay từ khi mới sinh ra, nên để áp dụng tốt những vấn đề mà sách đưa ra thì có lẽ chúng ta cần tham khảo thêm 1 số nguồn khác nữa. Mình đã có quyển này nhưng vẫn cần nghiên cứu thêm rất nhiều nguồn ngoài về vấn đề luyện ngủ cho con, và đang định mua thêm quyển Baby led weaning và Ăn dặm không phải là cuộc chiến. Chốt lại một câu thì đây là quyển sách đáng mua :)
4
297730
2015-03-21 11:15:54
--------------------------
168198
6108
Nuôi con nhỏ thật vất vả, tuy nhiên với quyển sách này, bạn sẽ ko phải lo lắng về việc ăn ngủ của con nữa. Sách chỉ bạn cách "huấn luyện" bé tự ăn tự ngủ, bạn ko phải chạy theo con đút cho con từng muỗng cháo/cơm mỗi khi chúng biếng ăn, cũng ko cần năn nỉ dọa nạt la mắng con mỗi khi chúng ko ngủ. Quyển sách này là xứng đáng là bí kíp của bố mẹ trong việc giúp đứa trẻ tự lập ngay từ phút giây đầu tiên thông qua việc tự ngủ và tự ăn hàng ngày
5
36651
2015-03-16 10:17:02
--------------------------
166561
6108
Sách hay, mình thích sách này. Mình áp dụng khá thành công cho bé nhà mình, giờ có thể yên tâm đi làm lại sau sáu tháng. Sách chia sẻ phương pháp giúp bé tự ngủ EASY 3, 4, 2-3-4,5-6, phương pháp cho bé bú, cho bé ăn dặm, hướng dẫn chế độ dinh dưong cho bé, làm sao cho bé tự lập, cách thức bố mẹ giao tiếp với bé trong từng trường hợp như bé cần sự chú ý, vé cần quyền lực, bé trả đủa, bé kém lắm. Sách cũng chia sẻ cách chuẩn bị cho bé đi nhà trẻ, đi du lịch. Tóm lại, sách ngắn gọn, xúc tích, phù hợp với mẹ mới có em bé
5
559541
2015-03-12 21:41:31
--------------------------
153959
6108
Mình mua sách này khi bé nhà mình đã hơn 4 tháng, nên việc tập luyện cho bé theo EASY như trong sách khó hơn vì bé đã quen được nuông chiều và đã biết phản kháng lại mẹ. Khi đọc sách, duy nhất trong đầu mình chỉ có một suy nghĩ, sao mình ko biết về nó trước khi sinh bé nhỉ, nếu ngay từ đầu mình đã đọc sách này và chăm bé như hướng dẫn thì đã nhàn hơn nhiều. Dù hơi trễ nhưng mình cũng kịp hiểu bé hơn để đáp ứng đúng nhu cầu của bé, đặc biệt là không bị hoang mang mỗi khi bé khóc mà không biết khóc vì cái gì.
5
104246
2015-01-27 22:11:47
--------------------------
149296
6108
Được viết bởi 3 người mẹ cùng tư tưởng, cuốn sách cung cấp khá nhiều thông tin cơ bản và thu thập từ nhiều nguồn đáng tin cậy, cộng thêm nhiều kinh nghiệm của các mẹ khác được tập hợp lại. Đây có thể nói là cuốn sách đầu tiên viết 1 cách rõ ràng bài bản nhất về cách mẹ Việt nuôi và dạy con kiểu Tây, từ ăn uống ngủ cho đến chơi. 

Cuốn sách có nhiều nội dung tham khảo tốt, nhất là ăn dặm. Còn lại, một số nội dung không hẳn phù hợp với các gia đình VN hiện nay, nhất là với mẹ đi làm. Văn phong chỉ dừng ở mức "đọc được" chứ không hấp dẫn. Phần nói về sữa mẹ chưa được chuẩn.
3
471537
2015-01-13 10:02:57
--------------------------
132298
6108
Đây là 1 quyển sách hay, giúp tôi mở rộng rất nhiều điều về phương pháp rèn luyện cho con tự lập từ khi mới sinh ra. Một quyển sách với nhìu kinh nghiệm thực tế của các mẹ đã áp dụng thành công các phương pháp dạy trẻ từ khi còn nằm trong nôi.
Một đìu mới mẻ nữa là sách giới thiệu phương pháp ăn dặm Baby Led Weaning, nhấn mạnh 1 đìu là khi con ăn là con "được ăn" chứ ko phải "bị ép ăn" và lun tôn trọng sở thích trong ăn uống của trẻ.
5
195210
2014-10-30 19:31:32
--------------------------
132052
6108
Mình đang là một bà mẹ có con nhỏ và cũng hay tìm các loại sách về dạy con để đọc. Đây không phải là cuốn sách đầu tiên về viết về việc dạy con mà mình đọc nhưng bản thân mình thấy sách không phù hợp và những kinh nghiệm mà nhóm tác giả trải qua, gom góp được cũng khó mà dùng để áp dụng với con mình. Cuốn sách này được viết bởi 3 tác giả và các tình huống được đưa ra cũng như cách xử lý các tình huống đó dựa trên đúc kết, tìm hiểu của riêng 3 tác giả nên cũng khó áp dụng được với số đông, trừ khi tác giả là người có kinh nghiệm làm việc với nhiều nhóm trẻ khác nhau thì mới có thể đưa ra và xử lý các tình huống khác nhau. Trước khi các phụ huynh muốn áp dụng cho con những lời khuyên trong sách thì họ cũng cần biết rõ thế nào là BLW, chế độ dinh dưỡng của trẻ sơ sinh và trẻ nhỏ, khung giờ ngủ của trẻ v.v... mà thiết nghĩ ở cái xã hội Việt Nam - nơi mà đa phần các trẻ em được nuôi dạy dựa trên kinh nghiệm của người đi trước hơn là các kiến thức khoa học, sách vở thì việc áp dụng vào thực tế còn là cả một vấn đề.
1
15022
2014-10-29 14:00:27
--------------------------
