525313
6299
Điều làm mình ấn tượng nhất ở tác phẩm này là tác giả đã có thể làm cho mình cảm giác hơi sợ sợ, mặc dù đây không phải là một câu chuyện ma thực thụ. 
4
692139
2017-02-14 23:16:00
--------------------------
