464106
6513
" 400 từ vựng đầu tiên cho bé" là cuốn sách rất hữu ích mà bố mẹ các bé nên cho các con tham khảo. Bìa sách, chất giấy,..... Rất đẹp. Nội dung phong phú, trình bày khoa học và bắt mắt khiến các bé thích thú và trở nên ham học hơn. " 400 từ vựng đầu tiên cho bé" còn được tặng kèm đĩa cd nữa nên việc tiếp thu của bé trở nên dễ dàng hơn rất nhiều, bé học nhanh và dễ vào hơn. Cảm ơn tiki rất nhiều nhé! ! ! ! ! ! !
4
1155986
2016-06-29 22:22:16
--------------------------
224094
6513
400 từ vựng đầu tiên cho bé rất tuyệt vời.
Với những tranh vẽ màu sắc rực rỡ, bắt mắt,thu hút bé nhiều hơn khi tiếp xúc với một ngôn ngữ mới.
''400 từ vựng đầu tiên cho bé'' bìa cứng, với những trang giấy in màu dày, làm tô lên nét sang trọng cho quyển sách.
Quyển sách không những đẹp về hình thức mà nội dung cũng rất phong phú.
Mình cảm thấy hài lòng lắm khi mua quyển này.
5
323719
2015-07-08 09:03:38
--------------------------
