311275
6544
Sách thích hợp cho những bạn muốn tự luyện tập theo bộ đề của Cambridge - hoặc các thày cô giáo Tiếng Anh muốn luyện tập kiến thức , củng cố cho học sinh của mình. Sách này có ưu điểm: chất lượng giấy tốt, nội dung hay, đặc biệt là cách trình bày rất khoa học! Điều này sẽ làm người sử dụng thích dùng hơn, thích học thì sẽ học tốt!  Tuy nhiên, các sách của Cambridge thì giá luôn hơi mắc chút! Nói chung các sách ngoại văn mình so với các sách nội là: ngon, bổ nhưng không rẻ! Cái gì cũng có ưu điểm, nhược điểm mà! 
4
480400
2015-09-19 22:26:10
--------------------------
