566513
7240
Quyển sách rất hay và phù hợp với những môn học khó nhớ hay những đề cương dày dằng dặc. Mình rất thích quyển sách này vì bó là một người thầy vĩ đại của những người có ít thời gian mà phải hoc thuộc nhiều
4
5170745
2017-04-07 11:21:57
--------------------------
557789
7240
Sách hay, giá ok, nhân viên thân thiện, giao hàng đúng hạn. Rất thích tiki👍👍
5
5117417
2017-03-29 12:30:14
--------------------------
546301
7240
- Nội dung bố cục dài dòng lan man không ngắn gọn và dễ hiểu . Bìa đẹp . Đọc dễ gây mất hứng.
1
2190041
2017-03-17 23:42:24
--------------------------
541017
7240
Bìa đẹp, ltrình bày logic . Có điều nên chuyển màu nền thành màu khác , màu xanh hơi chói mắt . 
4
628523
2017-03-13 20:54:25
--------------------------
536137
7240
Thay vì đọc quyển này các bạn nên đọc trí tuệ do thái. 
2
1951053
2017-03-05 22:36:44
--------------------------
529921
7240
*Ý kiến cá nhân*
Quyển sách này dày đặc lý thuyết quá.
Mình không cảm thấy nó đột phá và hấp dẫn như mình mong đợi.
Giọng văn hơi khô
:)
3
1571032
2017-02-22 16:57:50
--------------------------
529437
7240
Sách này mình được tặng khi mua sách nhưng thật tiếc khi biết sách này quá muộn, sách sẽ giúp bạn có phương pháp học tốt hơn , nhanh hơn và nhớ lâu hơn. Chất lượng giấy tạm ( có phần trắng quá ) , nhưng được cái chữ to, dễ đọc, bố cục có chia phần và màu nên rất bắt mắt, ví dụ đưa ra sau các phương pháp cũng rất gần gũi, dễ hiểu. Tóm lại , là nên mua quyển sách này để có một phương pháp học tốt nhất cho bản thân .
4
687851
2017-02-21 20:59:56
--------------------------
526497
7240
Một quyển sách vô cùng hữu ích + hỗ trợ việc học một cách nhanh chóng nhưng vô cùng khoa học
Bạn sẽ hối tiếc nếu trong gác sách của bạn k có nó!
4
2131745
2017-02-16 21:58:33
--------------------------
521261
7240
- Nội dung sách tuy có hơi dài dòng. Tuy nhiên tôi khá có hứng thú với nó vì tôi còn có 1 số kì thi quan trọng sắp tới. Tôi nghĩ nó sẽ hỗ trợ tôi rất nhiều
5
2031793
2017-02-08 12:32:15
--------------------------
516393
7240
Với cách đặt tiêu đề sách, mình cảm thấy khá thất vọng với nội dung quyển sách. Tuy nhiên, mình vẫn đề cao sự sáng tạo trong phương pháp ghi nhớ của tác giả. 
3
178202
2017-01-29 17:08:14
--------------------------
514957
7240
Chất lượng sách rất tốt . Chữ in rõ ràng , Chất lượng giấy rất ok . Giá cả hợp lí
4
1891662
2017-01-24 10:21:21
--------------------------
510009
7240
Theo bản thân mình thì những phương pháp trong cuốn sách này chỉ áp dụng được cho một số phương diện, nó không quá mới đối với mình. Phương pháp được đề cập trong sách tương đối dài dòng hơn cách nhớ bình thường, nhưng cũng có một số hữu dụng. Đây chỉ là ý kiến chung của mình sau khi đọc thôi, nếu các bạn muốn có cách học mới thì nên mua sách đọc thử
3
1051611
2017-01-13 16:30:09
--------------------------
509977
7240
mình áp dụng thấy khá hiệu quả , mình mất tầm 5p để làm bài tập ví dụ , nhưng mình nhớ cả tuần luôn ấy , đọc xuôi , đọc ngược thứ tự đều chính xác luôn , tuyệt vời
5
1809170
2017-01-13 15:18:48
--------------------------
508757
7240
Sách hay. Nội dung sách phù hợp vs mọi lứa tuổi. Bìa sách đẹp. 
5
2048302
2017-01-11 11:09:47
--------------------------
506641
7240
Hiện tại đọc được hơn một nửa cuốn sách ,nếu nói hay nhất thì chưa phải, nhưng nó giúp ích nhiều cho học tập của tôi.Đọc sách tôi ngộ nhận ra nhiều điều mình chưa biết ,hoặc biết nhưng lại không biết tác hại của nó .Tôi thay đổi cách học của mình .Cảm ơn tiki.
4
2032025
2017-01-07 01:32:30
--------------------------
506021
7240
Đây là một cuốn sách tuyệt vời vì nó giúp chúng ta cải thiện trí não rất tốt, nhớ nhanh hơn, giúp tiết kiệm thời gian, làm việc hiệu quả
5
732932
2017-01-06 05:48:30
--------------------------
504633
7240
Tôi có một trí nhớ tồi, thực sự rất tồi, tôi luôn luôn oán trách mình về điều đó. Một lần thấy cuốn sách này trên tiki, nghe tên thôi mà tôi đã muốn có ngay nó rồi. Sau khi mua về đọc thì tôi không còn oán trách mình nữa. Nêu ra những gì thích thú nhất, thú vị nhất ở con chữ con số để chúng ta tiếp thu một cách hiệu quả hơn, trình bày rõ ràng với tông màu xanh lá tràn đầy hy vọng và ước mơ, khiến tâm hồn khi đọc cũng dễ chịu hẳn, nhưng điều chưa hài lòng lắm là sách lại cô động quá phần cần thiết nhưng lại còn chừa viết nhiều về những lý luận bộ não mà mình đã từng đọc ở những sách về tâm lý hay giải phẩu bộ não
4
791372
2017-01-03 23:36:53
--------------------------
502577
7240
Sách hay. Hơi tiếc là k có ảnh minh họa đọc hơi chán.
3
2006156
2016-12-30 12:37:01
--------------------------
502437
7240
Dành cho ai không tự tin vào trí nhớ với mở rộng tư duy trừu tượng 😋😋😋
5
1933062
2016-12-30 09:01:22
--------------------------
499345
7240
Tôi thấy không phù hợp với nền giáo dục tại VN khi xem cuốn này. Tuy nhiên có thể áp dụng những cách bổ sung chất dinh dưỡng cho cơ thể bằng thực phẩm.
1
1658468
2016-12-24 17:28:37
--------------------------
497781
7240
Sách tuy không dày nhưng mình thấy nội dung rất được. Mà trước tiên phải đề cập ngoại hình: rất đẹp, giấy mịn, láng; mục đề, tiêu điểm kẻ khung in màu xanh lá rất bắt mắt; cầm lên là thích đọc rồi. Về nội dung thì không có gì chê. Mặc dù có thể nhiều điều trong này bạn có nghe qua hoặc đọc đâu đó và có biết trước, nhưng trong sách tác giả đã cô đọng, sắp xế những điều đó một cách khoa học, súc tích để bạn dễ áp dụng, dễ thành công hơn. Sách này không đơn giản là bí quyết giúp bạn vượt qua các kì thi trên trường, lớp mà khi đọc sách bạn còn thu thập được nhiều kiến thức bổ ích xung quanh. Mình nghĩ đây là quyển sách rất đáng mua
5
897666
2016-12-22 00:24:09
--------------------------
496537
7240
Cuốn sách như một la bàn định hướng trong học tập . Dù ở bất cứ độ tuổi nào , học tập luôn là trách nhiệm . Trí thức luôn là thước đo cao nhất của một con người. Mình rất thích cách tác giả phân chia từng lời khuyên và khuyến khích mọi người. Mình thích việc tham khảo từ sách hơn việc tra mạng tìm kiếm những lời khuyên cho việc học tập . Cuốn sách khiến mình rất hài lòng , nó rất dễ mang lại động lực để thực hành trong việc tập.
4
781966
2016-12-19 11:12:05
--------------------------
495102
7240
Quyển sách này rất có ít. Nội dung trong Sách thì thui khỏi phải bàn gì rồi. Rất đáng để Có Em ấy trong Tủ Sách!^^
4
1817997
2016-12-10 19:39:43
--------------------------
493376
7240
Lúc mới nhận sách mình có chút hụt hẫng vì sách mỏng hơn tưởng tượng. Nhưng mở ra bên trong chất giấy đẹp, trình này rõ ràng, thu hút, không có lỗi soạn thảo hay dịch thuật. Các dịch giả biến đổi những ví dụ sang tiếng Việt kéo léo và vô cùng dễ hiểu. Chỉ hơn 100 trang sách nhưng đã cải thiện nhớ cá vàng của mình đáng kể. Rất đáng mua và đọc.
5
386255
2016-11-30 01:23:31
--------------------------
492445
7240
quyển sách hưu ích và thú vị , đọc tên sách đã giúp m.n muốn đọc
5
1918312
2016-11-24 20:11:32
--------------------------
490096
7240
Sách khá mỏng nhưng rất bổ ích. Mình đã từng đọc một vài cuốn sách về luyện trí nhớ và quyển sách này như cuốn thu nhỏ vậy. Cách viết rất ngắn gọn,  dễ hiểu. Nói quyển sách này toàn lí thuyết thì ko đúng bởi nếu ko làm theo,  tự mình thực hành những bài tập bạn ko thể chiếm lĩnh tri thức mình muốn. Hãy mua nếu bạn thật muốn thay đổi cách học x tư duy của mình.
4
865010
2016-11-11 05:23:39
--------------------------
488148
7240
Sách bố trí rất logic, hay. Không khiến người đọc ngao ngán ngẩm vì đọc một quyển sách dài. Phân chia các tiêu đề rất phù hợp và người dịch dịch cũng rất tốt, dễ hiểu. Bổ ích và cung cấp thêm tri thức về bộ não và trí nhớ. Một cuốn sách cần bỏ ngay vào giỏ hàng của mình ngay lập tức. Sách cũng cho một số bài tập để luyện trí nhớ và cách để luyện nó như thế nào. Tôi thấy rất thích thú với cuốn sách này. Một cuốn sách đủ để bạn luyện trí nhớ của mình đấy.
3
1052110
2016-10-31 10:31:22
--------------------------
481307
7240
Mình rất thích các cuốn sách hướng dẫn học tập nên mua cũng kha khá, thấy trên Tiki có cuốn này nên mình quyết định mua ngay. Sách rất đẹp và mịn, các dòng chữ dễ nhìn, phương pháp học lại bổ ích, thích hợp cho học sinh như mình. Khi nhận đựơc sách lúc nào mình cũng mang theo để bất cứ lúc nào rãnh cũng có thể đọc, thể là một chị học cùng trung tâm thấy hay và nhờ mình mua dùm luôn, mình nghĩ các bạn học sinh nào cũng nên trang bị cho mình "vật phẩm" này
4
1326901
2016-08-25 09:58:41
--------------------------
471999
7240
Sách nhỏ, tuy bìa bên ngoài không đẹp nhưng trình bày rất khoa học và thú vị. Nội dung được trình bày hợp lý và bắt mắt, không gây nhàm chán. Tuy sách mỏng nhưng đã đề cập đến nhiều phương pháp lý thú và bổ ích kèm theo những trò chơi đơn giản để chúng ta rèn luyện trí óc nên mặc dù mình không thích đọc thể loại kĩ năng sống nhưng riêng quyển này thì thấy rất thích. Sách không chỉ hướng dẫn cách học mà còn luôn động viên, nhấn mạnh về tầm quan trọng của sự quyết tâm nữa. Sách chỉ cho chúng ta cách biến giờ học thành giờ chơi vui vẻ mà vẫn đạt hiệu quả cao. Tóm lại là rất đáng đồng tiền bát gạo.
4
563925
2016-07-09 08:32:12
--------------------------
460439
7240
Lúc mình đang bối rối trong việc học bài chuẩn bị cho việc thi tốt nghiệp, mà chua chát nhất là môn Sử khó nhằn, mình thường xuyên quên lên quên xuống các sự kiện lịch sử diển ra. Thời điểm đó mình chỉ biết cẳm đầu nhai đi nhai lại cho đến khi nào thuộc thì thôi. Bà chị mình thấy vậy nản quá nên đưa mình vài cuốn sách đọc xả stress, và kì lạ là bả quăng kèm cuốn này. Sau khi đọc xong, khi thử áp dụng một vài phương pháp thì nó thật sự có hiệu quả với mình. Dựa trên những cơ sở khoa học để giải thích những bí ẩn của não người, từ đó chỉ ra những phương pháp học tốt ưu nhất là lợi ích mà cuốn sách này mang lại
5
76082
2016-06-27 01:12:14
--------------------------
460315
7240
Học là 1 vấn đề nan giải khi mà hiện nay điều đó còn đòi hỏi nhiều hơn . Vấn nạn học phải luôn đạt điểm cao , ghi nhớ và hiểu bài 1 cách trọn vẹn không phải ai cũng làm được. Cuốn sách này gíup ta hiểu sâu sắc hơn việc ghi nhớ không chỉ kiến thức trong sách vở mà còn trong cuộc đời . Tuy nhiên những cách làm này không phải là ai cũng làm được nếu bạn có quýêt tâm thì mọi việc sẽ dễ dàng hơn rất nhiều . Phải luôn học nhiều lần , chia nhỏ vấn đề sẽ gíup giải quýêt nhanh gọn nó.
3
651562
2016-06-26 22:32:06
--------------------------
459033
7240
Mình bắt đầu thay đổi suy nghĩ về những cuốn sách mỏng như thế này, sau khi đọc xong nó. Vì trước kia, mình nghĩ sách mỏng, không đề cập nhiều vấn đề và hướng giải quyết như sách dày tầm khoảng 300 trang. Nhưng sự thật thì lại ngược lại.
Mình rút ra 1 điều, đừng đánh giá 1 cuốn sách từ vẻ ngoài, độ dày, mà phải tìm hiểu, đọc nó rồi mới đánh giá chất lượng nó như thế nào.
Riêng về cuốn sách này, nó là trình bày về 1 quy trình học tập, mà đã được ứng dụng từ thời kỳ cổ đại ngày xưa. Họ học cách tái hiện mọi thứ bằng cách tiếp nhận kiến thức và biến nó thành những thứ họ có thể hình dung. 
Trong quy trình, còn bày bạn những thức ăn, thói quen giúp rèn luyện trí não, và 4 kỹ năng theo mỗi giai đoạn của quy trình, kỹ năng Tập Trung, Tổng Hợp, Hình dung, Tưởng tượng, kèm theo là những bài tập rèn luyện kỹ năng đó.

5
65325
2016-06-25 19:08:13
--------------------------
447725
7240
Ngay khi tìm được cuốn sách này trên Tiki,thấy bề ngoài khá bắt mắt nên mình đã mua thử.Cầm quyển sách trên tay,mình đọc vài trang thấy hay nên đọc nữa.Mình đã nhận ra rất nhiều điều,học nhiều lại càng áp lực,dễ quên hơn.Theo mình,cuốn sách như một người bạn tốt,luôn theo sát ta,luôn khắc phục những điểm yếu bên trong ta.Quan tâm đến cả bữa ăn như việc rằng nó chỉ ta những nhóm thức ăn,chỉ ta nên ăn những cái gì,không nên ăn cái gì để đầu óc được minh mẫn hơn bao giờ hết.Đọc xong cuốn sách này bạn đã được nó đào tạo đủ các bí quyết học nhanh nhớ lâu.
Quyển sách này đối với mình thật tốt vì nó đem rất nhiều lợi ích cho chúng ta.Mong Tiki sẽ có nhiều tựa sách tuyệt vời như quyển sách này.
5
1172849
2016-06-14 19:07:04
--------------------------
441434
7240
Bạn học nhiều nhưng hay quên, hãy đọc cuốn sách này đi.Nó chính là một khóa học mà bạn sẽ được rèn luyện trí nhớ để khắc phục tình trạng học xong rồi quên của mình.Lúc trước mình cũng hay quên những thứ mình vừa học xong nhưng khi đọc cuốn sách này và áp dụng nó vào thực tiễn học tập mình thấy mình nhớ lâu hơn,trí nhớ được cải thiện một cách hiệu quả và không mấy khó khăn.Mình xem nó như là một khóa đào tạo trí nhớ tốt nhưng không tốn kém.Mình mong Tiki có nhiều tựa sách hay như thế này nữa nhé
5
873286
2016-06-03 10:31:24
--------------------------
439740
7240
Trước tiên khi mua sản phẩm, chắc hẳn ai cũng để ý đến giá cả. Giá cả hết sức rẻ vì sách mang nội dung quá chính xác và cực kì hữu dụng mà sách lạ rất đẹp và hợp lý từ cỡ chữ cho đến màu, và kiểu chữ. Quyển sách này sẽ là cung cấp cho bạn những thủ thuật hay, là công cụ đơn giản dễ áp dụng nhưng lại mang cho bạn một hiệu quả cao mà bạn không ngờ đến. Nhưng nếu mua bạn nên bọc lại vì bìa sách rất dễ bị quăn góc dẫn đến hư hỏng. Thân!
5
1371377
2016-05-31 18:36:59
--------------------------
439229
7240
Đừng trách vì sao bạn có một trí nhớ không tốt, học từ vựng không thuộc, khó tiếp thu kiến thức nhanh chóng. Nếu bạn từng suy nghĩ từng cách để thay đổi bản thân, có kết quả học tập cao, thì cuốn sách này sẽ giúp bạn. Nhưng nó không giúp cho ta thông minh hơn đâu, mà là giúp cho ta học tập một cách thông minh hơn rất nhiều lần. Cuốn sách cho ta thấy bản chất thực sự của những cách học vô cùng có lợi ích. Chỉ dành một ít thời gian và nghiền ngẫm chúng thì chúng ta sẽ hiểu ngay thôi.
4
286362
2016-05-30 23:04:35
--------------------------
438088
7240
Quyển sách này rất hữu ích với những ai có cảm giác trí nhớ của mình không tốt hoặc những ai muốn nâng cao khả năng ghi nhớ của bản thân. Tôi không phải là người có vấn đề với việc ghi nhớ của mình, một số phương pháp trong quyển sách tôi cũng từng đọc qua và áp dụng rất thành công. Ấn tượng nhất là các phương pháp vận dụng các giác quan để ghi nhớ, rất thú vị nhưng cũng rất khó thực hiện. Điều tôi quan tâm nhất là những kiến thức dinh dưỡng để nâng cao trí nhớ trong sách, rất bổ ích. Trí nhớ đóng vai trò quan trọng trong việc học tập và chất lượng cuộc sống, chúng ta cần có một trí nhớ tốt thì mới có thể đạt được thành công trong công việc. 

Với cách trình bày đẹp mắt, chất lượng giấy tốt, thông tin cụ thể, rõ ràng, có các bài tập để áp dụng, quyển sách thật sự hữu ích trong việc nâng cao trí nhớ của bất cứ ai, là quyển sách nên có trong tủ sách của mỗi học sinh,  sinh viên.
5
991777
2016-05-29 10:06:15
--------------------------
437094
7240
Thường thì trí nhớ mình hơi kém, học hành thì học trước quên sau, lại không biết làm sao mới ghi nhớ tốt thế là lên tiki tìm mua được quyển sách "Bí quyết học nhanh nhớ lâu" này. Mới đầu đọc thì thấy cuốn sách giải thích này nọ, nhìn cũng chán. Nhưng mà cuốn sách giải thích được rõ ràng những điều ảnh hưởng đến hoạt động ghi nhớ và đặc biệt là các phương pháp ghi nhớ được ghi chú đầy đủ, dễ hiểu và dễ dàng áp dụng. Mình đã thử vài phương pháp phù hợp với mình và kết quả là khả năng ghi nhớ của mình đã khá lên rõ rệt, các bạn tìm đọc xem và chọn ra những phương pháp phù hợp với bản thân nhé.
5
633229
2016-05-27 18:42:34
--------------------------
436082
7240
Cuốn sách quả thực rất tuyệt vời, đúng với tên gọi của nó, hơi tiếc vì mua nó quá muộn, đáng lẽ phải biết đến sớm hơn, nhưng muộn hơn là không, các bạn nếu đang tìm kiếm phương pháp học hiệu quả thì đừng chần chừ mà nên đặt mua ngay. Ứng dụng vào học tập tốt, kết quả cao hơn, rút ngắn thời gian đọc, ghi nhớ, rất có ích đối với mình, sẽ giới thiệu cho nhiều bạn bè ủng hộ tiki. Tuy nhiên, mình không hài lòng về việc bảo vệ sách khi vận chuyển, sách được để cùng mấy sản phẩm khác loại gây méo mó bìa sách. Hy vọng lần sau tiki để ý vấn đề này.
4
308942
2016-05-26 09:44:56
--------------------------
434212
7240
Trước đây mình vốn cho rằng trí nhớ tốt là do bẩm sinh mà có. Nhưng sau khi đọc xong cuốn sách này thì suy nghĩ của mình đã thay đổi. Hóa ra nếu 1 phần trí nhớ tốt là do thiên bẩm thì 10 phần còn lại là do luyện tập. Và quyển sách này đã thực sự cung cấp cho mình những bài tập bổ ích để ren luyện trí nhớ tốt hơn. Theo như mình thấy thì quyển sách này được làm từ giấy có chất lượng tốt, giữa các phần tiêu đè và trình bày có phân biệt rõ ràng nên rất dễ đọc.
5
917158
2016-05-22 16:11:15
--------------------------
417880
7240
Quyển sách này mỏng hơn mình nghĩ. Ban đầu lưỡng lự mãi không biết có nên mua quyển này hay không. Nhưng cuối cùng cũng nhắm mắt xuôi tay bấm đặt mua vì thực sự không biết quyển này hay cỡ nào. Nhưng quyển sách đã không làm mình bỏ tiền uổng phí. Sách cung cấp những phương pháp học tập và ghi nhớ hữu ích, phục vụ rất tốt cho việc học của mình. Tác giả giúp ta thoát khỏi những cách học truyền thống sai lầm, không hiệu quả thay vào đó đưa ra những phương pháp mới lạ hơn. Cảm ơn tác giả và Tiki.
5
509425
2016-04-18 00:24:16
--------------------------
412225
7240
Bản thân mình mong đợi nhiều hơn từ cuốn sách này (theo như giới thiệu nó là một cuốn sách giúp thay đổi bản thân, cuộc đời người đọc?), mình đánh giá nó ở mức độ đựơc, nhưng thành thật mà nói nó cũng là một cuốn sách bổ ích. Chỉ là lựơng kiến thức không thật sự là điều gì quá đặc biệt, mới lạ cả. Vì với mình, một số cách trong này mình cũng đã suy nghĩ tới. Tuy nhiên, nếu bạn có cơ hội đọc đựơc nó và vận dụng đựơc tất cả những gì trong cuốn sách, mình nghĩ là nó sẽ cải thiện đáng kể trí nhớ của bạn!
3
857944
2016-04-07 12:21:35
--------------------------
411480
7240
Bí Quyết Học Nhanh Nhớ Lâu là cuốn sách dành cho những ai muốn cải thiện trí nhớ của mình. sách trình bày khá logic nen bạn có thể ưu tiên chọn phần mình thấy cần thiết với bản thân nhất mà không cần theo thứ tự. Nhiều khi mình gặp vấn đề về cách ghi nhớ nhưng sau khi đọc cuốn sách này mình đã hiểu tại sao và tìm cách khắc phục. Diều duy nhất mình thấy chưa hào lòng lắm là sách còn khá cơ bản chưa thật sự đào sâu đến tận cùng, có một số nguyên nhân chưa có giải pháp khắc phục triệt để
4
653217
2016-04-06 07:06:22
--------------------------
405112
7240
Đây là một cuốn sách rất thú vị và bổ ích. Cuốn sách là những phân tích rất cụ thể, chính xác, khoa học của tác giả về não bộ cũng như trí nhớ của con người để từ đó đưa ra cho người đọc những phương pháp để luyện trí nhớ và học tập. Sách rất bổ ích cho học sinh chúng ta rèn luyện trí óc. Những phương pháp đưa ra rất cụ thể, dễ thực hiện. Bìa sách rất đẹp, giấy chất lượng. Các lập luận trong sách được đưa ra rất logic, cụ thể, khoa học
5
1101166
2016-03-26 08:41:19
--------------------------
392342
7240
Sách bao gồm những kĩ thuật giúp bạn nhớ nhanh và lâu các loại kiến thức khác nhau: hệ thống số, bản danh sách, hệ liên kết...Cuốn sách này rất cần thiết cho các bạn hoc sinh, sinh viên muốn cải thiện khả năng học tập của mình. Nội dung trình bày ngắn gọn, có trọng tâm, dễ hiểu. Tuy nhiên nội dung cuốn sách theo mình là còn mang nặng tính  lý thuyết, các ví dụ rất ít nên khiến người đọc khó có thể hiểu rõ cách sử dụng các kĩ thuât ghi nhớ, mà sách đã đề cập. Điều đó đòi hỏi các bạn phải luyện tập các kĩ thuật này một cách thường xuyên. 
5
487129
2016-03-06 19:25:17
--------------------------
391814
7240
Học không phải ngày một ngày hai, mà đó là chuyện của cả đời. Vì thế ta không thể đánh liều mà chỉ học một phương pháp học, ta phải đổi thay, phải thay đổi từng phương pháp để phù hợp nhất với bản thân chúng ta. Và cuốn sách này có thể giúp ta hiểu thêm về một phương pháp hiệu quả khác. Nhưng có điều cuốn sách có vài phần không hợp lí với điều kiện giáo dục của chúng ta, ví dụ như ta cũng không thể nào mà ép mình học lâu dài những điều ta chỉ cần học cho biết.
3
828378
2016-03-05 20:58:22
--------------------------
387197
7240
Thật may mắn là khi mình vừa đặt xong cuốn sách này, vài hôm sau giao hàng đến là tiki cũng thông báo hết hàng. 
Một cuốn sách hay và bổ ích. Là nền tảng cơ sở theo mình nghĩ là có khoa học để chúng ta phát huy tối đa não bộ của chính mình. Những kinh nghiệm, phương pháp và bí quyết trong sách, nếu được áp dụng đúng cách, mình tin chắc rồi ai cũng có thể "học nhanh, nhớ lâu" . 
Giá thành rẻ, nội dung thì không có gì để bàn cãi, chất liệu giấy lại tốt, cách trình bày đẹp. Quả thực là rất đáng bỏ tiền ra mua. 
4
472775
2016-02-26 19:37:20
--------------------------
372333
7240
Nếu bạn muốn tìm hiểu về não bộ, cách chúng ta ghi nhớ và giải đáp mọi thắc mắc về trí nhớ thì đây là cuốn sách bạn nên mua ngay lập tức.
cuốn sách ghi rất đầy đủ nhưng lại vô cùng tóm gọn, có những khung in màu để chúng ta dễ biết đâu là nội dung chính. 
Đặc biệt là trong sách hướng dẫn chúng ta cách nhớ lâu, ứng dụng các giác quan để ghi nhớ, không những vậy nó còn đề cập đến ấn đề ăn uống rèn luyện để có một trí nhớ tốt hơn.
5
756700
2016-01-21 14:10:02
--------------------------
368077
7240
Với việc đọc phần giới thiệu sách trên tiki và phần bình luận của các bạn, tôi đã mua thử cuốn sách này với hy vọng cải thiện bộ nhớ của mình một cách nhanh chóng. Khi nhận được sách thì tôi khá là thất vọng vì nó quá mỏng. Lúc ấy tôi tự hỏi rằng mình có thể học được những gì trong một quyển sách mỏng như vậy? Nhưng rồi tôi lại nghĩ, biết đâu nó nhỏ nhưng có võ. Và thật bất ngờ, đúng là tôi chẳng học được gì từ quyển sách đó cả. Nó chỉ đưa ra một đống lí thuyết, vài ví dụ hướng dẫn làm theo mà tôi chẳng hiểu gì. Có lẽ tôi đã lựa chọn sai, nó không phù hợp với một người thiếu tính kiên nhẫn như tôi. Tôi nghĩ rằng trước khi có thể hiểu được quyển sách này thì tôi phải đọc một quyển sách dạy về kiên trì đã. Mình mua chỉ vì đọc comment khen quá mức của các bạn mua trước, hix
3
1043644
2016-01-13 12:05:18
--------------------------
357646
7240
Cuốn sách này sẽ rất bổ ích đối với các bạn học sinh, sinh viên. Nó đã thực sự nêu ra rõ cho ta từng cách học sao cho mau thuộc, nhớ lâu. Nó hướng tôi đến với sự sáng tạo nhiều hơn. Nhưng tôi xin được nêu ý kiến của mình, rằng, nội dung của cuốn sách này khá giống( khoảng 40%) với cuốn sách:"Tôi tài giỏi, bạn cũng thế" của Adam Khoo. Mặc dù thế, những phần tương tự ý, cuốn sách này cũng đã tóm lược lại và làm chúng dễ hiểu đi rất nhiều. Tôi khuyên các bạn hs,sv nên mua cuốn sách.
5
1062348
2015-12-23 22:00:35
--------------------------
356895
7240
"Cuốn sách sẽ giúp bạn học hành tấn tới, vượt qua các kỳ thi, nhưng lợi ích thật sự từ quyển sách vượt xa hơn thế nhiều - một khi vận dụng tốt các phương pháp trong sách này, bạn sẽ khai thác triệt để tiềm năng của bộ não mình." Mình mua cuốn sách với hi vọng như thế. Mình đọc xong thấy cũng hơi tiếc, mình nên tiếp xúc cuốn sách này sớm hơn, những bí quyết trong sách nên áp dụng càng sớm càng tốt, tốt nhất là ngay từ trên ghế cấp ba. Chờ lên tới đại học hay khi gần ra trường mới đọc thì sợ là quá trễ, đến lúc này những vấn đề khác về công việc nảy sinh khiến ta không có thời gian dành cho việc rèn luyện trí nhớ này

4
213826
2015-12-22 16:20:02
--------------------------
350635
7240
Mình mua quyển sách này với ý định học tập được nhiều hơn các phương pháp cũng như cụ thể được cách học hiệu quả.
Sách có mang lại điều đó, nêu ra những gì thích thú nhất, thú vị nhất ở con chữ con số để chúng ta tiếp thu một cách hiệu quả hơn, trình bày rõ ràng với tông màu xanh lá tràn đầy hy vọng và ước mơ, khiến tâm hồn khi đọc cũng dễ chịu hẳn, nhưng điều chưa hài lòng lắm là sách lại cô động quá phần cần thiết nhưng lại còn chừa viết nhiều về những lý luận bộ não mà mình đã từng đọc ở những sách về tâm lý hay giải phẩu bộ não, theo mình nếu viết chúng sơ lược hơn, mà cung cấp nhiều hơn nội dung cần thiết thì sách sẽ còn hay hơn nữa.
lưu ý sách hơi mỏng nên các bạn mua về đừng quá lăn tăn nhé, thú vị đấy
4
252095
2015-12-10 22:56:49
--------------------------
346712
7240
Có lẽ quyển sách này rất hot trên tiki thì phải. Mình thấy cứ thường xuyên hết hàng và phải chờ nhập về và mình cũng phải chờ mới có thể mua nó. Sách mỏng nhưng nội dung không mỏng tý nào. Cách viết của tác giả là đi thằng vào vấn đề, giúp người đọc/ người học nhanh chóng nắm bắt được nội dung và thực hành ngay. Có thể mở ra bất cứ mục nào để đọc và thực hành mà không cần phải đọc từ đầu sách. Nhưng hiệu quả của sách là do sự thực hành và áp dụng các bí quyết đã nêu mỗi người. Nên trí nhớ có được cải thiện hay không là do chính mình.
5
41975
2015-12-03 10:33:48
--------------------------
340493
7240
Các phương pháp được đưa ra trong quyển sách này đều được nghiên cứu kỹ càng, tuy nhiên với bản thân tôi thì có lẽ vẫn chưa tìm được cái nào. Cách trình bày đẹp, giấy trắng, chữ in rõ ràng. Việc đi từ cấu tạo của não bộ đến những yếu tố ảnh hưởng đến khả năng ghi nhớ và đưa ra các phương pháp và cách rèn luyện để tăng cường khả năng ghi nhớ của người đọc rất khoa học. Có lẽ nếu kiên trì rèn luyện thì sẽ cải thiện được khả năng ghi nhớ thật....
3
350180
2015-11-20 00:06:08
--------------------------
339963
7240
Cuốn sách mỏng thôi chứ không dày, nếu chăm chú đọc thì chậm nhất trong khoảng một ngày là có thể hoàn thành. Tuy nhiên, mình vừa đọc vừa nghiền ngẫm và tập theo cách được hướng dẫn trong sách thì có hơi lâu một chút.
Sách trình bày khoa học, hợp lý và rất logic, hai màu chủ đạo là trắng và xanh lá đúng gu mình thích. Nội dung viết rất dễ hiểu, cụ thể và thiết thực, đi từ a đến z rất hợp lý như đầu tiên là giới thiệu cấu trúc não bộ rồi đi đến các phương pháp như việc kết hợp não trái và phải, sử dụng hình ảnh tưởng tượng, v.v... để ghi nhớ. Sách thích hợp cho những ai muốn cải thiện trí nhớ của mình.
4
55927
2015-11-18 23:14:34
--------------------------
339500
7240
mình mua quyển sách này hồi tiki giảm giá còn 29k , mình vào bình luận, thấy quyển sách được đánh giá khá cao , nhưng mà , khi mua về ồi , đọc được một nữa thì muốn ngừng , vì hầu hết nó là về lií thuyết , áp dụng cho thực tế thực sự không cao ,  tạm thời mình đọc được 2/3 và thấy mỗi cái phần về cung cấp nhu cầu dinh dưỡng cho bản thân là ứng dụng được nhiều nhất và nó cũng dễ tìm được trên mạng , nói chung , thấy sách không hay
3
900036
2015-11-18 09:08:54
--------------------------
330134
7240
Với việc đọc phần giới thiệu sách trên tiki và phần bình luận của các bạn, tôi đã mua thử cuốn sách này với hy vọng cải thiện bộ nhớ của mình một cách nhanh chóng. Khi nhận được sách thì tôi khá là thất vọng vì nó quá mỏng. Lúc ấy tôi tự hỏi rằng mình có thể học được những gì trong một quyển sách mỏng như vậy? Nhưng rồi tôi lại nghĩ, biết đâu nó nhỏ nhưng có võ. Và thật bất ngờ, đúng là tôi chẳng học được gì từ quyển sách đó cả. Nó chỉ đưa ra một đống lí thuyết, vài ví dụ hướng dẫn làm theo mà tôi chẳng hiểu gì. Có lẽ tôi đã lựa chọn sai, nó không phù hợp với một người thiếu tính kiên nhẫn như tôi. Tôi nghĩ rằng trước khi có thể hiểu được quyển sách này thì tôi phải đọc một quyển sách dạy về kiên trì đã. 
5
474010
2015-11-02 00:52:13
--------------------------
323064
7240
Trước khi đọc quyển sách này, với những môn học bài như Sử, Văn,... Em chỉ có thể đợi đến lúc trước khi đi học mà cầm tập lên học bởi nếu học quá sớm em thì đến tiết học các môn đó em liền quên hết hoặc chỉ nhớ chữ được chữ không. Đọc quyển sách này em mới biết được rằng em đã không khai thác hết khả năng ghi nhớ siêu phàm của não bộ con người. Bằng cách hướng dẫn từng phần rồi liên kết các phần khác nhau cùng với một vài bài tập nhỏ để thực hành, quyển sách giúp em có thể ghi nhớ rất rõ và rất sinh động khi áp dụng vào những gì mình được học. Quyển sách này thực sự rất hữu ích với em!
4
647002
2015-10-17 18:31:40
--------------------------
307365
7240
một quyển sách nhỏ nhắn nhưng đầy sức mạnh
dù chỉ với 30.000 đ
bạn sẽ sở hữu hàng loạt công cụ siêu mạnh trong việc học tập
và nhất là việc ghi nhớ (vấn đề lớn ở thời đại quá nhiều thông tin như hiện nay)
nó dạy bạn từ bên trong
như cách suy nghĩ
cách ăn uống
và cả cách tiếp nhận thông tin
nhưng trong đó
tôi thích nhất cách loại bỏ những gì không cần thiết
vì não bộ k thể nhớ hết mọi sự kiện trong ngày
nên bạn sẽ được học cách nhớ những gì cần nhớ
và quên những gì không hề quan trọng
tập trung sức lực và trí lực vào công cuộc đạt thành tích cao
chúc bạn thành công!
5
233155
2015-09-18 03:41:52
--------------------------
303219
7240
Bạn luôn than vãn rằng mình có trí nhớ tệ? Bạn không thể tìm ra cách học để nhớ bài lâu hơn? Cuốn sách này sẽ giúp bạn có được bí quyết để học nhanh và nhớ bài lâu hơn.Sách phân ra từng mục rõ ràng cho bạn biết được bạn phải bắt đầu từ đâu và chỉ ra những phương pháp và đưa ra bài tập để bạn cải thiện được cách nhớ bài của mình.Mình mua cuốn sách này rồi đọc qua rất nhiều lần và mình đã dần áp dụng được cách học  ở trong đây.Sách cũng khá nhẹ nên bạn có thể đem đi bất kì đâu và đọc kỹ những phương pháp bên trong nó.
5
57884
2015-09-15 18:40:12
--------------------------
300385
7240
Bí quyết học nhanh nhớ lâu là một cuốn sách hay về những phương pháp hỗ trợ việc học tập hiệu quả hơn. Sách có khối lượng khá nhẹ, có thể dễ dàng mang đi bất cứ đâu để đọc. Mỗi phương pháp trong sách đều có thể áp dụng dễ dàng nhờ có bài tập thực hành. Cần phải kiên trì luyện tập thì chúng ta mới đạt được kết quả mà mình mong đợi. Nếu bạn đã biết cách vận dụng thành thạo những phương pháp trong sách thì học lực của bạn sẽ tốt lên trông thấy.
4
456957
2015-09-13 22:03:54
--------------------------
297892
7240
Học và làm bất cứ việc gì cũng cần có phương pháp và kỹ thuật để dễ dẫn đến thành công. "Bí quyết học nhanh nhớ lâu" đã chỉ ra những kỹ năng hỗ trợ việc ghi nhớ như: tập trung, tổ chức, hình dung và tưởng tượng. Và nhiều phương pháp ghi nhớ như: bằng cách kể chuyện, ghi nhớ theo hành trình, theo hệ thống số... Mỗi phương pháp có bài tập thực hành để áp dụng. Quyễn sách này không những cần thiết cho học sinh mà cả cho những ai muốn rèn luyện trí nhớ. Khổ sách nhỏ, dễ mang theo để đọc khi cần. Mình cũng rất thích sách của First News (Trí Việt) vì chất lượng giấy trắng, mịn. Thật bắt mắt!
4
594841
2015-09-12 11:19:05
--------------------------
294662
7240
Một cuốn sách có trang bìa khá trang trọng!Mà sách thì mỏng mà sao đắt thế không biết!Sách về kỹ năng thì không bao giờ có khái niệm là tệ hay là hay vì cuốn kỹ năng nào cũng bổ ích hết!Theo mình những cuốn kỹ năng sống như thế này chỉ có thể là dễ hiểu hay khó hiểu ,đọc có buồn ngủ hay không thôi chứ thật sự thì cuốn nào cũng hay và cuốn nào cũng giúp chúng ta trở nên hoàn thiện hết!Các bạn học sinh nên mua cuốn này vì mình đã đọc và áp dụng thấy khá hiệu quả!
5
413637
2015-09-09 15:58:17
--------------------------
293679
7240
Cuốn sách là tài liệu bổ ích đã giúp em mình tìm được cách học bài nhanh thay vì trước đây học bài lâu và không tập trung được, nhưng sau khi áp dụng cách của sách thì em nó đã cải thiện hơn.Việc học của em mình không còn khó khăn hay áp lực thời gian như trước nữa.Sách giúp em mình tìm được cách học tốt, nhận ra cách học của bản thân đang sai ở điểm nào đúng ở điểm nào .Khi thấy em mình thay đổi mình cũng đã đọc thử và mình đã lấy được nhiều thông tin từ sách về cấu tạo não , trí nhớ và mình cũng cải thiện được cách học. Bạn nào gặp khó khăn trong việc ghi nhớ bài thì nên đọc sách này nó sẽ giúp ích cho bạn.
4
561768
2015-09-08 15:43:43
--------------------------
287974
7240
Sau khi đọc quyển sách này mình đã tích lũy được rất nhiều "mẹo" cần thiết cho việc học. Tác giả trình bày các bí quyết rõ ràng và dễ hiểu. Qua nó mình có thể hiểu hơn về cấu trúc của bộ não và cách sử dụng hết công suất vào việc học. Cách học nhanh, hiệu quả mà nhớ lâu, có các ví dụ minh họa dễ hiểu, dễ tiếp thu, mình có thể vận dụng dễ dàng. Theo mình đây là một cuốn sách rất bổ ích cho các bạn học sinh, sinh viên!. Và mình cũng rất vui khi nhận hàng từ Tiki, đóng gói cẩn thận, rất tôn trọng khách hàng!
4
605751
2015-09-03 10:15:01
--------------------------
287737
7240
Trí nhớ là một vấn đề rất nan giải đối với học sinh, sinh viên khi đang còn ngồi trên ghế nhà trường, tình trạng chung là học đâu quên đấy và cuốn sách này chính là một trong những giải pháp hóa giải tình trạng này.
+ sách có ưu điểm chỉ ra cho người đọc các lí do về việc trí nhớ không tốt, chỉ ra cách khắc phục và áp dụng để cho ng đọc có thể ứng dụng vào cuộc sống.Các em học sinh các bạn sinh viên có thể cải thiện kết quả học tập của mình.
+Nhược điểm : Cuốn sách này tôi chưa thấy ở nó nhược điểm nào cả.
5
443561
2015-09-02 23:13:51
--------------------------
287568
7240
thông qua cuốn sách này tôi đã học thêm được nhiều phương pháp khác giúp nâng cao việc học tập, vì không phải ai cũng thông minh cả, mỗi người một khuyết điểm, nhưng đều mong muốn nâng cao việc học, cuốn sách này đã giúp tôi khác phục việc học bài khó thuộc hơn mọi hôm, nhận ra những điểm sai trong phương pháp học bài hằng ngày của mình, tìm thêm những phương pháp khác tốt hơn cho việc học của mình, tôi chưa từng cảm thấy chán khi đọc cuốn sách này, chắc là bởi nó quá hay và thú vị
5
576584
2015-09-02 21:04:05
--------------------------
282692
7240
Cuốn sách này đối với tôi mà nói: nó chính là người bạn của tôi.Từ ngày mua sách về,tôi cảm thấy thật sáng suốt vì đã chọn lựa quyển sách này.Bởi nó không chỉ đẹp về hình thức mà nội dung nó cũng vô cùng hữu ích.Nó đã giúp tôi rất nhiều trong việc học hằng ngày, nhờ nó mà tôi nhớ lâu hơn,có những kĩ năng vô cùng quý báu . Đọc hết quyển sách tôi lại muốn đọc lại lần thứ hai thứ ba.Từng câu từng chữ như thấm sâu vào đầu tôi,khiến tôi càng cảm thấy hứng thú hơn với việc học. Và cuối cùng là cảm ơn Tiki đã giao cho tôi một cuốn sách vô cùng chất lượng
4
337358
2015-08-29 12:47:36
--------------------------
269666
7240
Cuốn sách tập hợp những phương pháp học tập tiên tiến dành cho học sinh.Khi đọc và áp dụng những phương pháp được giới thiệu trong sách này,bạn sẽ hiểu rõ hơn về cách hoạt đọng của bộ não đồng thời bạn sẽ có một trí nhớ tố lên đáng kể.Không cần biết hiện giờ học lực của bạn như thế nào,nếu bạn vận dụng tốt các phương pháp trong sách này,kết quả học tập của bạn sẽ thay đổi rõ rệt.
5
712405
2015-08-17 17:23:55
--------------------------
265498
7240
“Bí quyết học nhanh nhớ lâu” của Jonathan Hancock là một trong những quyển sách hay về phương pháp, công cụ để học nhớ lâu, ghi nhớ nhanh, đúng trọng tâm bài học, từ đó nhanh chóng giải quyết mọi vấn đề,… giúp cho khả năng học tập của bạn được tiến bộ, điểm số cao hơn. Sách viết rất cụ thể về định nghĩa trí nhớ, cấu trúc não, các ứng dụng các giác quan để ghi nhớ; một số phương pháp rèn luyện và kĩ năng để cải thiện trí nhớ,.. Quyển sách gọn nhỏ, hay, xúc tích, là cẩm nang không thể thiếu của học sinh, sinh viên.
Xin cảm ơn.

5
554150
2015-08-13 23:16:26
--------------------------
252407
7240
Trước giờ mình không nghĩ ghi nhớ là cần phải có phương pháp đâu vì mình nghĩ chỉ cần học thuộc lòng thôi nhưng hoàn toàn mình đã lầm.Học thuộc là một cách ghi nhớ mệt mỏi nhất, mà chất lượng lại không sâu và không cao.Sách phân tích rất rõ về 2 bán cầu não và mối liên kết giữa chúng khiến cho mình thêm hiểu rõ hơn về mặt sinh học nữa chứ.Sách có chất lượng giấy phải nói là rất tốt, có các dòng chữ được in màu làm cho mình bắt mắt hơn.Qủa thật nếu như bạn muốn nâng cao trí nhớ của mình thì hãy đọc quyển sách này. Tin mình đi bạn sẽ không hề hối hận.Với mình quyển sách xứng đáng 5 sao.
5
368991
2015-08-03 17:11:13
--------------------------
249771
7240
Ai trong đời cũng đều phải trải qua quá trình học tập để hoàn thiện bản thân về mọi mặt từ kiến thức, kỹ năng, thái độ sống nhằm đáp ứng nhu cầu phát triển ngày càng đi lên của xã hội hiện đại, trong suốt quá trình học tập đòi hỏi mỗi người phải tiếp nhận và ghi nhớ một lượng thông tin khổng lồ. Thế nhưng, phải học bằng cách nào để tiếp nhận thông tin nhanh nhất, ghi nhớ tốt nhất? Quyển sách "Bí quyết học nhanh nhớ lâu" sẽ cho ta lời giải cho câu hỏi này. Dựa trên những cơ sở khoa học quyển sách hướng dẫn chúng ta biết cách rèn luyện trí nhớ, vận dụng các nguyên tắc sử dụng trí nhớ vào quá trình học tập để đạt hiệu quả cao nhất. Theo tôi quyển sách rất thiết thực và bổ ích nhất là đối với học sinh, sinh viên vì ở lứa tuổi các em hoạt động học là hoạt động chủ đạo. Quyển sách nhỏ gọn, tiện lợi, trình bày đẹp, chất lượng giấy, mực in đều tốt, rất xứng đáng để đầu tư cho tủ sách của mọi gia đình.
5
664812
2015-07-31 23:00:18
--------------------------
229881
7240
Từ lâu mình đã luôn đi tìm kiếm một phương pháp học tập mới, hiệu quả hơn nhưng vẫn chưa làm được, đặc biệt với môn tiếng anh- môn học yêu thích của mình- thì cần phải có trí nhớ và bí quyết học nhanh, nhớ lâu. Tìm được cuốn sách này đúng là rất hay. Cuôn sách tuy nhỏ nhưng gọn, trình bày đẹp mắt, có các mẹo và bí quyết học tập hữu ích. Dựa vào đó mà việc học bài của mình đã trở nên hiệu quả hơn nhiều. Cuốn sách này sẽ rất hữu ích với các bạn học sinh sinh viên như mình!
5
393384
2015-07-17 09:31:24
--------------------------
222319
7240
Tôi có một trí nhớ tồi, thực sự rất tồi, tôi luôn luôn oán trách mình về điều đó. Một lần thấy cuốn sách này trên tiki, nghe tên thôi mà tôi đã muốn có ngay nó rồi. Sau khi mua về đọc thì tôi không còn oán trách mình nữa. Vốn dĩ trí nhớ kém là do không có một phương pháp học hiệu quả mà thôi. Cuốn sách này hội tụ nhiều phương pháp ghi nhớ nhanh và hiệu quả, rất rất cần thiết cho tất cả các bạn học sinh mong muốn lực học của mình được tốt hơn. Tuy chưa áp dụng được hết nhưng tôi có thể tự tin nhận thấy trí nhớ của mình dần dược cải thiện sau khi đọc cuốn sách này!
5
292005
2015-07-05 12:43:39
--------------------------
220943
7240
Mình là một người có trí nhớ không được tốt cho lắm và tôi đã tìm tới những bí quyết để cải thiện trí nhớ và mình đã gặp cuốn sách này. Mình thật sự bị thu hút bởi lối viết rất dễ tiếp thu những bài tập thực hành rất bổ ích để cải thiện trí nhớ. Bìa sách cứng rất chắc chắn, giấy đẹp đọc không bị mỏi mắt. Nội dung đề cập trong cuốn sách viết rất khoa học, những kiến thức về não bộ được giải mã một cách tường tận nhất giúp bạn đọc dễ hiểu. Cảm ơn tác giả và nhà sách
5
596879
2015-07-03 10:04:48
--------------------------
208257
7240
- Về hình thức: Sách khá mỏng và nhẹ, thực sự là mỏng hơn mình nghĩ. Nhưng mua hàng trên tiki yên tâm, sách có màu, mực in chất lượng, giấy xịn, chữ viết rõ ràng, dễ đọc. Không phải kiểu trắng đen như sách lậu.
- Về nội dung: Trình bày ngắn gọn, dễ hiểu. Mặc dù các kiến thức này mình đã biết trước nhưng nhiều khi không muốn áp dụng. Dù sao thì cuốn sách này như lời nhắc nhở mình về những phương pháp học tập vậy.
- Dù sao thì cái chính cũng là ở bản thân con người bạn. Bản thân bạn mới quyết định thành công. 
- Giao hàng nhanh, đóng gói đẹp, vuông vắn, không bị ảnh hưởng gì đến sách.
5
114793
2015-06-14 17:18:01
--------------------------
203351
7240
Cuốn sách tuy mỏng nhưng truyền tải rất nhiều những điều bổ ích. Đôi lúc có nhiều người cứ nghĩ rằng học ngày học đêm, học kiên trì từ ngày này qua ngày khác là sớm muộn gì cũng giỏi nhưng bạn biết không, những điều đó lại đang đi ngược lại với khoa học, vừa phản tác dụng, ảnh hưởng tới sức khỏe lại tốn nhiều thời gian nữa. Đọc cuốn sách bạn sẽ biết được rằng bộ não của mình hoạt động như thế nào và khả năng lưu giữ thông tin ra sao, làm sao để tận dụng nó tốt nhất để đạt được hiệu suất cao nhất. Ngoài những thông tin cần thiết để giúp ta cách học nhanh nhất, cách vượt qua những kỳ thi một cách suôn sẻ cuốn sách còn cung cấp thêm thông tin những thức ăn cần có để có một bộ não khỏe, một trí nhớ tốt nữa. Những điều này đã trở nên rất hữu ích và cần thiết.
4
274995
2015-06-01 08:34:36
--------------------------
193640
7240
Cái tên nói lên tất cả, rất đúng với quyển sách "Bí Quyết Học Nhanh Nhớ Lâu" này! Tác giả Jonathan Hancock đã đưa ra các thực nghiệm, phân tích tích bộ não đưa ra các ưu điểm và nhược điểm của bộ não, cách hoạt động của hai bán cầu não rồi đưa ra các bài tập đơn giản để luyện tập và phát triển trí nhớ của bạn một cách tối ưu nhất! QUyển sách này sẽ cải thiện trí nhớ của bạn một cách rất tốt! Đặc biệt sẽ rất hữu ích cho các bạn học sinh sinh viên!
5
504087
2015-05-08 11:30:36
--------------------------
189715
7240
"Bí quyết học nhanh nhớ lâu" là cuốn sách chắc chắn sẽ giúp các bạn học đâu nhớ đó, tận dụng 2 bán cầu não 1 cách triệt để nhất nếu bạn áp dụng hết các công thức, các bí quyết mà sách đề cập. Tiếc là tôi biết cuốn sách này muộn nên bây giờ tôi mới biết được quy luật vận hành của bộ não, các thiên tài trên thế giới dễ dàng học giỏi, đạt thành công là nhờ họ vận dụng cà 2 bên bán cầu não. Hãy đọc cuốn sách này vì nó thật sự bổ ích và giúp ích rất nhiều vào quá trình học tập và làm việc.
5
425604
2015-04-27 21:05:58
--------------------------
173529
7240
Trước tiên, sách cho ta thấy cấu trúc đúng của não bộ, sau đó là hai bán cầu não, biết vận dụng tốt hay bán cầu não là đòn bẩy để ta có thể học tiến bộ và học giỏi hơn. Chưa hết, vấn đề dinh dưỡng cũng ảnh hưởng khả năng nhớ của não.
Mình mua cuốn này vì việc học của mình rất vất vả, học nhiều nhưng không nhớ được bao nhiêu, và cuốn sách này đã cải thiện được trí nhớ cho mình.
Điểm mình chưa hài lòng ở cuốn sách này là sách chưa được in bằng giấy ngả vàng nên đọc lâu sẽ cảm thấy hơi mỏi mắt.
4
542401
2015-03-26 13:18:07
--------------------------
171850
7240
Cuốn sách này giúp các bạn học sinh học đâu nhớ đó, dễ dàng vượt qua các kỳ thi với số điểm cao do có khả năng ghi nhớ tốt. Bên cạch đó bạn cũng sẽ biết cách rèn luyện trí nhớ, giúp ghi nhớ kiến thức một cách lâu dài và hiệu quả hơn.
Những phương pháp khá đơn giản dễ hiểu, giúp người đọc dễ dàng vận dụng vào việc học hành.
Tôi nghĩ với cuốn sách này bạn sẽ biết cách tận dụng triệt để tiềm năng bộ não và đạt được nhiều thành công trong học tập và cuộc sống!
Thật là bổ ích và hữu hiệu!
5
186614
2015-03-22 19:56:47
--------------------------
170945
7240
Mình không gặp khó khăn khi học nhưng môn học mới nhưng chưa bao giờ mình thấy thật sự thích thú khi học. Đọc cuốn sách này lần đầu tiên mình mới biết là việc học lại có thể trở nên thú vị như vậy. Cuốn sách giúp ta hiểu thêm về bộ não, hoạt động của hai bán cầu não, cách rèn luyện tính tập trung, ghi nhớ thông tin nhanh chóng nhờ sử dụng cả não trái và não phải, và những bài tập để chúng ta tự rèn luyện khả năng tập trung, ghi nhớ và móc nối các thông tin với nhau rất thú vị. Một cuốn sách bổ ích cho các bạn học sinh, sinh viên.
5
491545
2015-03-20 23:05:23
--------------------------
170362
7240
Một cuốn sách tốt là cuốn sách mang đến cho người đọc những thứ bổ ích. Với  Bí Quyết Học Nhanh Nhớ Lâu cũng vây, nó mang đến cho tôi kỹ năng ghi nhớ cực kỳ bổ ích. Tôi không ngờ rằng 5 giác quan của con người lại có mối quan hệ chặt chẽ với trí nhớ của chúng ta. Thông qua những cách thức tiếp cận cực kỳ thú vị, tác giả đã hướng dẫn tôi khai thác sự liên kết đó để ghi nhớ. Thật bổ ích!
Cách trình bày sách tôi cũng rất thích, sách in màu nhưng hài hòa, không quá màu mè, có ví dụ minh họa.
Cám ơn tác giả
4
37970
2015-03-19 22:06:50
--------------------------
146221
7240
Thủ thuật đơn giản, dễ áp dụng. 6 chương trong sách giúp ta biết được: tại sao khi học hay bị mất tập trung, não nam to hơn não nữ 10%( nhưng không hẳn là thông minh hơn), não người nặng khoảng 1,4 kg chiếm 2% trọng lượng cơ thể nhưng tiêu thụ 20% oxi hay phương thức rèn luyện trí nhớ tốt, hiệu quả ( ăn uống điều độ, thể dục, ngủ ngon và đủ giấc,..). Sách được trình bày theo lối thực tế và hữu dụng nhất. Ta có thể đọc sách theo trình tự hoặc đọc bất kỳ trang nào ta muốn mà vẫn cập nhật tốt nội dung. Ngoài ra còn có bài tập rèn luyện sau mỗi chương giúp ích cho ta rất nhiều. Một cuốn sách rất hay.
5
381173
2015-01-03 08:00:00
--------------------------
140473
7240
Sau khi mua cuốn này ở nhà sách, mình thực sự có một sự tiếc nuối khó tả, tiếc vì cuốn sách hay như này mà bây giờ mình mới biết, tiếc vì trước đây đọc nhiều sách mà không đọc cuốn này đầu tiên. Cuốn sách quả thực rất tuyệt vời, đúng với tên gọi của nó. Bằng những nghiên cứu, khảo sát và kinh nghiệm thực tế về khoa học, y học não người, tâm lý học,... Tác giả đã phân tích sự hoạt động cũng như ưu, nhược điểm của bộ não người, đồng thời đưa ra những phương pháp, bài tập vận dụng hết sức dễ hiểu và thú vị, nhằm giúp các bạn học sinh sinh viên tìm được phương pháp học tập hiệu quả, không tốn thời gian mà lại phát huy được tiềm năng sáng tạo và tối đa năng lực của não bộ. Cuốn sách quả thực rất hay, mang tính thực tế cao, chắc chắn sẽ làm hài lòng cả những độc giả khó tính nhất.
5
414919
2014-12-11 15:05:16
--------------------------
127539
7240
Nếu bạn từng ao ước có một phép thần kì nào đó để bạn học tập tốt hơn,kết quả cao hơn và bạn học thực chất hơn thì có lẽ bạn nên tìm mua cuốn sách này.Cuốn sách cho ta thấy bản chất thực sự của bộ não,ưu và nhược điểm của mỗi bộ não để từ đó ta có thể dựa vào nó để học tập và ghi nhớ tốt hơn.Mọi cách ghi nhớ trong sách bạn đều có thể áp dụng ngay được và thực sự là nó rất hiệu quả,bạn hãy thử mà xem.Mặc dù không nhiều ví dụ nhưng chỉ cần bạn nghiền ngẫm một chút là bạn có thể hiểu ngay phương pháp ghi nhớ mà bạn đang đọc và sẽ thực hiện.
5
388818
2014-09-25 07:45:49
--------------------------
119849
7240
Bạn chỉ có thể giải quyết, thay đổi hay sáng tạo 1 điều gì khi bạn biết được nguồn gốc, bản chất, nguyên nhân của nó. Và vì thế, với nền tảng cơ sở khoa học về cấu tạo, chức năng bộ não người, những cách thức, bài tập, gợi ý giúp cải thiện trí nhớ tối đa quyển sách mang đến mang tính thuyết phục rất cao. Hơn hết,  nếu vận dụng tốt những bài tập ấy , nó sẽ phát huy được tiềm năng sáng tạo.
Và vì dựa trên những cơ sở khoa học, nên sách trình bày rất đẹp mắt, màu sắc hài hòa, câu chữ gãy gọn mang đến cảm giác dễ chịu khi đọc....
Ngay khi đọc hết quyển sách, tôi nhận ra đúng là những gì tôi đang tìm kiếm. Bây giờ thì kiên trì tập luyện,thực hành và chờ xem kết quả thôi !
5
32783
2014-08-07 20:59:54
--------------------------
