300895
8178
Sách có nhiều hình minh họa đẹp và có màu sắc. 
Chất liệu giấy tốt, in ấn rất cẩn thận.
Nội dung nói về phong cách trang trí phòng khách và phong thủy cho tốt với từng nhà. Phong thủy thì không phải ai cũng tự tìm hiểu được nên cần phải nghiên cứu sách vở như thế này ta sẽ biết thêm nhiều điều vô cùng quan trọng.
Sách rất cần thiết cho những người chuẩn bị xây nhà hay đơn giản là muốn cải tạo ngôi nhà, phòng khách mà mình đang sử dụng cho tốt đẹp hơn.

3
400247
2015-09-14 12:08:09
--------------------------
