396144
8740
 Mình đã đặt mua tập tô màu Hãy đợi đấy tặng cho cháu, vì thằng bé rất thích xem phim hoạt hình này :))  thật sự rất thích cuốn tô màu này. Khi nhận sách, đúng như mong đợi, sách hình rất sinh động, giấy dày dặn, không sợ trẻ tô mạnh tay sẽ bị hằn ra mặt sau. Sách không chỉ có hình mà còn có cả lời kể cho mỗi bức hình nữa, trẻ rất thích thú. Sẽ mua thêm các tập khác của cuốn Hãy đợi đấy nữa :) Tiki giao hàng nhanh, đóng gói rất cẩn thận nữa, rất thích Tiki :)
5
847826
2016-03-12 23:07:18
--------------------------
