239191
8999
mình mua cho cháu trai 4 tuổi, cháu thích nghe đọc truyện lắm, cứ đòi đọc đi đọc lại câu chuyện thôi. hình minh họa rất đẹp mắt giúp các bé dễ lôi cuốn vào câu chuyện, nội dung có ý nghĩa nhân văn ca ngợi tình yêu. mình cảm thấy rằng so với việc ra nhà sách lựa thì mua những cuốn sách thế này trên tiki giá vừa rẻ vừa rất tiện lợi, mình đã mua thêm mấy cuốn trong bộ sách này cho cháu. rất hài lòng với dịch vụ mua hàng và giao hàng trên trang tiki. sẽ mua thêm các cuốn sách khác cho cháu :)
5
622473
2015-07-23 19:04:37
--------------------------
