224102
9376
Cắt Dán Hình 3D - Bé Khéo Tay - Bộ Tư Duy.
Một quyển sách tập cho bé tư duy khá cao, và phải khéo tay mới cho ra được sản phẩm của mình.
Nếu bé nào thích gấp hình thì quyển này sẽ thỏa mãn lòng đam mê cho các bé.
Lúc mình mua, Sách lại đang có đợt giảm giá mạnh 30% nên đã mua để dành, để lớn hơn 1 tí bé có thể làm quen với trò chơi mới.
3
323719
2015-07-08 09:19:44
--------------------------
