535649
9765
Khi nhận cuốn sách trên tay mình hơi thất vọng vì sách quá cũ , bìa bị cong , có bị viết , không có CD ( mặc dù trong bài có rất nhiều bài nghe) Nhưng nội dung sách thì rất hay , tiki giao hàng nhanh và thuận lợi!!!
3
1701646
2017-03-04 22:22:22
--------------------------
