577397
139
- Nội dung sách thì không cần phải bàn rồi nhé! :)) Quá tuyệt vời luôn
- Còn chất sách thì giấy rất đẹp, giấy xốp nên tuy sách rất dày nhưng cầm ko bị nặng tay, bìa là bìa giấy nhưng rất đẹp, cơ mà hơi dễ cong!
5
66191
2017-04-19 11:35:19
--------------------------
515397
139
Mới nhận được hàng. Sách nhẹ như mình mong đợi. Chất liệu giấy tuyệt. Có cái bìa hình như mỏng hơn so với mấy quyển mình mua ngoài Fahasa nhưng cũng ok. :)
5
2093129
2017-01-25 10:02:24
--------------------------
