575025
34
Cuốn sách gọn, nhẹ, dễ dàng mang theo bên mình mọi lúc mọi nơi. Màu sắc chữ thì đẹp, rõ nét.  Tiki giao hàng rất nhanh.
5
721208
2017-04-16 23:22:22
--------------------------
572805
34
Tuy là quyển từ điển bỏ túi nhưng nội dung đầy đủ, phụ lục có những động từ bất quy tắc thông dụng và cách phát âm tên của các quốc gia trên thế giới.
5
35914
2017-04-14 09:50:42
--------------------------
568853
34
giao hàng rất nhanh, chính xác, kết quả vượt mong đợi
5
5139015
2017-04-10 09:48:17
--------------------------
560417
34
It's so useful for myself, even my students and it's so easy for us to look up any word. Thank you so much!
5
495055
2017-03-31 20:23:07
--------------------------
559453
34
Sách có rất nhiều từ vựng. Cấu trúc chặt chẽ dễ tìm từ mình cần. Có phiên âm và định nghĩa giải thích bằng tiếng Anh.
5
1018708
2017-03-30 17:19:02
--------------------------
543625
34
Sưu tập đầy đủ 3 cuốn sách mới phát huy được tác dụng! Sách giải thích luôn bằng tiếng Anh khá hay.
4
1876626
2017-03-15 17:37:09
--------------------------
534917
34
Mình rất yêu quyển từ điển này. Vừa nhỏ gọn, vừa dễ dùng. Phải nói rằng từ khi mua xong mình chăm tra từ mới hẳn. :)
5
1951053
2017-03-03 19:53:18
--------------------------
529577
34
Thích hợp cho người bận rộn, vừa học vừa làm. Hằng ngày phải mang vác tài liệu, đồ nghề mà còn lỉnh kỉnh thêm sách vở dày cui nữa thì chịu sao nổi. Quyể  từ điển này nhỏ gọn, nhẹ nhàng, cầm vừa lòng bàn tay, hiệu đính tốt. Nói chung tôi đánh giá cao sản phẩm. Một điểm chưa hài lòng lắm là bìa sách nếu cứng cáp hơn một chút nữa thì sẽ tốt hơn. Ngoài ra, ít ngày sau khi tôi mua xong sản phẩm này thì thấy nó được giảm giá 50%, một cảm giác rất "khó tả".
4
679018
2017-02-22 01:43:04
--------------------------
529461
34
Rất hữu ích và tiện lợi, sách trình bày rõ ràng, giá cả cực kì phù hợp
5
1496491
2017-02-21 21:14:05
--------------------------
506465
34
Mình hay có thói quen xem lời bình luận về sản phẩm trước khi mua một món hàng gì đó, mà hôm nay phải lên tiki app, viết cái comment vì chất lượng sản phẩm rất tốt, sách cũng hữu dụng. Các bạn cứ yên tâm mà thêm vào giỏ hàng nhé!👍🏻👍🏻👍🏻
5
1962557
2017-01-06 20:09:34
--------------------------
503989
34
Quyển sách này rất hay ^^ mình nghiện đọc luôn
Nhỏ nhỏ xinh xinh rất tiện

5
799433
2017-01-02 17:35:15
--------------------------
501177
34
Chất lượng giấy bìa đẹp, khá ổn đối với học sinh còn nếu nghiên cứu chuyên sâu thì không đủ :D Nhỏ nhỏ xinh xinh thích <3 
5
1731720
2016-12-27 23:47:16
--------------------------
493532
34
Là 1 cuốn từ điển kinh điển không thể bỏ qua dành cho học sinh sinh viên!
5
1642142
2016-12-01 00:41:41
--------------------------
492060
34
Mình được chị gia sư giới thiệu mua quyển từ điển này và mình thấy thực sự nó rất đáng tiền . Cách sắp xếp các từ cực kỳ logic . Cách giải thích các từ cũng rất dễ hiểu . Cách giải nghĩa từ anh -anh rất hay sát nghĩa . Tiki giao hàng nhanh và gói hàng đẹp . Mình rất thích cách đóng hàng của tiki
4
1209997
2016-11-22 20:17:25
--------------------------
490525
34
Thiết kế của oxford thì tuyệt vời xưa giờ rồi, logic - dễ tra cứu, còn đẹp nữa chứ. Cuốn này là cuốn bỏ túi đem theo nên nó nhỏ xinh nhìn thích lắm, to bằng tờ 500k á, hihi, cầm vừa vặn trong tay. Vì nhỏ xíu nên muốn đem đi đâu cũng không thành vấn đề. Nội dung thì oxford mà, có gì đâu mà phàn nàn, tuyệt vời của tuyệt vời ấy chứ nhỉ? Với cuốn cầm tay thì với 3000 từ mình nghĩ là đã thỏa mãn được nhu cầu mọi người rồi. Mình mua lúc đang hội sách nên khá vui vì mua được sách tốt giá rẻ, hehe...
5
680839
2016-11-13 10:35:07
--------------------------
489065
34
Mình được cô Tiếng anh giới thiệu và tìm mua khổ nỗi mình lục mãi các nhà sách mà vẫn k có ???? cũng nhờ có tiki bán. Cuốn này là loại bỏ túi nên dĩ nhiên là nhỏ và chữ in cũng nhỏ nên mọi người cứ chê nhưng vs mình như vậy là tốt r. Nó giúp mình khá nhiều việc. Các bạn muốn thêm nhiều từ hơn thì có thể mua những loại khác. Đã sử dụng và cảm thấy hài lòng về cách phục vụ của tiki. Giao đúng hẹn và gói cũng khá kĩ. Mọi người nên sử dụng quyển này nếu còn đi học và cần tra một số từ đơn giản
4
1333574
2016-11-06 12:48:03
--------------------------
488924
34
Mình rất vui vì sau bao lâu chờ đợi tiki về hàng cuốn từ điển oxfort này nay mình đã được sở huwx một quyển. Về chất lượng của oxfort thì chúng ta ai ai cũng đã biết, đây là một cuốn từ điển rát có tác dụng với những người học từ B1 B2 trở lên. Cuốn từ điển tuy là hoàn toàn anh anh nhưng nó lại không khó hiểu như chúng ta vẫn nghĩ. Giải thích rõ ràng ngắn gọn dễ hiểu khiến ta không bị nhàm chán mà còn có hứng thú. Nói chung đây là một cuốn từ điển hay :)))) mọi người nên mua
5
571417
2016-11-05 14:56:45
--------------------------
488178
34
Quyển này là từ điển anh-anh nên phù hợp với bạn nào đã có vốn từ tương đối nhiều ( mình nghĩ ít nhất là intermediate). Đọc giới thiệu mình hy vọng sách trình bày hâp dẫn, có minh họa để hỗ trợ học từ nhưng khi nhận hàng thì khá buồn. Sách nhỏ (vừa bỏ túi luôn), chữ nhỏ, trình bày chi chít nên coi khá mệt. Cân nhắc trước khi mua
2
507322
2016-10-31 13:29:43
--------------------------
488016
34
Từ điển nhỏ gọn, dễ mang theo khi đi học. Từ vựng được sắp xếp hợp lý và dễ tìm kiếm. Cách giải nghĩa ngắn gọn và súc tích. Có nhiều ví dụ và family word phong phú.
Khuyến khích các bạn nên mua cuốn này. Tuy không đầy đủ bằng bản 600k nhưng nếu cần dùng để mở rộng vốn từ và tra cứu thông thường thì cũng ok lắm :D
5
649421
2016-10-29 17:05:20
--------------------------
485720
34
Về nội dung thì khỏi phải nói cũng biết sách của Oxford thì chuẩn rồi. Quyển này trình bày khá đầy đủ, dễ nhìn và dễ tra từ, rất hay và bổ ích. Tuy không có đầy đủ các từ và ví dụ như quyển từ điển Oxford Advanced Learner's Dictionary- 9th Edition bản lớn nhưng mình vẫn quyết định mua quyển nhỏ này vì nó nhỏ gọn nên tiện đem theo mọi lúc mọi nơi. Quyển kia để ở nhà tra vì không thể vác theo một cuốn to đùng như vậy nên mới cần quyển thu nhỏ này. Từ điển đã giúp tôi nâng cao trình độ tiếng Anh và sử dụng từ chính xác hơn và phát âm cũng chuẩn hơn. Nên mua nếu học chuyên sâu về tiếng Anh.
4
718687
2016-10-05 16:41:21
--------------------------
485342
34
Mình là 1 tín đồ tiếng Anh. Vì vậy mình rất thích săn đón sách tiếng Anh và học tiếng Anh. Đây là lần đầu tiên mình mua 1 quyển từ điển. Nói về nội dung thì sách của oxford thì khỏi chê rồi. Nhưng mình cảm thấy hơi thất vọng 1 chút vỉ có vẻ quyển sách k giống mình mong đợi cho lắm. Vì mình nhận sách và cầm trên tay thì nó quá nhỏ trong khi gia nó thì hơi chát. Nhưng nói gì thì nói . Mình cũng đã thấy nội dung nó rất hay. Dù sao rất cảm ơn tiki!!
4
703013
2016-10-01 20:02:40
--------------------------
478644
34
Cuốn từ điển bỏ bỏ túi Oxford Learner's Pocket Dictionary: A Pocket-sized Reference to English Vocabulary là một vật tiện dụng cho những người yêu thích bộ môn tiếng anh. Đặc điểm của cuốn pocket này: nhỏ, gọn, tiện lợi. Giấy mềm dễ lật, màu sách có màu trắng và màu xanh rất dễ phân biệt. Phía sau pocket có động từ bấy quy tắc, các nguyên âm và phụ âm. Cuốn pocket có khoảng 38.000 từ, mình rất ưng ý với "bảo bối nhỏ nhắn này". Nhưng mình hơi thất vọng về dịch vụ giao hàng, khi thấy người giao hàng tới, mình rất vui và chạy ra ngay. Nhưng khi mở hộp ra mình thấy cuốn pocket nó bị nhăn ở những góc, bị méo. Mong tiki chú ý đến lần sau.
4
1175097
2016-08-03 20:52:34
--------------------------
468400
34
Từ điển của Oxford thì ko cần bàn về độ chuẩn xác trong phát âm và giải thích ngữ nghĩa.
Đằng sau những từ quan trọng còn có cả phrasal verb và idioms cực kì hữu ích, 2 cái này rất quan trọng.
Dễ dàng mang theo người và dễ dàng tra cứu, các ký hiệu viết tắt dễ hiểu.
Vì hàng Amazon nên giá hơi cao nhưng  bù được chất lượng giấy và gáy sách thì rất tốt.
Chỉ phù hợp với các nước sử dụng Tiếng Anh như tiếng mẹ đẻ hoặc ngôn ngữ thứ 2, ở Việt Nam thì nếu mới học thì nên mua từ điển Anh Việt còn nếu muốn hơi chuyên sâu trở nên thì nên mua từ điển Anh Anh loại đầy đủ.
5
256405
2016-07-04 23:44:03
--------------------------
435407
34
Tôi muốn mua cuốn từ điển Oxford bỏ túi này từ khá lâu rồi nhưng không chỉ tìm trên các trang mạng bán hàng mà trước đó tôi còn đi đến rất nhiều nhà sách để hỏi mua nhưng tất cả đều hết hàng, chưa nhập về kịp. Ngay khi vừa thấy trang tiki.vn vừa có hàng cuốn từ điển nhỏ này là ngay lập tức tôi mua ngay về. Cuốn từ điển nhỏ gọn này không chỉ vô cùng tiện lợi khi mang đi học, đi làm mà còn giúp tôi học và ôn luyện tiếng Anh tốt hơn rất nhiều. Tuy bìa sách hơi mỏng, hơi dễ gãy nhưng còn lại vẫn vô cùng tốt.
4
626581
2016-05-25 01:55:24
--------------------------
427022
34
Từ điển nhỏ gọn, mang theo để đi học rất thuận tiện, tra từ cũng khá nhanh chóng. Giấy cứng và láng mịn, nhưng chữ hơi nhỏ, nhìn khá đau mắt. Có cả các thành ngữ, cách dùng, ví dụ đều được diễn dãi khá đầy đủ, ngắn gọn, súc tích và dễ hiểu. Nhưng mình nghĩ đối với các bạn thi đại học khối D hay những bạn học chuyên về ngôn ngữ anh chẳng hạn, thì quyển này có số lượng từ khá ít, nên có lẽ sẽ không đáp ứng đủ nhu cầu học tập của các bạn.
5
666101
2016-05-08 09:21:07
--------------------------
418300
34
Sách khổ nhỏ gọn, cầm theo rất tiện, giấy in tốt. Hồi mình học năm nhất đại học, thầy cô yêu cầu bọn mình mua cuốn này về dùng, vì là từ điển Anh - Anh nên đối với học sinh cấp 2, cấp 3 có thể sẽ hơi khó một chút, nhưng với sinh viên ngoại ngữ thì lại rất hợp. Các từ trong từ điển là những từ thông dụng, mình ưng nhất là phần phiên âm cực kỳ chuẩn. Các từ cùng "họ" (ví dụ: child, childhood, childlike, childish,... sẽ được in cùng 1 chỗ, in bằng màu xanh rất nổi, dễ nhìn). Cuối từ điển có bảng động từ bất quy tắc và tên + phiên âm các quốc gia trên thế giới nữa, cực kỳ hữu ích nhé.
5
393748
2016-04-18 23:22:43
--------------------------
379740
34
Thật lòng mà nói, mình có 5 cuốn từ điển đều là của Oxford. Mình thích cách giải nghĩa dễ hiểu bằng tiếng anh, vừa đầy đủ phiên âm, từ loại và các phrasal verb đi kèm mà lại được sắp xếp rất logic, dễ tìm. Riêng cuốn pocket này thì rất nhỏ ( có lẽ là nhỏ nhất trong các cuốn pocket) nhưng vẫn  đầy đủ và giải thích rõ ràng. Sách có chất lượng giấy tốt nhưng điểm trừ là bìa hơi mỏng nên dùng lâu dễ rách ( có lẽ để giảm tối đa trọng lượng sách. Nói chung là mình khá hài lòng.
4
536892
2016-02-12 13:42:07
--------------------------
372109
34
Mình cũng bắt đầu học lại tiếng Anh từ từ nên cũng muốn mua một cuốn từ điển Oxford về dùng. Cuốn từ điển này nhỏ gọn, chất giấy tốt, dày và đẹp. Từ vựng được phiên âm, dịch nghĩa, ví dụ rất rõ ràng. Vì biết trình độ mình ở đâu nên cũng không cần thiết lắm cuốn Advanced, khi nào cảm thấy khá hơn thì mình sẽ sắm thêm. Cuốn này có ưu điểm là tiện lợi khi mang đi, mang về chứ bình thường mình ở nhà học thì cũng đã có từ điển Oxford online. Mình cảm thấy nên thủ sẵn một cuốn này mang đi học.
5
386431
2016-01-21 04:33:30
--------------------------
370173
34
Những bạn nào đang có ý định học để đi du học hoặc muốn giao tiếp, làm quen với môi trường tiếng anh nhiều hơn thì quyển từ điển này quá là phù hợp. Tránh tình trạng các bạn đang đọc một bài tiếng anh mà lại dịch nghĩa theo tiếng việt, khi tra từ điển anh anh sẽ không làm các bạn bị ngắt quãng bới tiếng việt xen vào. Học dần với từ điển anh anh sẽ làm các bạn bớt bỡ ngỡ, dần trở nên hiểu tốt hơn các từ tiếng anh với chính nghĩa anh của nó. Nói chung nó phù hợp cho tất cả các bạn đang muốn học tập trong môi trường Anh văn thật sự
4
461080
2016-01-17 11:05:48
--------------------------
364671
34
Vì mình muốn cải thiện thêm nhiều kĩ năng nên mẹ đã mua cho mình cuốn Oxford Learner's Pocket Dictionary. Mình thật sự rất rất thích cuốn này. Trước tiên chính là kích thước của nó: nhỏ gọn, tiện lợi để có thể mang đi mọi lúc mọi nơi. Vì mình thường ôn các đề chuyên nên hay gặp phrasal verb và idiom nên cuốn này lại càng trở nên hữu dụng với mình: mỗi từ hay cấu trúc đều được giải thích hết sức ngắn gọn, súc tích còn có cả ví dụ nữa. Mỗi từ còn có phiên âm, từ đồng nghĩa,trái nghĩa cùng các giới từ đi kèm...Mình vui vì được sở hữu cuốn sách tuyệt vời này. 
5
1096195
2016-01-06 17:31:53
--------------------------
363341
34
Rất tiện dụng, Dễ tra từ vựng, thiết kế nhỏ gọn vừa tầm cầm tay hoặc bỏ túi vì là pocket mà , Bìa cứng và rất đẹp ,hai bên mép khuyết giấy tạo thành hình cong nên không dễ dàng bị nhăn hay bị gấp khúc,rất tiện lợi đi đâu cũng có thể đem theo bên mình,từ vựng phong phú, trình bày cũng rất đẹp mắt, có thể học được ở bất cứ đâu, chung quy là rất hài lòng về sản phẩm! Mong tiki sẽ có thêm nhiều cải cách tốt hơn nữa về sản phẩm Dict Này!
5
453460
2016-01-04 01:52:25
--------------------------
363155
34
Đã chán cảnh mỗi lần đi học tiếng Anh là phải vác theo cuốn từ điển vừa dày, vừa nặng nên khi thấy sản phẩm này tôi đã mua ngay. Đây là một loại từ điển bỏ túi không thể tiện dụng hơn được nữa, nhỏ, gọn, nhưng lại chứa rất nhiều từ vựng, chữ khá nhỏ nên nhiều lúc tra cũng hơi mỏi mắt nhưng với vốn từ tương đối nhiều cũng đã hỗ trợ cho tôi rất tốt.

Thật sự mà nói, có nhiều nhận xét cho rằng cuốn từ điển không phù hợp với những ai học cao. Tuy nhiên dù trình độ như thế nào đi nữa, dù là phổ thông hay đại học thì với tôi cuốn này vẫn rất hữu ích, nhiều người có thể đánh giá nó vắn tắt, cũ kĩ, thiếu ví dụ nhưng liệu tất cả những ghi chú cần thiết trong đó đã thông thạo hết hay chưa, với tôi thì tôi vẫn cần phải học hỏi nhiều lắm nên cám ơn rất nhiều sản phẩm của Oxford University.
5
41370
2016-01-03 17:20:55
--------------------------
350660
34
Khi tôi nhận được cuốn oxford pocket này tôi rất thích vì nó rất tiện lợi có thể mang đi bất kì nơi đâu. Pocket chứa gần như đầy đủ tất cả các từ và các ví dụ rất là hữu ích. Trang bìa được thiết kế với tông màu xanh nhìn vào rất dễ chịu và sang trọng, được đánh dấu với các chữ cái rất dễ dàng trong việc tra từ. Với mức giá như thế thì pocket  đã không làm thất vọng người mua. Đối với những ai đang học tiếng anh thì đây quả thực là một quyển từ điển cần thiết. 
5
130734
2015-12-10 23:22:45
--------------------------
343153
34
Mình vừa mua cuốn từ điển và dùng ngay vì có tiếng anh. Cái đầu tiên đập vào mắt là vô cùng nhỏ gọn, không tốn diện tích lắm, cái thứ hai là trình bày sách vô cùng đẹp của đại học Oxford. Vô cùng tiện dụng cho những ai học tiếng anh và đi chuyên tiếng anh. Mình khuyên nên dùng từ điển Anh -Anh này để học tiến anh chứ dùng từ điển Anh-Việt sẽ không gây ấn tượng gì với từ vừa tra. Bây giờ anh văn rất quan trọng, nếu không trau dồi vốn từ anh văn từ từ thì sẽ rất khó khăn cho việc học và việc làm sau này. Xin cảm ơn Tiki
5
936244
2015-11-25 21:17:11
--------------------------
338165
34
Không cần nói tới chất lượng vì nó đã tự khẳng định mình, top 10 english book bán chạy nhất năm 2011, mình nghĩ rằng vốn từ của nó rất thích hợp với những học sinh THPT, với cả kích thước khá nhỏ, nhưng vẫn khá là đầy đủ từ mà mình muốn tra, nên hoàn toàn có thể cầm đi làm, đi học, mình là học sinh cấp 3 trường chuyên, nên dù không nằm trong hệ chuyên, vẫn phải có lượng từ vựng thích hợp, Oxford Learner's Pocket đã đáp ứng được điều đó, mình vô cùng hài lòng :)))) 
5
950128
2015-11-15 15:07:55
--------------------------
331611
34
Từ điển này khá hay, mình thấy tạm hài lòng khi cần dùng mà không có điện thoại hay laptop bên cạnh. Khi buồn buồn chơi không, bạn cũng có thể lấy ra đọc để học thêm từ mới một cách ngẫu nhiên (nhưng nhớ đừng học vẹt nhé). Có khi bạn lại bắt gặp một vài từ bạn thấy rất thú vị trong một hoàn cảnh nào đó. Đọc cuốn từ điển nhỏ gọn này là một cách học từ trong lúc giết thời gian rất hiệu quả. Bạn nên có một cuốn đem theo bên người nhé. Rất tiện lợi và dễ dùng đó.
3
574805
2015-11-04 21:05:09
--------------------------
322746
34
tôi rất thích đọc sách tiếng anh. Sách tiếng anh trên tiki rất đa dạng về mẫu mã và được cập nhật rất thường xuyên và bám sát với thị trường. Hơn nữa giá cả sách tiếng anh trên tiki có rất nhiều ưu đãi và giá cả vô cùng hợp lí . Tôi rất hài lòng về cuốn từ điển Oxford tôi mua trên tiki. Chất lượng sách tiếng anh rất tốt. Thêm vào đó dịch vụ mua hàng trên tiki cũng có rất nhiều ưu đãi giảm giá cho khách hàng. Việc vận chuyển sách tới tay khách hàng thì vô cùng nhanh chóng. tôi tin rằng với dịch vụ bán sách online trên tiki tôi sẽ và luôn được tin dùng.
5
881803
2015-10-16 22:00:58
--------------------------
322259
34
Trước khi đặt mua quyển sách này mình rất băn khoăn, liệu nó có đầy đủ, chính xác, xứng đáng để mua hay không. Nhưng sau đó mình đã quyết định mua, và quả thật nó đã không làm mình thất vọng. Tuy bề ngoài nhỏ bé, nhưng nội dung thì phong phú, từ vựng đầy đủ, và được in ấn rất đẹp mắt, nhìn là thích ngay. Đối với những ai đang học tiếng anh thì đây quả thực là một quyển từ điển cần thiết. Cảm ơn Tiki rất nhiều, mình sẽ ủng hộ Tiki nhiều để Tiki sẽ đưa nhiều quyển sách hay đến với bạn đọc cả nước
5
863972
2015-10-15 21:35:33
--------------------------
311811
34
Có thể nói đây là cuốn bổ ích nhất từ trước tới giờ của mình. Mình đã muốn mua cuốn từ điển này từ rất lâu rồi nhưng lại thấy nó hơi đắt và rất thường xuyên hết hàng. Do vậy khi thấy TIKI có cuốn từ điển này mà còn discount nữa, mình đã đặt mua ngay lập tức luôn. Cuốn từ điển này rất nhỏ nhắn nên rất dễ bỏ vô cặp đi học. Tuy nhỏ nhắn nhưng nó lại cực kì chi tiết và đầy đủ luôn, mỗi từ còn có ví dụ cụ thể để người đọc có thể hiểu rõ nên dùng từ đó trong trường hợp nào. Ngoài ra sách còn có cả Idioms, phần phụ lục còn có bảng động từ bất quy tắc và một số tên nước nữa nên rất là thuận tiện cho việc tra cứu của mình. Mình rất yêu cuốn từ điển này đó.
5
24712
2015-09-20 10:26:19
--------------------------
304968
34
Cuốn Oxford Learner's Pocket Dictionary này thực sự rất hữu ích, được rất nhiều bạn sử dụng vì nó khá nhỏ gọn thích hợp đem theo bên mình khi đi học và khi những cuốn từ điển lớn khó mang, phần phụ lục rất dễ tra cứu do thiết kế có bảng chữ cái phía dưới, tuy nhỏ nhưng từ vựng khá đầy đủ,có ví dụ cách sử dụng từ và cách diễn đạt hoàn toàn bằng tiếng anh giúp người học nâng cao khả năng tiếng anh hơn,cuốn này phù hợp cho người học từ trình độ khá trở lên
5
770043
2015-09-16 19:20:42
--------------------------
304320
34
Một cuốn từ điển là cái cần thiết và không thể thiếu cho việc học tiếng anh cũng như các ngôn ngữ khác. như cái tên (pocket), cuốn từ điển nhỏ gọn, xinh xắn dễ dàng đút túi mang đi mọi lúc mọi nơi phục vụ  cho nhu cầu học tập. chất lượng giấy tốt với lại là cuốn từ điển oxford nên mình mua liền. đây là từ điển A A nên khi tra khiến mình phải động não, dịch nghĩa nhiều nên có thể nhớ dai và cũng học thêm được nhiều từ mới khi tra 1 từ :))) hơn nữa, từ điển có phần phụ lục khá hay ho trình bày các dạng phân từ của động từ bất quy tắc, các tên thường dùng.
 tóm lại, cuốn từ điển nhỏ xinh, tiện lợi, giá cả trên tiki phù hợp miễn bàn ;))))
5
600542
2015-09-16 12:35:45
--------------------------
302117
34
Theo tôi nghĩ , từ điển này đã đưa ra và hoàn thành rất tốt trong việc làm một cái từ điển tiếng Anh to đùng trở nên thành một cuốn từ điển mini.Hơn nữa , ứng dụng từ điển trong điện thoại có chất lượng cao khiến ta phải tốn tiền để mua nhưng tôi nghĩ ta chỉ cần bỏ ra mấy trăm ngàn để mua cuốn từ điển mini này thì có thể đã là quá hài lòng rồi. Nó cung cấp cho tôi đầy đủ từ cần thiết và dễ dàng lấy ra lấy vào, cuốn sách nhỏ này giúp ta có thể dễ dàng đem theo và sử dụng . Nó thật sự rất hữu dụng.
5
781966
2015-09-14 23:48:49
--------------------------
301554
34
Quyển sách cần thiết cho việc học tiếng anh. Trong khi mà từ điển điện tử dần trở nên phổ biến thì từ điển giấy trở nên quá thừa thải, nhưng thật sự thì nó có những lợi ích riêng. Với mình khi dò từ điển điện tử, rất dễ quên, chỉ nhớ trong lúc đang tra thôi, còn khi dò oxford, mình sẽ hiểu theo cách diễn giải bằng tiếng anh chứ không đưa ra một từ tiếng việt cụ thể, như thế khiến mình dễ nhớ hơn, hơn nữa, sách còn liệt kê nhiều nghĩa của từ. Với những bạn không có điều kiện để tra từ điển điện tử thì đây là giải pháp tốt cho các bạn có thể tra từ, học từ, Rất xứng đáng để mua. 
5
618273
2015-09-14 18:38:50
--------------------------
294321
34
trước học tiếng Anh thì hay dùng từ điển A-V nhưng sau được tặng một cuốn oxford learner pocket dic thì rất thích phải sắm ngay cuốn nữa tặng cho con bạn. thực sự là rất hữu ích và cần thiết cho các bạn muốn học tiếng Anh chuẩn và cải thiện khâu đọc hiểu cũng như nâng cao cách sử dụng từ trong writing lên nhiều. về hình thức mình cũng khá ưng, giấy in đẹp, màu chữ sắc nét, rõ ràng, quan trọng nhất là từ điển chính thống nên phiên âm rất chuẩn, chắc sẽ còn đặt mua cuốn này dài dài để tặng cho e, cho cháu nữa!:)

5
39859
2015-09-09 10:34:48
--------------------------
291981
34
Cuốn từ điển Oxford Learner's Pocket Dictionary mình mới mua được 1 tháng nhưng mình dùng rất thích, tra từ lại dễ dàng nữa mặc dù là Anh- Anh nên có vài chỗ không hiểu rõ nghĩa lắm. Lúc đầu thì mình cũng hơi đắn đo khi mua vì mình sợ mua về không dùng được do vốn từ của mình hơi ít. Nhưng ngược lại, mua về xong mình còn cảm thấy rất dễ học và nâng cao được trình độ ngữ pháp của bản thân hơn. Cầm cuốn sách nhỏ nhắn trên tay mình cảm thấy rất gọn nhẹ và tiện. Dù không phải dân chuyên Anh nhưng mà mình thấy rất ok với từ điển của Oxford và chắc sẽ còn gắn bó với em nó dài dài đây để sau còn tậu thêm mấy em Oxford khác về nhà nữa chứ!!!
4
94421
2015-09-06 22:04:28
--------------------------
290742
34
Đầu tiên mình cho quyển này điểm cộng vì thiết kế nhỏ gọn để dễ dàng mang theo mọi lúc mọi nơi. Vì khi đi học đâu phải mình chỉ mang theo sách vở của một môn, cho nên với thiết kế nhỏ gọn như vậy mình chỉ cần cho vào túi là xong rồi, rất tiết kiệm sức lại vô cùng nhẹ nhàng. Cách sắp xếp từ vựng của Oxford thì vô cùng logic rồi. Ngoài ra ở cuối trang lúc nào cũng kèm theo một hàng chữ cái từ A đến Z để chúng ta thuận lợi hơn trong việc tra từ. Từ ngữ được giải thích bằng tiếng anh một cách sát nghĩa nhất, lại còn kèm theo ví dụ và đặc biệt là còn có Idoms nữa. Nói chung mình rắt vừa ý.
5
408083
2015-09-05 18:50:49
--------------------------
288633
34
mình đã mua cuốn sách này vì tin tưởng vào độ chính xác của từ điển oxford từ trước tới nay, quả nhiên không làm mình thất vọng! sách bản pocket nên nhỏ gọn, tiện dụng nội dung thì không còn gì để nói, chất liệu giấy cực tốt, mềm mịn, cả chữ viết cũng rất rõ ràng, dễ nhìn được biên soạn tỉ mỉ từng câu từng chữ, có ví dụ minh họa và những indiom rất hay và độc đáo, đây là cuốn sách cần có cho tất cả những người học tiếng anh. Bản thân mình rất hài lòng với quyển sách này, mong rằng oxford sẽ cho ra ngày càng nhiều những sản phẩm hay và chất lượng như thế nữa 
5
368540
2015-09-03 18:59:24
--------------------------
282794
34
Điều đầu tiên phải nói đến chính là kích thước của cuốn từ điển : rất nhỏ gọn và tiện dụng cuốn từ điển được cắt bìa rất đẹp, ở các góc không nhọn nên không sợ bị đâm trúng tay . Bìa sách có độ cứng vừa đủ , giấy sách ( cuốn từ điển ) không dày lắm nhưng cũng vừa đủ xài . Hồi đó mình cũng có một cuốn nhưng đã bị  mất do sách nhỏ nên không để ý kĩ , tiếc quá trời nhưng giờ cũng đã có lại . Về phần nội dung thì do kích thước nhỏ nên số lượng từ bị giới hạn nhưng cũng đã bao quát được rất  nhiều từ rồi . Nói chung là mình cũng rất hài lòng với cuốn từ điển này .
1
295212
2015-08-29 13:48:55
--------------------------
277316
34
Cuốn từ điển nhỏ gọn , bìa cừng cáp cầm chắc tay và chất liệu giấy chất lượng cao. Cỡ chữ nhỏ nhưng in sắc nét nhìn vẫn rõ ràng. tuy nhỏ chỉ 38000 từ nhưng nhà xuất bản oxford đã chắt lọc ra những từ quan trọng , chỉ trừ những từ chuyên ngành ,1 điểm cộng trong cuốn từ điển mini này là  3000 từ khóa tiếng anh quan trọng dùng trong giao tiếp hằng ngày với cách bố trí khoa học nên trong lúc bạn tra từ điển bạn có thể  học thêm những từ khóa đó . 
5
65620
2015-08-24 21:13:26
--------------------------
270352
34
Mình đã mua cuốn từ điển Oxford cỡ to, nhưng vì to quá nên mang đi đâu cũng hơi bất tiện, thế là quyết định hốt thêm em này. Quả thật tuy nhỏ nhưng có võ, chất lượng giấy tốt, chữ nhỏ nhưng rất rõ ràng, rất dễ nhìn, sách cũng không nặng lắm nên mang đi sẽ không vị vướng bận gì. Nội dung của Oxford thì khỏi chê rồi, nên mình chỉ nhận xét về hình thức sách. Mình nghĩ với những bạn học tiếng anh nên có cuốn từ điển bổ ích này, sẽ hổ trợ cho các bạn nhiều lắm đấy. Nếu có điều kiện các bạn nên mua lẫn cỡ to và cỡ mini này vì rất hữu dụng.
5
343310
2015-08-18 10:16:26
--------------------------
269715
34
Tôi mua quyến này cùng với quyển Oxford Advanced Learner's Dictionary.Nhìn chung quyển từ điển này phù hợp cho những ai  thườngng xuyên không ở nhà và muốn học từ vựng mọi lúc mọi nơi.Chất lượng sách khá tốt.Sách rất gọn,cầm đọc rất chắc tay, chất lương giấy tốt và dày hơn cuốn Advanced Learner's Dictionary, tuy nhỏ nhưng lại khá đầy đủ những từ cần thiết.
4
666021
2015-08-17 18:31:03
--------------------------
267185
34
Một quyển từ điển bỏ túi tiện dụng. Cách trình bày, từ màu chữ, phông chữ đều bắt mắt, dễ nhìn. Những ví dụ mẫu dễ hiểu, dễ nắm bắt được nghĩa của từ. Xuất xứ từ nhà xuất bản giáo dục uy tín. Giá tiền phù hợp với tất cả mọi người. Dù giờ có thể cài đặt các app từ điển ở mọi phương tiện thông tin, nhưng với học sinh, đây vẫn là một cuốn từ điển hữu ích!
5
43193
2015-08-15 11:55:35
--------------------------
260732
34
Sách nhỏ, gọn, thích hợp cho các bạn học sinh như mình mang theo bên mình. Mình được cô giới thiệu cho cuốn này, lên tiki tìm thấy là đặt mua ngay vì rẻ hơn so với ngoài nhà sách. Tuy sách nhỏ nhưng chữ lại in không quá bé, giấy trắng, trình bày rõ ràng, đơn giản dễ hiểu. Mình nghĩ bạn nào học tiếng anh cũng nên mua vì thật ra dù là từ điển anh - anh nhưng cách giải thích của Oxford lại rất đơn giản. Nói chung mình rất hài lòng về phiên bản từ điển bỏ túi này :)
4
118693
2015-08-10 17:03:34
--------------------------
260469
34
Là sinh viên ngoại ngữ nên mình cũng quyết định mua một cuốn để dùng trong học tập, vì nó nhỏ gọn nên mang theo rất tiện lợi. Dù nhỏ, nhưng cuốn từ điển này lại được trình bày rất đầy đủ và bổ ích. Những từ mình không hiểu được giải thích rất rõ ràng nên mình thấy hài lòng với sự lựa chọn của mình. Tuy nhiên mình nghĩ nhược điểm của nó là nó hơi đắt so với bề ngoài của nó. Mình nghĩ với bề ngoài đó, thì đáng lẽ nó phải rẻ hơn mới đúng. Và đó là lý do mình cho nó 4 sao thay vì 5 sao.
4
342923
2015-08-10 14:12:30
--------------------------
259250
34
Mình rất hài lòng khi sở hữu quyển này. Những từ dùng để định nghĩa rất đơn giản, đọc là hiểu ngay. Ngoài ra trong phần định nghĩa từ còn có những giới từ đi kèm, cụm động từ thông dụng, các ví dụ. Tất cả đều rất rõ ràng, khoa học. Có cả bảng chữ cái ở dưới để tiện cho việc tìm kiếm, không cần phải lẩm nhẩm bài hát a b c để xem chữ cái đầu mình cần tìm ở trang trước hay trang sau nữa. Kích thước thì rất vừa tay, gáy cứng chắc, chất lượng in và giấy cũng rất tốt.
5
478161
2015-08-09 11:11:45
--------------------------
259028
34
Cuốn từ điển này cô giáo mình nói là cực kì cần thiết đối với mỗi người học tiếng anh , ai cũng phải có. Mặc dù là sách nhập giá hơi chát nhưng trên Tiki đã mềm hơn ở ngoài rất nhiều nên mình đã đầu tư một cuốn. Cuốn sách này nhỏ gọn , bìa cừng cáp cầm chắc tay và chất liệu giấy chất lượng cao. Tuy cỡ chữ nhỏ nhưng in sắc nét nhìn vẫn rõ ràng. Về chất lượng cuốn sách thì không cần phải bàn, đó chính là chuẩn mực để những người học tiếng Anh như mình ngày ngày tiếp thu tra cứu. Nói chung cuốn sách sẽ là một người đồng hành quan trọng cực thân thiết với bạn trong quá trình học tiếng Anh. Cám ơn Tiki!
4
52762
2015-08-09 01:01:13
--------------------------
252942
34
Chọn từ điển Anh - Anh giúp bạn tra được gia đình từ, phrasel verb và các ví dụ xác thực, ngữ nghĩa được giải thích bài bản. Cuốn Oxford này mình có thể mang đi mọi nơi, nội dung tương đối đủ dùng, giúp ích cho mình rất nhiều. Mình nghĩ mỗi bạn học T.Anh cần phải học cách tra và sắm bên mình :) Chất giấy tốt, chữ nhỏ nhưng rõ ràng, giúp tra từ dễ dàng hơn, nếu học Anh văn advanced, chắc chắn bạn sẽ không kìm được mà muốn nóng lòng sở hữu. Chúc các bạn vui :)
5
247818
2015-08-04 00:52:21
--------------------------
251541
34
Khi mình tham khảo tài liệu trên mạng, các bạn hay nói nên dùng từ điển Anh - Anh để tra. Mình thấy đối với mình, bản thân phải có một vốn từ nhất định mới nên dùng từ điển Anh - Anh (đối với mình là từ điển Oxford hoặc Cambridge). Nếu không, sẽ bị ngợp bởi quá nhiều nhiều từ mình không biết. 

Đây là một người bạn nữa đã đồng hành với mình trong quá trình mình học tiếng Anh. Đối với mình, tra đi tra lại một từ sẽ dễ nhớ hơn và kích cỡ từ điển này giúp mình không nản khi làm việc đó. 

Điều mình không thích ở từ điển này là không có phần phiên âm. Mình cũng hiểu lý do của điều đó. Nhưng vẫn thấy tiếc.
4
32038
2015-08-02 22:12:51
--------------------------
251496
34
Vì là dạng bỏ túi nên cuốn từ điển khá nhỏ gọn, rất tiện dụng khi mang theo bên mình. Mình thấy cuốn từ điển này tuy nhỏ nhưng vẫn rất đầy đủ những từ thông dụng cần thiết, phần giải thích cũng rất sát nghĩa và dễ hiểu. Mình rất thích các cuốn từ điển Oxford một phần vì nó được trình bày rất rõ ràng, sạch sẽ, giấy trắng lán mịn sờ rất thích, còn chất lượng thì không còn gì để bàn cãi, mua trên Tiki còn được giảm giá nữa. Nói chung mình rất ưng ý em từ điển mini này.
5
359192
2015-08-02 21:18:09
--------------------------
249118
34
Từ điển oxford luôn là lựa chọn hàng đầu cho người học tiếng anh. Có một quyển sách khá nhỏ gọn bỏ túi có thể sử dụng bất kì lúc nào quả thật rất tiện lợi. Quyển sách chỉ nhỏ gọn bằng bàn tay, có thể bỏ túi sách mà ko mất nhiều diện tích. Chất lượng quyển sách cũng khá tốt. Từ điển oxford luôn là một chuẩn mực cho người học tiếng anh. Giá cả của quyển sách khá hợp lí, mình đi dạo các nhà sách thì đều bán đúng giá, nhưng khi mua ở tiki thì được giảm khá nhiều. 
5
300269
2015-07-31 14:06:06
--------------------------
244796
34
Theo mình đây là quyển từ điển rất cần thiết cho người học tiếng Anh. Thứ nhất, kích thước nhỏ gọn chỉ bằng bàn tay, trình bày dễ hiểu và thuận tiện cho việc tra từ. Dễ mang theo bên mình, không giống như bản Oxford Acvanced Learner quá dày và nặng. Quyển từ điển này có hầu hết những từ thông dụng, rất thích hợp cho người học anh văn cả chuyên lẫn không chuyên. Cách giải nghĩa của từ thì từ điển Oxford là chuẩn nhất. Theo đánh giá của mình thì đây là quyển từ điển rất đáng để mua.
5
1094
2015-07-28 14:33:56
--------------------------
240388
34
Điều mình thích nhất ở cuốn từ điển này đó là gọn, nhẹ, mang theo được mọi lúc, mọi nơi. Đối khi rảnh mình lấy nó ra tập đọc như một cách tập reading, lối viết rất dễ hiểu, đồng thời chất liệu giấy tốt cũng như kích cỡ chữ lại đủ đọc, không quá nhỏ để khi tìm kiếm bị nhức mắt. Số lượng từ tập trung chủ yếu vào những từ thông dụng trong văn phạm, mình luyện đề thấy nó rất hữu ích.
Đây là một cuốn từ điển hữu ích cho các bạn sinh viên, học sinh. 
5
127859
2015-07-24 16:07:17
--------------------------
235271
34
Quyển sách learner's pocket dictionary của Oxford đã bên tôi hơn 4 năm . Nói về quyển sách thì theo tôi là một quyển tự điển tiện dụng vì tính chất nhỏ gọn dễ mang theo, sách chứa số lượng từ vựng khá đầy đủ dù chỉ gói gọn trong hơn 500 trang giấy. sách chứa rất nhiều từ vựng tiếng anh thông dụng và phổ biến mà chúng ta cần tra cứu. Từ vựng được dịch theo nghĩa tiếng anh rõ ràng dễ hiểu về mặt ngữ nghĩa, từ loại và có ví dụ cụ thể để người học nắm được cách dùng từ vựng trong ngữ cảnh hợp lý. Những trang cuối của sách liệt kê những common irregular verbs và phonetic spelling. 
4
635964
2015-07-20 23:12:18
--------------------------
234590
34
Rất nhỏ gọn, tiện lợi cho các bạn sinh viên tra cứu từ vựng tiếng anh.
Sách có đầy đủ các từ vựng mà người dùng muốn tìm kiếm, giải thích rất đơn giản, dễ hiểu, có cả ví dụ grammar để các bạn nhớ từ hơn nữa.
Ban đầu thì hơi khó sử dụng vì giải thích nghĩa bằng tiếng anh, nhưng sau rồi cũng quen. Cuốn Oxford 8th có thể dùng để tra cứu tại nhà thôi chứ không tiện lợi bằng cuốn mini-Ox này được, nhỏ mà có võ nhé, mang đi mọi lúc mọi nơi phục vụ việc học tiếng anh của đa số các bạn học sinh, sinh viên. Một cuốn từ điển rất hữu ích 
5
13183
2015-07-20 14:27:56
--------------------------
232090
34
Từ điển Oxford luôn được đánh giá cao và cuốn từ điển bỏ túi này cũng không phải là một ngoại lệ. Khi mới nhận, cảm nhận đầu tiên là chất lượng in tốt, giấy dày. Việc giải thích nghĩa của từ được làm rất chi tiết và có phần phát âm quốc tế đầy đủ. Cuốn từ điển này có rất nhiều từ nhưng lại có kích thước nhỏ gọn, hợp với việc di chuyển. Khác với Oxford bản to cồng kềnh dành cho những người chuyê sâu thì mình nghĩ rằng sự tiện dụng của nó sẽ rất tiện lợi cho các bạn trong việc học Tiếng Anh, đặc biệt là học sinh, sinh viên.
5
485324
2015-07-18 16:17:54
--------------------------
226391
34
Là một học sinh chuyên Anh, lại đi dạy thêm, tôi dùng từ điển mỗi ngày. Trước đây tôi đã mua từ điển Oxford đầy đủ nhưng không thể chịu nỗi sức nặng của nó khi hằng ngày phải di chuyển nhiều, tôi đã đầu tư em này. Quyển từ điển này nhẹ đủ để mang đi mọi nơi và học mọi nơi. Đôi khi ngồi trên bus tôi cũng lôi em này ra để học từ vừng. Nó vừa gọn để không choáng hết bàn học, hay có thể bỏ trong túi xách nhỏ. Tôi hay học chuyên sâu vào ban đêm ở nhà nên những kiến thức chuyên sâu quyển này không có thì tôi đánh dấu tối về mở quyển lớn lên tra. Có em này, việc học tập của tôi nhẹ nhàng và đáng yêu hơn nhiều.
5
67473
2015-07-12 02:08:40
--------------------------
216392
34
Từ điển Oxford luôn là mơ ước có được một cuốn trong tầm tay và bây giờ tôi đã có được em. Cuốn từ điển này nhỏ gọn nhẹ, dễ mang đi bất cứ nơi đâu lại không chiếm quá nhiều diện tích. Các từ trong từ điển được diễn giải rất dễ hiểu, dùng những từ đơn giản nhất có thể để người đọc có thể hiểu trọn vẹn ý nghĩa của từ. Dù bạn là người bắt đầu thì cũng đừng sợ hãi, dùng dần sẽ quen và vốn từ vựng của bạn của được nâng cao. Một cuốn sách hữu dụng cho việc học tiếng Anh
5
646680
2015-06-27 17:42:34
--------------------------
215075
34
Rất hữu dụng cho quyển sách có rất nhiều từ được giải thích chi tiết rõ ràng , rất đáng để đọc . Không những thế còn nhỏ gọn , tiện lợi có thể mang đi bất cứ đâu mình muốn và ngữ nghĩa giải thích rất dễ hiểu . Đây là một quyển sách cho những bạn nào đang muốn nâng trình độ tiếng anh của mình và mở rộng vốn từ , các câu ví dụ cũng đạ bao gồm grammar nên có thể học hỏi từ đó
4
676971
2015-06-25 20:40:08
--------------------------
213541
34
Từ trước đến giờ vẫn thích dùng từ điển oxford! Cảm thấy dùng thích cực kì ý. :)) chất lượng khỏi phải bàn, từ hình thức đến nội dung. Chưa kể quyển nhỏ nhỏ vừa cầm tay tiện cho vào túi, đi học nếu cần bỏ ra dùng cũng khá tiện. Chỉ có cái nhiều khi tra từ điển Anh- anh có chỗ vẫn chưa hiểu rõ mình lại phải tra ngươcj lại hơi mất thời gian, những chắc phải học thêm nhiều. :)). Dù sao cuốn sách vẫn khá hữu ích, ai học tiếng anh nên có một quyển . :)
5
624376
2015-06-23 21:29:56
--------------------------
213292
34
Mới vào lớp 10 chuyên ngữ mình đã được cô giáo khuyên mua quyển này và một số bạn đã mua rồi nhưng vì ở chỗ mình không bán nên cứ chần chừ mãi. Lên tiki đợi có hàng rồi mình đặt mua luôn. Lúc nhận hàng mình thấy ưng ý vô cùng. Sách nhở gọn, chắc chắn, giấy tốt còn có mùi thơm nữa, mực in nhỏ nhưng đậm nên dễ nhìn và tra cứu. Sách ngoài ghi tóm tắt nghĩa của từ, cách phát âm, nguồn gốc từ còn có ví dụ, thành ngữ, cụm từ,...trang cuối còn có bảng tên các nước nữa. Nhỏ gọn mà quá nhiều thông tin. Bạn nào có ý định học sâu về tiếng anh thì nên đầu tư một quyển, hữu dụng hơn hẳn kim từ điển hay từ điển tiếng việt, thuận tiện khi mang đến lớp. Còn nếu bạn nào có thói quen cày ở nhà thì nên mua cả quyển oxford 8th iwrite có CD ROM nữa, giá rất chát nhưng đáng để mua. Mình được cho bản 7th rồi nên chỉ dám cài 8th vào lap thôi. Giá đắt quá
5
642004
2015-06-23 16:55:39
--------------------------
212398
34
Từ điển oxford từ nội dung cho đến chất liệu rất tốt. Mình đã có 1 quyển lớn nhưng vì kích thước to, trọng lượng lớn nên bất tiện để mang đi học, chỉ thích hợp tra cứu ở nhà. Vậy nên mình mua cuốn pocket này. 
Mặc dù từ vựng không đầy đủ như cuốn lớn nhưng nó tập hợp hầu hết những từ cơ bản, dễ gặp. Vì từ giải thích bằng tiếng Anh nên chỉ khuyên dùng cho những ai đã sở hữu kha khá vốn từ vựng. 
Hơn nữa, với kích thước nhỏ gọn, không chiếm diện tích nhiều nên dễ dàng mang theo bên mình để hỗ trợ việc học anh văn.
5
46582
2015-06-22 12:57:55
--------------------------
210473
34
Đối với những ai yêu thích việc học tiếng anh thì không thể bỏ qua một cuốn từ điển tiện lợi và hữu ích như thế này. Đây là cuốn từ điển mà tôi hài lòng nhất từ trước đến nay bởi chất lượng giấy rất tốt, trắng và mịn, độ dày đúng chuẩn. Mỗi một từ vựng đều được làm nổi bật bằng mực xanh, rất bắt mắt và tạo sự thích thú cho người sử dụng, không gây nhàm chán như những loại từ điển thông thường. Đây là cuốn sách không thể thiếu với những ai yêu thích môn tiếng anh!
4
80823
2015-06-19 15:31:49
--------------------------
209903
34
Trường mình học và thi bằng tiếng Anh cả, mỗi lần thi đều cho phép mang từ điển giấy vào để tra cứu, khổ nỗi mình chỉ có mỗi của Oxford Advanced Learner's 8 nặng khủng khiếp, lật lật lúc thi cũng hết giờ nên sau mấy lần thi bể dĩa thì quyết định mua "con' Pocket này. Cảm giác vô phòng thi mà có từ điển trong tay nó an tâm gì đâu...
Ngoài ra vì nó nhỏ gọn, nên lúc ngồi xe buýt mình cũng có thể lấy ra học được vài từ mới đó. Chất lượng của Oxford thì khỏi bàn rồi.
4
341579
2015-06-18 13:24:26
--------------------------
204549
34
Cuốn từ điển này có thể xem như là người bạn đồng hành cần thiết là bất kì ai học tiếng anh. Với mức độ chính xác cao, dễ hiểu và nhỏ gọn, mình đã sử dụng nó từ năm lớp 6 tới tận bây giờ khi tốt nghiệp đại học và đi làm. Mình đánh giá cao về phrasal verb, mặc dù từ điển nhỏ, cầm tay nhưng lại trình bày hết sức đầy đủ về khoản này. Vì là từ điển Anh – anh, nên có thể dễ tra từ đồng nghĩa.
Từ điển được trình bày đẹp, màu chữ xanh dễ tra, chất lượng giấy tốt.
5
435977
2015-06-04 12:36:47
--------------------------
203517
34
Trước đây mình đã có mua một cuốn từ điển Anh-Anh của Oxford nhưng khá dày nên chỉ có thể sử dụng khi đang ở nhà thôi, khi thấy có người giới thiệu cuốn Pocket này mình đã đặt mua ngay, ấn tượng của mình đối với cuốn từ điển nhỏ gọn này khá là tốt.
Ưu điểm lớn nhất đương nhiên là nhỏ gọn, phù hợp bỏ vào cặp mang đi học, thích hợp trong những trường hợp cần tra cứu nhanh.
Tuy nhiên vì là từ điển thu gọn nên lượng từ không nhiều, chỉ giải thích nghĩa là chính, không có nhiều ví dụ minh họa như từ điển Oxford lớn.
5
532243
2015-06-01 15:12:03
--------------------------
203048
34
Cuốn sách này khá là tiện lợi cho những bạn học tiếng anh mà ngại phải tra cứu trong các cuốn từ điển dày cộp. Cuốn này khá nhỏ, có thể cầm gọn trong lòng bàn tay và dễ dàng để mang đi đây đó, nó cũng rất dễ dàng tra cứu nữa. Từ vựng bên trong sách thì được in bằng mực xanh khá lạ mắt, dễ nhìn, định nghĩa các từ đều bằng tiếng anh. Nhưng với cuốn từ điển nhỏ gọn như thế này thì số lượng từ không cao, hầu như không có nhiều các ví dụ hay thành ngữ hay collocations.
4
131255
2015-05-31 09:22:53
--------------------------
189856
34
Nhìn chữ Pocket là bạn có thể biết cuốn từ điển này thuộc dạng nhỏ gọn rồi đấy hehe. Thương hiệu Oxford thì khỏi phải bàn cãi. Tuy không đầy đủ như cuốn khổ to nhưng lại đạt chuẩn ý 1 cuốn từ điển "đút túi"" cô đọng, thông dụng, chuẩn, phù hợp với nhiều đối tượng học tiếng Anh. Theo như lời khuyên của nhiều anh chị luyện thi Ielts hay Toefl thì 1 cuốn Oxford pocket này đi cùng với 1 cuốn Oxford khổ to là phù hợp cho các trường hợp sử dụng khác nhau của người học. Ví dụ, khi bạn đến trường, bạn không thể vác theo 1 cuốn từ điển nặng như cục gạch được, thay vào đó, gọn nhẹ như Oxford Learner's Pocket Dictionary là hợp lý. Tuy nhiên khi ở nhà, hoặc cần tìm hiểu kĩ để viết luận hay làm báo cáo thì 1 cuốn từ điển đầy đủ lại cho bạn độ tin cậy cao hơn, hiệu quả hơn :D
5
415064
2015-04-28 10:40:30
--------------------------
185326
34
Tuy không có nhiều từ, phrasal verbs hay collocations, CD kèm theo như advanced nhưng mình chính vì ưu điểm kích cỡ nhỏ gọn, tiện dụng mà mình luôn mang nó theo khi đi học dễ dàng mà không sợ bị nặng túi hay chiếm quá nhiều diện tích của túi. Tra từ cũng khá dễ tuy trang giấy hơi nhỏ nhưng giấy rất tốt. Mình đi mưa khiến nó bị ướt mà vẫn không rách hay bong. Tóm lại với mức giá như vậy thì mình rất hài lòng với cuốn từ điển này nhưng nếu ai đã thích thì nên đầu tư mua advanced vẫn hay hơn.
5
16888
2015-04-19 10:58:20
--------------------------
171481
34
Thực sự khi nhận sách mình không ngờ đến là nó lại nhỏ gọn và tiện lợi đến như vậy. Sách được trình bày rõ ràng và sạch đẹp, phần từ được in màu xanh với nghĩa và ví dụ chi tiết cụ thể, word formation và phrasal verbs, idioms đầy đủ. Nhưng cuốn sách có một số điểm hạn chế hơn so với bản Advanced mà mình thích hơn đó là nó hơi nhỏ và khi giở ra tra từ thì hơi khó nhìn. Phần collocations và phân biệt nghĩa giữa các từ thì không được đầy đủ như bản Advanced và tất nhiên số lượng từ không thể bằng. Tuy nhiên đây chỉ là bản Pocket và nó thích hợp để mang đi mọi nơi và tra những từ cần thiết vì chúng ta thường chỉ cần Pocket là đủ rồi. Nhưng không phải vì thế mà không mua Advanced đâu vì quyển Advanced thường là những bạn học Tiếng Anh chuyên sâu hơn nên mua :)
4
501445
2015-03-21 22:48:11
--------------------------
171337
34
Với kích cỡ nhỏ gọn, mình có thể mang từ điển bỏ túi Oxford theo dễ dàng mà không sợ bị nặng túi và cũng không chiếm quá nhiều diện tích của túi. Mình có thể sử dụng ở bất cứ đâu. Việc tìm kiếm, tra từ cũng khá dễ, và mình tra ra được từ rất nhanh. Cuốn từ điển tuy nhỏ nhưng vẫn chứa đựng rất đầy đủ các từ cần thiết. Không những thế, các giải thích, định nghĩa trong từ điển cũng rất rõ ràng dễ hiểu. Từ điển cho nhiều định nghĩa khác nhau của 1 từ thay vì chỉ 1 nghĩa. Ngoài ra mỗi 1 nghĩa còn có thêm ví dụ để mình có thể hiểu rõ hơn, mình có thể phân biệt được từ nào sử dụng trong trường hợp nào. Tóm lại mình rất hài lòng với cuốn từ điển này. Bạn nào muốn xài tiếng Anh 1 cách thực dụng hơn thì nên mua thêm cuốn Idioms.
5
433187
2015-03-21 19:15:27
--------------------------
167467
34
Oxford Learner's Pocket Dictionary là cuốn từ điển nhỏ gọn nhất mà mình từng thấy, để đâu cũng vừa mang lên lớp chả sợ nặng cặp nữa. Chữ in trong từ điển rất rõ ràng phần giải thích cũng dễ hiểu. Bìa cứng cáp , giấy đẹp và mịn nên mình cảm thấy rất hài lòng . Với mức giá vừa phải mà có được một cuốn từ điển chất lượng như thế này là khá ổn.
Có lẽ vì lần đầu sử dụng từ điển Anh-Anh nên việc tra từ mới với mình còn gặp nhiều khó khăn nhưng chắc lâu dần cũng sẽ quen :)
5
455823
2015-03-14 21:08:14
--------------------------
164325
34
Oxford Learner's Pocket Dictionary- Cuốn từ điển bỏ túi của Oxford này có ưu điểm rất nhỏ gọn dễ dàng mang đi, mang lại trong các chuyến du lịch,lớp học thêm tiếng anh,... Mình thấy cuốn từ điển này rất hữu dụng với học sinh sinh viên, nhất là đối với các em thi đại học hay tham dự các kì thi có tiếng anh. Hồi thi đại học nó đã giúp mình trong việc tra cứu khá là nhiều. Chữ in trong từ điển khá dễ tra, từ được in màu xanh nổi lên hẳn so với nghĩa của nó nên tra cứu dễ dàng hơn, dgiấy cũng đẹp và mịn, rờ thích lắm. 
Còn về nhược điểm thì cũng đến từ chính sự nhỏ gọn của nó. Do nhỏ gọn nên cách giải nghĩa của nó cũng tóm tắt hơn từ điển to, ít ví dụ , ít từ hơn,nên đôi khi gặp khó khăn trong việc tra từ.
4
443561
2015-03-07 15:10:52
--------------------------
163351
34
quyển từ điển này là cô giáo mình giới thiệu rồi bảo mua. ai học tiếng anh cũng nên có một quyển từ điển như thế này mang theo bên mình. đi học mà có quyển từ điển này thì hơi bị tiện luôn. tra phiên âm trọng âm xong rồi còn luyện thêm được cả kĩ năng dịch nghĩa nữa. trong sách cũng có nhiều cụm từ phát triển rất hay. một số bạn nói chữ nhỏ chứ mình thấy vậy rất dễ đọc mà. có quyển này mình có thể mang đi mọi nơi, nhìn thấy từ nào có thể tra luôn nghĩa. có lúc không hiểu nhưng quen rồi thì đoán bừa ra lắm lúc cũng đúng. hay lắm
5
571210
2015-03-04 19:51:13
--------------------------
163176
34
Từ điển oxford từ lâu đã nổi tiếng rồi nên chúng ta không cần phải bàn cãi về chất lượng của nó nữa ! Theo mình thấy bất kì ai học anh văn nhiều lúc đều phải cần sử dụng oxford dù bây giờ nhiều ngươi sử dụng kim từ điển vì độ tiện lợi của nó thay vì từ điển giấy nặng nề nhưng với cuốn sách này theo mình thấy rằng đã đáp ứng được yêu tố gọn nhẹ :) Mình có thề đem nó đi bát cứ đâu không chiếm quá nhiều diện tich, cần tra là có ngay ♥ dù đúng là sẽ có những từ bạn phải cần sử dụng từ điển lớn nhưng những từ vừng hằng ngày thì một cuốn từ điển bé bé xinh xinh như vật quả thât rất hữu ích và tiên lợi đúng không nào :) cái hay của từ điển là bản thân mình sau khi tra cũng phải tự dịch ngĩa của từ ấy cách này rất tốt để phát huy khả năng suy luận ♥ một cuốn từ điển tuyệt vời !!
5
103513
2015-03-04 12:22:48
--------------------------
162386
34
Cuốn từ điển nhỏ gọn , rất dễ mang theo , kích thước vừa đủ để cho vào cặp xách hoặc túi quần áo đều được . Chất lượng giấy tốt , chữ rõ ràng , không quá nhỏ , vừa tầm mắt , nên bảo quản nơi khô ráo để giữ sách lâu hư hỏng , giấy không bị vàng , lượng thông tin từ vựng trong sách rất dồi dào nên rất tốt cho những bạn đang theo học ngoại ngữ , khi đi du lịch cũng có thể mang theo từ điển này vì nó cũng chứa những từ thông dụng nhất . Nói tóm lại là tốt , có giá trị nên mua , giá cả vừa phải .
5
547332
2015-03-02 11:09:11
--------------------------
162385
34
Cuốn từ điển chứa rất nhiều thông tin từ vựng , chữ rõ ràng , không quá nhỏ ,dễ đọc , kích thước vừa đủ để có thể cho vào cặp xách hoặc túi quần áo đều được , giấy tốt , khó rách , nên để nơi khô ráo để bảo quản sách nếu không sẽ bị mở chữ , giấy bị vàng đi , giá vừa phải , có thể đi du lịch có thể mang theo cái này khi cần , từ điển cũng chứa những từ thông dụng của nước ngoài nên có thể đem theo . Nói tóm lại là rất tiện ích , nên mua .
5
547332
2015-03-02 11:05:38
--------------------------
155942
34
Quyển từ điển bỏ túi này rất tiện lợi cho tôi mang đi học. Tuy nhỏ, gọn nhưng từ ngữ giải thích khá chi tiết, rõ ràng, đầy đủ, định nghĩa và ví dụ đều ngắn gọn và dễ hiểu. Lại còn in màu nên rất dễ tra cứu, và còn có phiên âm quốc tế kèm theo nữa. Tuy nhiên nếu bạn nào muốn tìm hiểu sâu hơn về cách viết của từ trong văn bản hay từ đồng nghĩa, trái nghĩa,....  thì nên có quyển “Advace dictionary” ở nhà. Khi tra từ mình thường sử dụng song song hai quyển này để bổ sung cho nhau.
4
277587
2015-02-02 17:48:25
--------------------------
153113
34
Quyển Oxford pocket này với kích cỡ nhỏ gọn,bạn có thể mang theo bên mình dễ dàng để tra một từ nào đó khi bạn thắc mắc.Lúc đầu khi học tiếng anh,nhiều người sẽ muốn biết tiếng việt của từ đó là gì,nhưng đó là cách học không tốt.Với quyển từ điển anh-anh này,từ từ bạn sẽ luyện được cách hiểu một từ bằng tiếng anh, qua các ví dụ bằng mẫu câu hội thoại hay định nghĩa.Rất hữu ích!
Có điều vì kích cỡ nhỏ,tiền ít nên bị giới hạn về số từ,nhiều từ mình tra không có trong từ điển nên lại phải lật quyển lớn hoặc tra bằng từ điển điện tử.
4
415349
2015-01-25 07:09:25
--------------------------
152845
34
Bộ từ điển của oxford thì đã quá nổi tiếng và luôn nằm trong số những lựa chọn hàng đầu cho các bạn học tiếng Anh. Đúng với tên gọi Pocket Edition, cuốn từ điển này rất nhỏ gọn, người học có thể mang đi mọi lúc mọi nơi. Những từ nằm trong từ điển là những từ thông dụng nhất, ngoài giải nghĩa còn có phần câu ví dụ, các từ liên quan, giúp ích rất nhiều trong quá trình tìm kiếm. Tuy nhiên, đối với những bạn có thị lực kém thì hơi khó khăn khi tra từ bởi chữ khá nhỏ. Dù sao đây vẫn là một cuốn sách quá tốt với giá cực kì hợp lý.
5
316903
2015-01-24 14:05:06
--------------------------
151629
34
Nói về chất lượng của cuốn sách này thì không cần phải bàn cãi chi cho mệt ra. Sách nhập khẩu nguyên "chiếc" có khác, cái gì cũng tốt. Từ điển dạng Pocket nên rất gọn nhẹ mang theo mọi lúc mọi nơi. Cuốn này nhỏ thế thôi nhưng rất dễ tra từ, với lượng từ phong phú lên đến 38000 từ và 3000 từ thông dụng,etc. Nhưng đây là cuốn từ điển Anh-Anh nên rất khó cho những bạn starter vì phải còn tra những từ liên quan nữa hơi mất thời gian. Cuốn sách như thế mà chỉ có 100k thì phải nói là cực kì rẻ. Mình cho cuốn sách này 5 sao. Còn bạn?
5
522756
2015-01-20 15:02:03
--------------------------
148947
34
Cuốn Oxford Learner's Pocket Dictionary này hẳn là phải có trên giá sách của bất cứ người học tiếng Anh nào, ít nhất là từ cấp độ intermediate trở lên. Từ điển dạng bỏ túi nên được thiết kế với kích thước hợp lí, chỉ to hơn chiếc điện thoại một chút thôi, dễ tra từ với lượng từ phong phú, kí hiệu từ rõ ràng, đánh dấu cả những từ khóa quan trọng hay dùng. Giấy chất lượng tốt, giá cả vừa phải - với một cuốn từ điển thế này 100k không hề đắt chút nào. Mình nghĩ cuốn từ điển này nên được sử dụng thường xuyên nếu muốn nâng cao khả năng nhớ từ vựng.
5
1050
2015-01-12 00:42:34
--------------------------
148873
34
Nói về cuốn từ điển này thì ưu điểm đầu tiên chắc chắn là sự tiện lợi vì kích thước của nó đúng nghĩa là "bỏ túi". Nhưng không phải vì kích thước nhỏ mà lại không có đầy đủ từ. Đôi khi mình chọn ra những từ rất không thông dụng để dò thử, cũng không mong là có, nhưng hầu như lần nào những từ ấy cũng đều xuất hiện, khiến mình khá ngạc nhiên. Tuy nhiên vì đây là từ điển bỏ túi nên ví dụ hay từ đồng, trái nghĩa không được đầy đủ lắm. Tóm lại cuốn từ điển này phù hợp cho những ai cần dùng tiếng Anh trong những hoàn cảnh không thể mang theo cuốn lớn hoặc không có máy vi tính bên cạnh.
5
502350
2015-01-11 20:44:10
--------------------------
144543
34
về ưu điểm của cuốn từ điển này thì rất nhiều nhưng mình thấy hay nhất là tuy kích thước của nó nhỏ nhưng rất đầy đủ , dễ mang đi và rất nhiều thông tin cần thiết khi dò tử, giấy tốt
Còn về khuyết điểm thì rất khó dò từ vì chữ hơi nhỏ và chỉ dành cho những người có vốn từ tốt.
Nhưng nói tóm lại là nó rất hữu ích và tiện ích cho những ai đang học và yêu thích tiếng anh, hay những người đang đi làm mà liên quan đến tiếng anh.
5
409950
2014-12-27 09:23:01
--------------------------
134066
34
Về chất lượng của từ điển oxford thì mình không có gì để bàn rồi, cái mình muốn nhấn mạnh ở đây chính là sự hữu ích và tiện lợi của nó. Đúng như với tên gọi của từ điển, bạn có thể mang nó theo bên bạn để học bất cứ lúc bạn muốn vì nó không nặng, không cồng kềnh như những loại thông thường. Từ lúc mua cho đến bây giờ mình đi đâu cũng mang nó theo, muốn tra từ nào là có ngay mà không bị phụ thuộc vào điện thoại. Đây là quyển từ điển thật sự hữu ích đối với những người đang học và rèn luyện Anh Văn!!
5
342435
2014-11-08 00:07:13
--------------------------
130401
34
Đầu tiên thì điểm cộng của cuốn từ điển đó là:
- Chất lượng giấy rất tốt. Phải nói là giấy nước ngoài có khác, rất đẹp, mịn, xịn. Chữ in bé nhưng rất nét. Không phải chê trách gì về hình thức của nó cả.
- Từ vựng tương đối phong phú. Những từ thường xuyên sử dụng đều có trong này. Được sắp xếp cũng như in đậm nhạt, kí tự keyword rất chuẩn.
- Bé tí nên rất dễ mang đi. Bạn nào dùng nhiều nên học lại rồi mới dùng vì mở nhiều có thể làm hỏng bìa sách. Mà giấy xin như thế mà để bẩn hay nhàu nát thì xót lắm.
Tuy nhiên vì đây là từ điển Anh- Anh nên sẽ là hơi khó với những bạn có kho từ vựng chưa được phong phú. Tra từ này lại phải tra từ kia rất tốn thời gian. 
Vì thế nó sẽ là 1 cuốn từ điển cầm tay hữu ích cho những bạn có vốn tiếng anh tương đối tốt và hay chuyển dịch.
4
139370
2014-10-17 13:33:49
--------------------------
129675
34
Từ điển Oxford có lẽ đã trở thành một người bạn tất yếu với những ai đam mê học tiếng Anh và xa hơn là có ước mơ đi du học. Đặc biệt là cuốn từ điển này, nó là những keyword , những từ cần thiết nhất, quan trọng nhất đối với một người nước ngoài học tiếng Anh. Hơn nữa, nó lại được thiết kế nhỏ gọn, tiện dụng, có thể bỏ túi mang theo bất kì đâu, chất lượng giấy và kết cấu của nó cũng rất chuẩn xác và hợp lí. Tuy là giá cả cao nhưng bù lại, cuốn từ điển được chính Oxford xuất bản, có tính chính xác cao và là nguồn tài liệu tin cậy nhất cho công việc học tiếng Anh của mình ^^
5
314122
2014-10-12 01:03:31
--------------------------
119247
34
Đầu tiên phải nói đến tính tiện dụng, rất nhỏ gọn, có thể bỏ túi mang theo bất kì nơi đâu của nó. Thứ hai là tính chính xác so với một số từ điển khác (một số từ điển phiên âm không chính xác) vì là của Oxford mà ^^. Tiếp theo là phần trình bày rất rõ ràng, dễ đọc và những từ được sử dũng để dịch nghĩa cũng là những từ thong dụng, dễ hiểu. Nhưng mình không thích một điều là giá nó hơi cao ạ, nhưng cũng không thể trách vì không phải trong nước xuất bản.
4
225369
2014-08-03 17:46:47
--------------------------
116053
34
Từ điển Oxford đã quá nổi tiếng với những ai đam mê học Tiếng Anh. Trong cuốn từ điển này, từng từ vựng được giới thiệu 1 cách ngắn ngọn và chính xác. Cách trình bày và màu sắc của quyển sách rất rõ ràng, chất lượng giấy tốt. Theo tôi nhược điểm duy nhất là do cuốn sách quá nhỏ nên từ vựng không đầy đủ như cuốn Oxford Advanced Learner’s Dictionary vì vậy khi muốn tra 1 số từ cũng không hẳn là ko thông dụng nhưng lại không có. Nhưng dù sao đây là 1 một quyển sách mà những bạn học ngành Tiếng Anh - Ngôn Ngữ Anh đặc biệt nên có!
Tiếc là tôi mua cuốn từ điển này lúc Tiki ko giảm giá hic!
5
340338
2014-07-04 18:51:30
--------------------------
88394
34
Từ điển Oxford luôn là loại từ điển hay và chính xác nhất đối với học sinh như mình, và quyển từ điển bỏ túi này mình thực sự rất hài lòng. Hệ thống từ ngữ được cập nhật rất nhiều từ mới thường xuyên, các từ ngữ được in màu đậm, đẹp và rõ ràng. Phần giải thích súc tích, ngắn gọn dễ hiểu, có ví dụ minh họa đi kèm rất bổ ích với người mới học . Chất liệu giấy của quyển từ điển rất tốt, mình đã sử dụng hơn 4 năm rồi mà giấy vẫn trắng sáng, ko bị ngả màu vàng ố. 1 điểm trừ nhỏ của quyển từ điển bỏ túi này là số lượng từ ngữ hạn chế hơi nhiều so với từ điển thật sự, nhưng dù sao đây vẫn là quyển sách rất đáng để sắm đối với các bạn muốn trau dồi vốn từ!
5
91158
2013-07-25 23:11:23
--------------------------
87629
34
Đúng như tên gọi của nó Oxford Learner's Pocket Dictionary. Từ điển của Oxford thì khỏi phải bàn rồi, rất chất lượng. Thứ hai là vì "pocket", có thể bỏ túi, rất tiện dụng, mang đi đâu cũng được lại không nặng cặp. Cuốn từ điển này chọn ra những từ thông dụng nhất và cung cấp những nghĩa phổ biến, được sử dụng nhiều nhất để người dùng không bị loạn. Hơn nữa bên cạnh điều trên, từ điển còn có ghi chú những cấu trúc, thành ngữ đi liền với từ đó khiến ta sử dụng dễ dàng và cung cấp nhiều kiến thức cho ta, giúp ta học từ tốt hơn. Mỗi tội chữ hơi nhỏ, giờ kiểm tra để dưới ngăn bàn nhìn hơi khó một chút :)))
5
92868
2013-07-19 16:54:58
--------------------------
86789
34
Đẹp-giấy mịn-nhỏ gọn là ba ưu điểm duy nhất có thể kể đến nhưng mà nói thật mình thấy từ điển tiếng Anh-Việt lúc nào cũng là nhất, đặc biệt cho những ai ít vốn từ như mình.
Người ta thường bảo là học tiếng Anh nên xài từ điển Anh-Anh sẽ giúp nhớ từ lâu hơn, mình thấy nó không đúng, mình đã mua và xài thử cuốn từ điển này, nhưng mình quyết định xếp nó lên kệ sau một tuần. Nó ít từ, bảo sao nó không nhỏ nhắn xinh xắn đến vậy, nó còn bắt mình phải tra thêm từ khác khi nó miêu tả một từ này bằng tiếng Anh và có từ trong đoạn miêu tả mình không hiểu lắm. Nên rất mất thời gian khi mình làm bài.Từ điển Anh-Anh giúp người học liên tưởng, trí óc sẽ vận động nhiều, sẽ nhớ lâu từ đó hơn. Điều này chắc là không đúng đối với mình, vì tra từ một tuần trong cuốn sách này, mình chả nhớ được từ nào cả. Những từ tiếng Anh khiến mình nhớ là những từ được dịch ra với một ý nghĩa đẹp và nhất định nào đó, điều này chắc chắn ở một cuốn từ điển Anh-Anh là không thể vì nó còn dựa vào khả năng dịch của chính bản thân mình, với vốn từ tiếng Anh đã ít, vốn từ tiếng Việt cũng không phải nhiều, thâm chí là người Việt chính gốc. 
Nên các bạn nếu quan tâm, hãy xem xét thật kĩ trước khi quyết định, đừng để mua rồi lại xếp lên kệ như mình.
3
117397
2013-07-12 19:37:37
--------------------------
80567
34
Thật sự thì nhà mình đã có cuốn Oxford Advanced Learner’s Dictionary 8th Edition nhưng vẫn quyết định mua thêm  Oxford Learner’s Pocket Dictionary. vì
- Nhỏ nhẹ, mang đi mọi lúc mọi nơi, dễ dàng tra cứu khi cần
- Hình thức trình bày rất đẹp, rõ ràng, tông màu xanh dương tươi mát, có bảng chữ cái phía dưới sách để dễ dàng tìm từ 
- Chứa đựng khá đầy đủ các từ thường xuyên được sử dụng trong tiếng Anh
- Nghĩa được giải thích rất dễ hiểu, đa số các từ điển Anh-Việt hiện nay giải thích nghĩa sai, không thể hiện rõ được nghĩa của từ
Thật vui khi đợt trước tiki giảm giá còn 90k và mình đã nhanh tay mua được ^^
5
71514
2013-06-13 11:17:15
--------------------------
78043
34
Ưu điểm đầu tiên của cuốn Oxford Learner's Pocket Dictionary này chính là ở sự nhỏ gọn của nó. Bạn có thể đem theo bên mình mọi lúc mọi nơi. Những khi cần tra cứu một cách nhanh, gọn , lẹ thì nó chính là vị cứu tinh của bạn. Với lượng từ khá lớn và đa phần là những từ thông dụng nhất, bạn có thể an tâm trong việc tra cứu. Nhưng nên nhớ rằng, đây chỉ bản pocket nên hẳn nhiên không phải từ nào cũng có mặt trong cuốn từ điển này. Đôi khi, khi gặp phải những từ không mấy thông dụng hay những từ có tính chuyên ngành thì bạn sẽ không tra cứu được. Tuy nhiên so với việc suốt ngày cứ kè kè bên mình cuốn Oxford full vừa to vừa nặng, thì bản pocket này quả là tiện lợi hơn rất nhiều. Với những bạn lần đầu sử dụng sẽ thấy phần chữ hơi nhỏ , nhưng không sao, bù lại chúng được sắp xếp 1 cách rành mạch, rõ ràng. Đối với mình, việc sở hữu cuốn oxford này là một sự lựa chọn không bao giờ hối tiếc. 
4
68435
2013-05-30 20:44:27
--------------------------
77667
34
Mình tình cờ biết cuốn từ điển nhỏ xinh này qua 1 người bạn và đặt mua ngay trên Tiki. Cuốn từ điển pocket này chưa bằng một nửa cuốn từ điển Anh – Việt mà mình đã mua trước đó, nhưng “nhỏ mà có võ” đó nha. Nhờ nó mà mình có thể nâng cao vốn từ và cách diễn đạt tiếng Anh thông qua việc đọc và dịch nghĩa các từ vựng mới được giải thích bằng tiếng Anh trong từ điển. Không những vậy, với kích thước nhỏ gọn, cầm rất nhẹ tay, khi mình bỏ vào cặp không hề thấy nặng một chút nào. Vì thế hầu như ngày nào mình cũng mang theo để tranh thủ mỗi giờ giải lao lấy cuốn từ điển ra học và ôn lại cách phát âm cũng như cách dùng của các từ vựng mà mình đã học trên lớp.
Đương nhiên vì kích thước nhỏ gọn nên số lượng từ không nhiều bằng cuốn Oxford Advanced, nhưng đối với học sinh chúng mình, thì cuốn từ điển này đã đủ 2 tiêu chí: dễ mang theo và vô cùng tiện lợi khi tra từ. Rất đáng để mua! 

5
10908
2013-05-29 09:11:31
--------------------------
60769
34
Thực ra nếu chỉ học bình thường trên lớp phổ thông thì cũng chẳn cần mua Anh-Anh làm gì . Còn nếu như học chuyên hay thi khối D1 mục tiêu trên 20 điểm thì lại chẳng dùng được bản này vì vốn từ quá quá ít, bắt buộc phải yêu cầu từ điển loại đầy đủ nhất (giá cỡ từ 300k trở lên). Mình tạm xét với chương trinh học ở phổ thông, còn đội từ đại học trở lên thì lại càng không dùng. Nói chung, theo ý kiến của riêng mình, thì Oxford Learner's Pocket Dictionary chẳng có mấy ích lợi, diễn giải quá vắn tắt, thiếu ví dụ, hơn nữa lại còn là phiên bản cũ từ mãi năm nào....
1
13387
2013-02-25 19:04:18
--------------------------
60680
34
Nhỏ gọn -  phong phú và chính xác. Đó là những gì dễ nhận thấy ở cuốn từ điển này. Nó thực sự giúp ích rất nhiều cho mình trong việc học từ vựng tiếng Anh. Bằng việc giải thích hoàn toàn bằng tiếng Anh giúp ta làm quen và có phản xạ nhanh nhạy hơn mỗi khi tiếp xúc với từ ngữ tiếng Anh thay vì giải thích nghĩa như một số từ điển tiếng việt khác. Ngoài ra thì khi mình mua ở Tiki lại được giảm giá khá nhiều so với các nhà sách khác nên tiết kiệm khá nhiều. Đây thực sự là một  quyên sách cần thiết cho việc học tiếng Anh!!!
4
42601
2013-02-24 20:41:33
--------------------------
59152
34
Đối với những người học ngoại ngữ,  việc chọn lựa cho mình một quyển từ điển phù hợp với trình độ và khả năng là hết sức quan trọng. Quyển từ điển bỏ túi nhỏ gọn này đã kịp thời đáp ứng được nhu cầu đó của mọi người. Nó không chỉ bao gồm những từ ngữ thông dụng mà một số từ chuyên ngành cũng được cập nhật. Ngoài ra, cách giải thích nghĩa của từ cũng rất đơn giản và dễ hiểu. Hơn nữa, nó lại rất tiện lợi vì hình thức nhỏ gọn, đẹp mắt của mình. Tuy nhiên, theo tôi nghĩ, nếu các bạn đang chuẩn bị cho những kì thi quốc tế quan trọng như TOEFL hay IELTS thì quyển từ điển này vẫn là chưa đủ, một quyển từ điển Advanced của Oxford sẽ là hợp lí hơn cả trong trường hợp này.
4
68675
2013-02-11 14:27:00
--------------------------
57440
34
Mình thấy cuốn này rất là có ích. Dân chuyên ngữ như bọn mình ai cũng có một cuốn cả. Nó được ưa chuộng là vì các lí do sau đây:
- Nhỏ gọn, tiện lợi, dễ mang theo.
- Có khoảng 3000 từ thông dụng trong Tiếng Anh, thêm vào đó còn có giải nghĩa 38000 từ và cụm từ  và hơn 8000 ví dụ minh hoạ.
Nếu phải mang cuốn lớn Oxford Advanced learner's dictionary đi học hàng ngày thì hơi bất tiện vì nó cồng kềnh.
Vậy nên cuốn này là một lựa chọn thích hợp cho những bạn cần dùng từ điển trên lớp nhưng lại ngại mang theo cuốn lớn.
Có điều hạn chế hiển nhiên là vì nó nhỏ hơn nên chỉ có các từ thông dụng chứ không đầy đủ lắm, vì vậy chỉ có thể dùng tạm trong các tình huống cần kíp chứ không thể thay thế vị trí của cuốn từ điển lớn.
Để sử dụng hiệu quả cuốn từ điển này cũng như nâng cao trình độ học tập, các bạn nên sử dụng kết hợp với cuốn Oxford Advanced learner's Grammar.
5
6455
2013-01-29 22:37:05
--------------------------
55895
34
khi tôi mua quyển này trên TIKI thì đó đã là lần thứ ba tôi bỏ tiền vì nó, cũng có nghĩa là tôi đã hậu đậu làm mất hai lần. Nhưng tôi vẫn vui vẻ bỏ tiền ra mua lại nó, vì quyển này thực sự xứng đáng!
Không chỉ cung cấp định nghĩa đơn giản dễ hiểu cho người đọc, nó còn đưa ra những Phrasal Verbs và thành ngữ thông dụng đi kèm với từ đó. Điều này giúp ích rất nhiều cho những bạn có nhu cầu tìm hiểu về văn hoá bản địa của các nước nói tiếng Anh( qua sách báo, phim,...) cũng như thi lấy các loại chứng chỉ.
nhược điểm là vì quá nhỏ( bỏ túi mà) nên nhiều từ Chuyên ngành bị bỏ sót. Bên cạnh đó những bạn cần chuyên sâu vào ngôn ngữ cũng sẽ không hài lòng với quyển này, vì nó không cung cấp phần Collocations  và Thesaurus.
Nhìn chung, tôi không thể đòi hỏi gì hơn từ người bạn nhỏ nhắn này.
4
62260
2013-01-17 22:17:21
--------------------------
52783
34
Oxford Learner's Pocket Dictionary là một cuốn từ điển tương đối hưu dụng dành cho người học Tiếng Anh, bao gồm những giải thích và điểm ngữ pháp khá ngắn gọn, chính xác. Tuy nhiên, sau một thời gian sử dụng, ta có thể nhận thấy Oxford Learner's Pocket Dictionary vẫn một số điểm hạn chế. Bởi, nếu học Tiếng Anh giao tiêp cấp tốc thì dùng từ điển Anh-Việt sẽ tiện lợi hơn, còn đối với người học Tiếng Anh chuyên sâu hay luyện thi các chứng chỉ quốc tế thì vốn từ trong Oxford Learner's Pocket Dictionary lại quá ít và thiếu ch tiết. Hơn nữa, Oxford Learner's Pocket Dictionary đến nay mới ra phiên bản thứ tư, việc lâu tái bản chắn chắn cũng sẽ không thể đáp ứng được nhu cầu cập nhật khá cao của người học hiện nay.

3
13387
2012-12-28 19:06:18
--------------------------
52307
34
Cuốn từ điển "Oxford Learner's Pocket Dictionary: A Pocket-sized Reference to English Vocabulary" rất hữu dụng đối với các bạn học tiếng Anh. Đặc biệt là các bạn học sinh ban D. Ngay từ khi vào lớp 10 các bạn đã có thể sử dụng quyển từ điển này được rồi. 
Đây cũng là cuốn từ điển được các thầy cô giáo gợi ý cho học sinh mua rất nhiều. Lí do thứ nhất là mặc dù là từ điển Anh-Anh nhưng giải thích rất ngắn gọn, đơn giản và dễ hiểu. Nên qua phần giải thích đó các bạn đôi khi còn có thể biết thêm nhiều từ khác nữa. 
Nếu dùng từ điển Anh - Anh nhiều bạn sẽ quen dần với việc nghĩ bằng tiếng Anh và điều đó rất tốt cho việc hình thành "Rạch phản ứng ngôn ngữ". Đối với người học tiếng anh thì điều đó rất quan trọng.
Có thể nói đây là sự lựa chọn tốt nhất cho những ai học tiếng anh vì nó vừa nhỏ gọn lại vừa tiện dụng. Các bạn có thể mang đi bất cứ nơi đâu.
5
66838
2012-12-26 01:22:29
--------------------------
51423
34
Oxford bỏ túi rất tiện lợi vì mỗi khi đi đâu mình cũng có thể mang theo.Từ vựng trong Oxford lại phong phú hơn nhiều từ điển khác.Từ điển Anh-Anh giúp trau dồi thêm nhiều từ vựng mới.Chẳng hạn khi bạn tra một từ nào đó thì từ đó sẽ được giải thích bằng tiếng Anh,nếu trong câu được giải thích có thêm từ mới thì bạn có thể tra từ mới ở một trang khác,như vậy bạn đã học thêm được từ nữa.Với lại ở mỗi từ đều có cách phát âm giúp bạn đọc chuẩn hơn....Oxford Learner's Pocket Dictionary thích hợp cho mọi người và rất hữu dụng trong việc cải thiện vốn từ vựng của bản thân.
5
68263
2012-12-20 16:30:01
--------------------------
40784
34
Không còn gì tốt hơn cho một từ điển bỏ túi. Nhỏ gọn, tiện lợi, đa năng, đó là tất cả những gì sản phẩm này chứa đựng. 

Vẫn là cách giải nghĩa, chú thích ngắn gọn nhưng rất đầy đủ của Oxford, bạn không thể nào không hài lòng khi sử dụng quyển từ điển này. Mình đã mua một cuốn và sẽ không ngại ngần gì để mua thêm một quyển Grammar pocket ngay khi có điều kiện.

Từ điển có 38.000 nghìn từ, nhưng nhà xuất bản đã rất thông minh, chắt lọc lại hầu hết những từ ngữ tối quan trọng, gần như trong quá trình sử dụng sẽ không thiếu một từ nào ( trừ các từ chuyên ngành khoa học chuyên môn). Đầy đủ , không bị rút gọn về mặt giải nghĩa so với bản gốc. Phrasal Verbs cũng không thiếu một từ nào.

Thiết nghĩ nếu bạn đang ở trình độ trung bình trở lên. Bạn nên mua một quyển để sử dụng. Cuốn từ điển này hay đến nỗi tôi phải nhắc lại một lần nữa, đây là cuốn từ điền rất "Nhỏ gọn, tiện lợi và đa năng".
5
56442
2012-09-24 18:53:44
--------------------------
40284
34
Mình đã có 1 quyển Oxford Learner's Pocket Dictionary,  mình mua từ năm 2008 ở hiệu sách, phải nói đây là 1 quyển từ điển rất tuyệt vời. Vậy nên mình đã đặt mua quyển nữa trên Tiki.vn để tặng 1 người bạn. Khi nhận được sách, phải nói là mình rất hài lòng. Sách đẹp đúng như quyển của mình, lại còn được tặng thêm bìa bọc nữa chứ, đem đi tặng thật không nỡ. Vậy là bạn mình đã được cung cấp thêm 1 sự trợ giúp đắc lực trong việc học tiếng anh. Cảm ơn tiki nhiều. :)
5
43144
2012-09-19 21:18:21
--------------------------
40209
34
Là từ điển anh - anh nhưng từ điển của Oxford giải nghĩa rất dễ hiểu lại còn có cả phần ví dụ ngắn để mình biết cách dùng nữa. Trên trang của Oxford cũng có từ điển online nhưng mà tra từ điển sách thì tốt hơn nhiều. Dùng online hay các loại từ điển cài trên máy tính dễ gây ra thói quen lười cho người học lắm, mà cũng không thể lúc nào cũng kè kè máy tính được, hỏng mắt nữa. Bản thân mình thấy tra bằng sách thì sẽ nhớ từ lâu hơn. Quyển Pocket-sized này cũng nhỏ nên mang đi rất tiện. Mà bản pocket nhưng từ không phải là ít, thậm chí là rất nhiều ý. Đặc biệt là đối với học sinh, kể cả những ai đang ôn thi đại học, thì quyển này là quá đủ. 
5
57213
2012-09-19 14:12:02
--------------------------
38216
34
Tôi chỉ sử dụng quyển từ điển này khoảng gần vài tháng nay nhưng kết quả đạt được rất khả quan. Từ điển anh-anh làm vốn từ của tôi ngày 1 tăng, có những ví dụ cụ thể và thiết kế rất tối ưu cho người sử dụng, đặc biệt là lứa tuổi học sinh như tôi. Đi đâu tôi cũng mang theo nó như 1 vật bất li thân vậy. Hễ gặp từ mới là lại lấy ra để tìm kiếm và học. Mỗi ngày 1 ít, dần dần tôi định hình cho mình thói quen như thế. Chỉ sau thời gian ngắn tôi học hỏi được  vốn từ vựng rất đa dạng. Qủa là thương hiệu Oxford không làm tôi thất vọng! Ngoài ra tôi còn dùng từ điển này bằng chương trình trên máy tính, rất nhanh gọn và tiết kiệm thời gian.

Tôi cũng định mua cho mình thêm những cuốn luyện grammar khác cùng thương hiệu Oxford. Hi vọng vốn tiếng anh của tôi sẽ ngày càng được cải thiện hơn.
5
36331
2012-08-30 21:02:25
--------------------------
38005
34
Tôi đã sở hữu một cuốn từ điển Oxford Advanced Learner's Dictionary dày và rất đầy đủ nhưng vẫn quyết định mua thêm một cuốn từ điển pocket vì tính tiện lợi của nó. Ưu điểm của cuốn từ điển pocket là bạn có thể mang theo nó đến mọi lúc mọi nơi, để trong túi quần, trong túi xách....mà vẫn nhẹ nhàng. Từ được giải thích súc tích, ngắn gọn,phiên âm đầy đủ. Nhưng khuyết điểm  của nó là không cho bạn các ví dụ cụ thể trong từng tình huống, hay từ đồng nghĩa, từ trái nghĩa như trong cuốn Oxford Avanced Learner's. Cuốn sách này thuận tiện khi đi du lịch, giúp các bạn học tiếng Anh mọi lúc mọi nơi.Theo tôi thì một người học tiếng Anh đến trình độ từ Intermediate trở lên nên sở hữu cả 2 cuốn sách. 
4
6304
2012-08-29 12:29:08
--------------------------
32097
34
Cuốn từ điển này kích thước nhỏ, nên có thể mang đi học, đi làm,... mà không vướng víu bất tiện. Khi đi học, vì nhu cầu nên mình phải mang theo từ điển. Trước đây thì mình thường mang cuốn Oxford Advanced Learner's Dictionary nhưng bây giờ thì chỉ mang cuốn pocket thôi, vì :
-Nhỏ gọn lại có đầy đủ những từ thông dụng, cách dùng,ví dụ, từ đồng - phản nghĩa, hơn hẳn nhiều cuốn từ điển Anh-Việt cũng thuộc loại bỏ túi. 
-Cách phân bố trang nhìn khá thuận mắt với hai màu xanh - trắng.
-Có một số phrasal verb, idiom thường gặp.
-Đôi khi từ điển sẽ khuyên bạn nên so sánh nghĩa với một số từ khác gần nghĩa, để bạn dùng từ chính xác ( mình thích cái này lắm).
-Và cuối cùng là phiên âm quốc tế, bạn có thể dựa theo phiên âm để đọc cho chuẩn .( Cái này thì hình như cuốn nào cũng có:D).
Nhưng cũng nên chú ý trước khi mua nhé:
 -Nếu bạn là beginner, mình khuyên bạn không nên mua vì bạn phải sở hữu một vốn từ vựng kha khá thì mới sử dụng được ~^O^~. 
-Thêm một điểm nữa là từ điển không có phần mực bôi đen đánh dấu theo thứ tự  A - B - C - D,...  từ  trên xuống như một số cuốn Anh-Việt hiện hành nên khi dò bạn phải nhắm chừng xem từ đó ở đâu, nếu không thì dò lâu lắm ^^
-Nếu bạn mua với mục đích là viết ESSAY hay củng cố WRITING thì mình thật sự khuyên là NÊN mua cuốn Oxford Advanced Learner's Dictionary 8th Edition để tiện viện tra cứu vì có phần iwriting và kèm theo đĩa cd giúp bạn cải thiện khả năng writing.
Mình chỉ nhận xét thế thôi, vì đây là kinh nghiệm của mình khi sử dụng hết cả 2 cuốn :d Hy vọng sẽ giúp ích cho bạn trong quá trình lựa chọn.
5
18948
2012-07-02 13:06:51
--------------------------
24504
34
Tôi trước giờ vẫn dùng từ điển của Oxford phần vì sự tin cậy ở chất lượng học thuật của các sản phẩm của nhà xuất bản này. Tôi mua bản pocket này trong một lần tình cờ, nhưng rồi những những người bạn xung quanh tôi cũng lần lượt sắm cho mình một cuốn vì tính tiện ích của nó. Nếu cuốn Oxford Dictionary bản Advanced được xem là đầy đủ, thì đây chính là phiên bản con của nó. Sau này, khi sang học tập nơi đất khách, tôi vẫn sắm thêm một cuốn bên mình, tôi cũng từng tìm phiên bản bỏ túi của các nhà xuất bản khác nhưng chúng đều có sự bất tiện nhất định. Cuốn từ điển không những bỏ vừa túi, mà còn giải nghĩa ngắn gọn, súc tích nhưng rất đầy đủ, lại thêm phần phiên âm - một vấn đề rất cần thiết cho người học mà tôi không tìm thấy ở nhà xuất bản khác.
5
2608
2012-04-12 16:53:45
--------------------------
19695
34
Rất tiện ích là những gì tôi có thể nói về quyển từ điển này. vì kích thước nhỏ gọn nên rất dễ dàng mang theo trong các buổi học mà không nặng nề, cồng kềnh như những quyển từ điển thông thường. Là từ điển Anh -Anh, nó giúp cho người học hiểu từ vựng bằng tiếng Anh, tập cho chúng ta một thói quen rất cần có ở mỗi người học tiếng Anh đó là suy luận bằng tiếng Anh. Nhờ có nó, tôi đã có những tiến bộ rất rõ rệt trong học tập.
Vì vậy, đừng chần chừ mà hãy sỡ hữu ngay quyển từ điển "Nhỏ mà có võ" này !!!~
5
17909
2012-02-21 19:37:05
--------------------------
18687
34
Mình gọi nó là quyển từ điển bỏ túi vì kích thước của nó vô cùng nhỏ gọn, nhưng lượng từ trong đó thì không hề nhỏ chút nào nhé! Khoảng 3000 từ thông dụng đấy :)
Khi mở quyển từ điển ra, mình lật ngay trang có từ " blood ( máu)  : red liquid that flows through your body ( tạm dịch là: chất lỏng màu đỏ chảy trong cơ thể bạn) "- mình thực sự ấn tượng vì cách giải thích vô cùng thú vị này :)
Các bạn đã có 1 vốn kiến thức Tiếng Anh cơ bản thì nên mua quyển này vì đây là từ điển Anh - Anh, cách giải thích nghĩa của từ rất dễ hiểu, trang sách tuy chữ nhỏ nhưng được trình bày gọn gàng: từ gốc màu xanh, giải nghĩa màu đen...
Hữu dụng - chính là từ để mô tả quyển từ điển này :)
Tiếc là Tiki hết hàng mất rồi, mình đang ngóng ngày có hàng lại để order cho đứa bạn 1 quyển!!!
5
19452
2012-02-05 17:36:45
--------------------------
18258
34
Mình đã có 1 cuốn nhưng làm mất trong dịp đi du lịch cùng gia đình nên đang cần tìm mua thêm 1 cuốn. Tiếc quá vì hết mất hàng. Cuốn pocket dic này thực sự rất hữu ích trong việc học từ mới E. Nhỏ gọn,chú thích dễ hiểu,đầy đủ các từ thông dụng. Mình có thể học từ mới E ở bất kì đâu,ngay cả khi đi chơi,du lịch với gia đình,bạn bè. Mình ở Hà Nội và tìm mua ở nhiều nhà sách lớn như Nguyễn Văn Cừ với giá 110 k nhưng vẫn là hàng in lởm.
5
23414
2012-01-28 22:30:07
--------------------------
15881
34
- Thực ra, các sách của Oxford không dễ đọc cũng như học, nhất là đối với từ điển, vì lý do sau:

< Từ điển hoàn toàn bằng tiếng Anh (kể cả phần dịch nghĩa). Do đó, nếu bạn không có 1 vốn từ "căn bản" và ngữ pháp "căn bản" vững chắc, thì bạn không nên sử dụng quyển từ điển này (hoặc từ điển Anh - Anh) vì khi đó bạn sẽ cảm thấy từ mới thật khó để nhớ. Theo mình thì khi ấy các bạn nên mua 1 quyển từ điển Anh - Việt bỏ túi để dễ dàng tra cứu rồi mới nên mua quyển Oxford Learner's Poket Dictionary này >

- Khi bạn đã tự tin với vốn từ "cơ bản", "từ thông dụng" của mình, thì bạn nên mua quyển Oxford Learner's Poket Dictionary cho riêng mình vì những lý do sau:

1/ Từ điển này nhỏ, gọn, dễ dàng mang đi tra cứu

2/ Mặc dù nhỏ, gọn nhưng quyển từ điển vẫn cập nhật khoảng 100 từ mới nhất.

3/ Với Oxford 3000 keywords, bạn có thể dễ dàng tra cứu những từ thông dụng nhất và học chúng, vì với 3000 từ này, bạn có thể sẽ học được gấp hơn nhiều lần như vậy (ví dụ nếu bạn sử dụng chung với quyển Oxford Learners Pocket Thesaurus, bạn có thể biết thêm rất nhiều từ đồng nghĩa, phục vụ rất tốt cho các kì thi quốc tế như TOEIC, TOEFL, IELTS, PET, KET,...)

4/ Sau những phần dịch nghĩa, quyển từ điển này còn mang lại cho bạn những ví dụ ngắn gọn, đơn giản, giúp bạn có thể biết cách sử dụng những từ đó trong câu để trau dồi thêm ngữ pháp của mình.

5/ Theo mình, quyển từ điển này rất thích hợp cho những bạn từ Pre - Intermediate trở lên sử dụng, vì vào lúc này, bạn đã trang bị được những cái cơ bản để sử dụng một cách hiệu quả nhất quyển từ điển này!

Đó là những nhận xét của mình!
Mong các bạn lựa chọn được quyển từ điển phù hợp với mình nhất!
5
17933
2011-12-13 13:28:25
--------------------------
14429
34
Mình thấy cuốn từ điển này cực kì tiện lợi. Thứ nhất là vì nó nhỏ và gọn hơn rất nhiều so với các từ điển Oxford bỏ túi được dịch lại ra tiếng Việt rất nhiều. Gáy sách đóng rất chắc nên dùng lâu ko bị bung hay rách như từ điển Oxford phiên bản Việt. Mình có cuốn từ điển này loại dịch ra tiếng Việt nhưng cuốn dịch ra ko bền và hay. Thứ hai, phần giải nghĩa từ rất đơn giản, dễ hiểu, các ví dụ minh họa cũng rất rõ ràng. Cuốn này là dạng từ điển Anh - Anh nên giúp bạn  tăng khả năng dùng từ, diễn đạt, đặc biệt là tăng vốn từ vựng cực nhanh. Thứ ba, số lượng từ nhiều và đầy đủ trong khi các cuốn từ điển dày và lớn nhiều lúc khiến mình rối vì có quá nhiều từ loại trong cùng 1 word family. Quyển từ điển chỉ nêu ra những từ thường dùng và chính xác nhất nên bạn yên tâm là không bị lúng túng khi không biết chọn từ đâu. Mình đang sử dụng quyển từ điển này và mình thấy rằng các bạn đang học chương trình Mediated hay Advanced có thể dùng phù hợp, cực kì đáng đồng tiền bát gạo đấy!
5
16928
2011-11-13 00:53:51
--------------------------
14032
34
Mình rất thích sử dụng từ điển Oxford vì độ chính xác và phong phú, cần tìm từ gì cũng có. Thêm vào đó là hệ thống ví dụ, cách dùng từ và ngữ cảnh rất hữu ích của bộ từ điển này. Chất lượng giấy và in ấn cũng rất tốt. Tuy cuốn từ điển này không đầy đủ bằng cuốn Oxford Learner's Advance nhưng lại rất nhỏ gọn, tiện lợi. Thật sự là một lựa chọn tuyệt vời cho những ai muốn trau dồi thêm vốn tiếng Anh ở mọi lúc mọi nơi! Hãy “tậu” ngay một cuốn đi thôi!
5
12468
2011-11-03 23:00:53
--------------------------
12845
34
  Có một quyển từ điển Oxford từ bé đến giờ với tôi vẫn là điều đáng để mơ ước !  Quyển từ điển hiện vẫn nằm trong danh sách yêu thích và sớm thôi, tôi sẽ có trong tay cuốn từ điển này. Những kim từ điển xa xỉ và hiện đại vẫn không khiến tôi mê mẩn bằng những quyển từ điển chi chít chữ như thế. Từ điển Oxford luôn dẫn đầu về chất lượng, từ vựng được giải thích cặn kẽ, thiết thực mà dễ hiểu với nhiều ví dụ tiêu biểu luôn là thế mạnh và nổi trội so với những quyển từ điển tràn lan hiện nay trên thị trường. Mặc dù kim từ điển gần đây luôn nở rộ nhưng sức hút của những quyển từ điển Oxford là không gì có thể bàn cãi ! Nhỏ gọn mà lại rất ý nghĩa và hữu dụng, với tôi thì đây luôn là một lựa chọn đúng đắn !  Nhất là với học sinh - sinh viên như tôi thì đây lại là món quà, là sản phẩm mà bất cứ ai cũng không thể thiếu và luôn mong có được. Ưu điểm nổi trội nữa chính là từ cách dịch từ theo phương pháp Anh - Anh khiến người đọc không những nâng cao được vốn từ mà hiểu chính xác và cặn kẽ hơn. Mong là Tiki sẽ có nhiều chương trình khuyến mãi và nhập về nhiều sản phẩm như cuốn từ điển bỏ túi Oxford này !
5
4717
2011-10-13 23:14:14
--------------------------
12726
34
Đây là cuốn từ điển rất bổ ích cho việc học ngoại ngữ của mình. Mình có thể mang theo nó bên mình và sử dụng bất cứ lúc nào. Giải thích đơn giản, ngắn gọn có cả phonetics thuận tiện cho việc kiểm tra và sửa lỗi phát âm khi nói.
Bây giờ cuốn từ điển này rất phổ biến, đến lớp học tiếng anh nào cũng thấy vài bạn có nó.
Có một cuốn từ điển giấy bao giờ cũng thích hơn là dùng từ điển trên di động hay kim từ điển cả.Hehe
Đây đúng là một trợ thủ đắc lực cho việc học tiếng anh.
3
13281
2011-10-12 12:20:51
--------------------------
11933
34
Oxford learner's pocket dictionary thật sự là một quyển từ điển rất tuyệt vời dành cho những người học Tiếng anh. Không chỉ giải thích rõ ràng dễ hiểu, từ điển này còn cung cấp một các thành ngữ, prasal verbs rất bổ ích, Nó đã giúp tôi rất nhiều trong việc trau dồi từ vựng và chuẩn bị cho kì thi học sinh giỏi.  với một lượng kiến thức phong phú mà lại rất nhỏ gọn, phù hợp với các bạn học sinh, sinh viên khi mang theo đến trường. Thật tuyệt vời làm sao khi mọi thắc mắc về từ vựng đều được giải đáp trong quyển từ điển tí hon.Tôi mong rằng nó sẽ đến được với tay nhiều bạn đọc.  Đúng thật là một quyền thần chú dàng cho người học tiếng anh!
5
12707
2011-09-29 17:44:43
--------------------------
9291
34
Quyển từ điển này rất hữu dụng. Vì nó nhỏ gọn, có thể đọc được ở mọi lúc mọi nơi mà số lượng từ cũng không ít, đầy đủ những từ thường gặp, phrasal verb và idiom thông dụng,  Quyển từ điển này đã đồng hành cùng với mình trong suốt những tháng ngày học tiếng Anh, đặc biệt là quãng thời gian ôn thi đại học. Bây giờ mình chuyển sang học ngoại ngữ khác rồi nhưng vẫn mang theo nó để không quên tiếng Anh.

Còn một lý do nữa khiến mình gắn bó với quyển từ điển này, đó là vì nó do bạn thân của mình tặng :X
5
4792
2011-08-01 22:10:23
--------------------------
9025
34
Mình đã được bạn thân tặng cho cuốn từ điển này nhân dịp sinh nhật, phải nói là nó rất hữu dụng vì nhỏ gọn ( pocket mà :p ) hơn nữa nghĩa của từ khi tra cứu cũng rất dễ hiểu và dễ suy luận.
Lợi điểm của từ điển Anh - Anh này là bạn sẽ hiểu luôn nghĩa của nó theo tiếng anh chứ không như các từ điển  Anh - Việt đôi khi dịch nghĩa không sát nên rất dễ gây rối khi dùng từ. Ngoài ra nó còn cung cấp một số idiom hay giới từ kèm theo nên bạn cũng có thêm nhiều thông tin rất hữu ích nữa nhé 
5
9242
2011-07-28 17:23:25
--------------------------
8809
34
nếu học tiếng Anh đã lâu thì bạn không thể nào không biết đến cuôn từ điển oxford. đặc biệt là cuốn  "Oxford Learner's Pocket Dictionary: A Pocket-sized Reference to English Vocabulary" này. với đặc trưng là từ điển Anh_Anh, cuốn từ điển này sẽ giúp ích bạn không những về từ vựng mà còn giúp bạn hoàn thiện khả năng dịch thuật. từ điển sẽ dịch từ vựng tiếng Anh bằng những câu, từ tiếng Anh rất đơn giản sẽ giúp bạn hoàn thiện vốn tiếng anh của mình rất nhiều. với thiết kế nhỏ gọn, không to như các từ điển oxford khác giúp bạn dẽ dàng mang theo đi học, đi dạy,... các trang sách với 2 màu chữ xanh và trắng trành gây rối mắt, giúp bạn dễ dàng tra cứu. tuy nhỏ nhưng cuốn từ điển gồm rất đầy đủ những từ thông dụng, và không hề ít từ hơn những từ điển to khác. rất tiện lợi và hữu ích.
5
6383
2011-07-24 19:31:15
--------------------------
5306
34
Từ điển gọn nhẹ, mang đi đâu cũng được hết ! Tất cả nằm trong bị mà thôi. Giáo viên sẽ bớt lo âu và mệt mỏi khi giải quyết các thắc mắc về từ vựng và nhất là những câu hỏi đột ngột của học sinh, còn gì cần phải phân vân nữa khi POCKET giờ đã đúng nghĩa là pocket. Một trợ thủ đắc lực đúng nghĩa của nó :"Nhỏ mà có võ". Tất cả chờ vào quyết định cuối cùng của mình mà thôi. Thế giới ngôn ngữ , những gì cô đọng đều nằm trong túi của bạn rồi. Cuốn từ điển bé nhỏ sẽ mang lại tất cả chỉ thông qua bàn tay và từng ngón tay lật trang nữa thôi ! Quá tuyệt còn gì nữa !!!
5
5647
2011-05-30 16:03:12
--------------------------
